(kicad_pcb (version 20171130) (host pcbnew "(5.1.0)-1")

  (general
    (thickness 1.6)
    (drawings 2)
    (tracks 259)
    (zones 0)
    (modules 2)
    (nets 129)
  )

  (page A4)
  (layers
    (0 F.Cu signal)
    (31 B.Cu signal)
    (32 B.Adhes user)
    (33 F.Adhes user)
    (34 B.Paste user)
    (35 F.Paste user)
    (36 B.SilkS user)
    (37 F.SilkS user)
    (38 B.Mask user)
    (39 F.Mask user)
    (40 Dwgs.User user)
    (41 Cmts.User user)
    (42 Eco1.User user)
    (43 Eco2.User user)
    (44 Edge.Cuts user)
    (45 Margin user)
    (46 B.CrtYd user)
    (47 F.CrtYd user)
    (48 B.Fab user)
    (49 F.Fab user)
  )

  (setup
    (last_trace_width 0.2)
    (user_trace_width 0.2)
    (trace_clearance 0)
    (zone_clearance 0.508)
    (zone_45_only no)
    (trace_min 0.2)
    (via_size 0.8)
    (via_drill 0.4)
    (via_min_size 0.4)
    (via_min_drill 0.3)
    (uvia_size 0.3)
    (uvia_drill 0.1)
    (uvias_allowed no)
    (uvia_min_size 0.2)
    (uvia_min_drill 0.1)
    (edge_width 0.05)
    (segment_width 0.2)
    (pcb_text_width 0.3)
    (pcb_text_size 1.5 1.5)
    (mod_edge_width 0.12)
    (mod_text_size 1 1)
    (mod_text_width 0.15)
    (pad_size 1.524 1.524)
    (pad_drill 0.762)
    (pad_to_mask_clearance 0.051)
    (solder_mask_min_width 0.25)
    (aux_axis_origin 114.4524 135.4328)
    (grid_origin 96.52 155.702)
    (visible_elements FFFFF77F)
    (pcbplotparams
      (layerselection 0x010fc_ffffffff)
      (usegerberextensions false)
      (usegerberattributes false)
      (usegerberadvancedattributes false)
      (creategerberjobfile false)
      (excludeedgelayer true)
      (linewidth 0.100000)
      (plotframeref false)
      (viasonmask false)
      (mode 1)
      (useauxorigin false)
      (hpglpennumber 1)
      (hpglpenspeed 20)
      (hpglpendiameter 15.000000)
      (psnegative false)
      (psa4output false)
      (plotreference true)
      (plotvalue true)
      (plotinvisibletext false)
      (padsonsilk false)
      (subtractmaskfromsilk false)
      (outputformat 1)
      (mirror false)
      (drillshape 1)
      (scaleselection 1)
      (outputdirectory ""))
  )

  (net 0 "")
  (net 1 1)
  (net 2 2)
  (net 3 3)
  (net 4 4)
  (net 5 5)
  (net 6 6)
  (net 7 7)
  (net 8 8)
  (net 9 9)
  (net 10 10)
  (net 11 11)
  (net 12 12)
  (net 13 13)
  (net 14 14)
  (net 15 15)
  (net 16 16)
  (net 17 17)
  (net 18 18)
  (net 19 19)
  (net 20 20)
  (net 21 21)
  (net 22 22)
  (net 23 23)
  (net 24 24)
  (net 25 25)
  (net 26 26)
  (net 27 27)
  (net 28 28)
  (net 29 29)
  (net 30 30)
  (net 31 31)
  (net 32 32)
  (net 33 63)
  (net 34 64)
  (net 35 61)
  (net 36 62)
  (net 37 59)
  (net 38 60)
  (net 39 57)
  (net 40 58)
  (net 41 55)
  (net 42 56)
  (net 43 53)
  (net 44 54)
  (net 45 51)
  (net 46 52)
  (net 47 49)
  (net 48 50)
  (net 49 47)
  (net 50 48)
  (net 51 45)
  (net 52 46)
  (net 53 43)
  (net 54 44)
  (net 55 41)
  (net 56 42)
  (net 57 39)
  (net 58 40)
  (net 59 37)
  (net 60 38)
  (net 61 35)
  (net 62 36)
  (net 63 33)
  (net 64 34)
  (net 65 96)
  (net 66 94)
  (net 67 92)
  (net 68 90)
  (net 69 88)
  (net 70 86)
  (net 71 84)
  (net 72 82)
  (net 73 80)
  (net 74 78)
  (net 75 76)
  (net 76 74)
  (net 77 72)
  (net 78 70)
  (net 79 68)
  (net 80 66)
  (net 81 95)
  (net 82 93)
  (net 83 91)
  (net 84 89)
  (net 85 87)
  (net 86 85)
  (net 87 83)
  (net 88 81)
  (net 89 77)
  (net 90 75)
  (net 91 73)
  (net 92 71)
  (net 93 69)
  (net 94 67)
  (net 95 65)
  (net 96 98)
  (net 97 97)
  (net 98 100)
  (net 99 99)
  (net 100 102)
  (net 101 101)
  (net 102 104)
  (net 103 103)
  (net 104 106)
  (net 105 105)
  (net 106 108)
  (net 107 107)
  (net 108 110)
  (net 109 109)
  (net 110 112)
  (net 111 111)
  (net 112 114)
  (net 113 113)
  (net 114 116)
  (net 115 115)
  (net 116 118)
  (net 117 117)
  (net 118 120)
  (net 119 119)
  (net 120 122)
  (net 121 121)
  (net 122 124)
  (net 123 123)
  (net 124 126)
  (net 125 125)
  (net 126 128)
  (net 127 127)
  (net 128 79)

  (net_class Default "This is the default net class."
    (clearance 0)
    (trace_width 0.2)
    (via_dia 0.8)
    (via_drill 0.4)
    (uvia_dia 0.3)
    (uvia_drill 0.1)
    (add_net 1)
    (add_net 10)
    (add_net 100)
    (add_net 101)
    (add_net 102)
    (add_net 103)
    (add_net 104)
    (add_net 105)
    (add_net 106)
    (add_net 107)
    (add_net 108)
    (add_net 109)
    (add_net 11)
    (add_net 110)
    (add_net 111)
    (add_net 112)
    (add_net 113)
    (add_net 114)
    (add_net 115)
    (add_net 116)
    (add_net 117)
    (add_net 118)
    (add_net 119)
    (add_net 12)
    (add_net 120)
    (add_net 121)
    (add_net 122)
    (add_net 123)
    (add_net 124)
    (add_net 125)
    (add_net 126)
    (add_net 127)
    (add_net 128)
    (add_net 13)
    (add_net 14)
    (add_net 15)
    (add_net 16)
    (add_net 17)
    (add_net 18)
    (add_net 19)
    (add_net 2)
    (add_net 20)
    (add_net 21)
    (add_net 22)
    (add_net 23)
    (add_net 24)
    (add_net 25)
    (add_net 26)
    (add_net 27)
    (add_net 28)
    (add_net 29)
    (add_net 3)
    (add_net 30)
    (add_net 31)
    (add_net 32)
    (add_net 33)
    (add_net 34)
    (add_net 35)
    (add_net 36)
    (add_net 37)
    (add_net 38)
    (add_net 39)
    (add_net 4)
    (add_net 40)
    (add_net 41)
    (add_net 42)
    (add_net 43)
    (add_net 44)
    (add_net 45)
    (add_net 46)
    (add_net 47)
    (add_net 48)
    (add_net 49)
    (add_net 5)
    (add_net 50)
    (add_net 51)
    (add_net 52)
    (add_net 53)
    (add_net 54)
    (add_net 55)
    (add_net 56)
    (add_net 57)
    (add_net 58)
    (add_net 59)
    (add_net 6)
    (add_net 60)
    (add_net 61)
    (add_net 62)
    (add_net 63)
    (add_net 64)
    (add_net 65)
    (add_net 66)
    (add_net 67)
    (add_net 68)
    (add_net 69)
    (add_net 7)
    (add_net 70)
    (add_net 71)
    (add_net 72)
    (add_net 73)
    (add_net 74)
    (add_net 75)
    (add_net 76)
    (add_net 77)
    (add_net 78)
    (add_net 79)
    (add_net 8)
    (add_net 80)
    (add_net 81)
    (add_net 82)
    (add_net 83)
    (add_net 84)
    (add_net 85)
    (add_net 86)
    (add_net 87)
    (add_net 88)
    (add_net 89)
    (add_net 9)
    (add_net 90)
    (add_net 91)
    (add_net 92)
    (add_net 93)
    (add_net 94)
    (add_net 95)
    (add_net 96)
    (add_net 97)
    (add_net 98)
    (add_net 99)
  )

  (module own:Breakout_board_tqfp128 locked (layer F.Cu) (tedit 5CD2EFF2) (tstamp 5CD3928D)
    (at 120.65 127.762)
    (path /5CD2F02F)
    (clearance 0.3)
    (fp_text reference U1 (at 0 16.51) (layer F.SilkS)
      (effects (font (size 1 1) (thickness 0.15)))
    )
    (fp_text value TQFP_BREAKOUT_BOARD (at 0 12.7) (layer F.Fab)
      (effects (font (size 1 1) (thickness 0.15)))
    )
    (fp_arc (start -24.13 -24.13) (end -24.13 -27.94) (angle -90) (layer F.SilkS) (width 0.12))
    (fp_arc (start 24.13 -24.13) (end 27.94 -24.13) (angle -90) (layer F.SilkS) (width 0.12))
    (fp_arc (start 24.13 24.13) (end 24.13 27.94) (angle -90) (layer F.SilkS) (width 0.12))
    (fp_line (start -27.94 24.13) (end -24.13 27.94) (layer F.SilkS) (width 0.12))
    (fp_line (start 27.94 -24.13) (end 27.94 24.13) (layer F.SilkS) (width 0.12))
    (fp_line (start 24.13 27.94) (end -24.13 27.94) (layer F.SilkS) (width 0.12))
    (fp_line (start -27.94 24.13) (end -27.94 -24.13) (layer F.SilkS) (width 0.12))
    (fp_line (start -24.13 -27.94) (end 24.13 -27.94) (layer F.SilkS) (width 0.12))
    (pad 1 thru_hole circle (at -19.05 24.13) (size 1.524 1.524) (drill 0.9) (layers *.Cu *.Mask)
      (net 1 1))
    (pad 3 thru_hole circle (at -16.51 24.13) (size 1.524 1.524) (drill 0.9) (layers *.Cu *.Mask)
      (net 3 3))
    (pad 5 thru_hole circle (at -13.97 24.13) (size 1.524 1.524) (drill 0.9) (layers *.Cu *.Mask)
      (net 5 5))
    (pad 7 thru_hole circle (at -11.43 24.13) (size 1.524 1.524) (drill 0.9) (layers *.Cu *.Mask)
      (net 7 7))
    (pad 9 thru_hole circle (at -8.89 24.13) (size 1.524 1.524) (drill 0.9) (layers *.Cu *.Mask)
      (net 9 9))
    (pad 11 thru_hole circle (at -6.35 24.13) (size 1.524 1.524) (drill 0.9) (layers *.Cu *.Mask)
      (net 11 11))
    (pad 13 thru_hole circle (at -3.81 24.13) (size 1.524 1.524) (drill 0.9) (layers *.Cu *.Mask)
      (net 13 13))
    (pad 15 thru_hole circle (at -1.27 24.13) (size 1.524 1.524) (drill 0.9) (layers *.Cu *.Mask)
      (net 15 15))
    (pad 17 thru_hole circle (at 1.27 24.13) (size 1.524 1.524) (drill 0.9) (layers *.Cu *.Mask)
      (net 17 17))
    (pad 19 thru_hole circle (at 3.81 24.13) (size 1.524 1.524) (drill 0.9) (layers *.Cu *.Mask)
      (net 19 19))
    (pad 21 thru_hole circle (at 6.35 24.13) (size 1.524 1.524) (drill 0.9) (layers *.Cu *.Mask)
      (net 21 21))
    (pad 23 thru_hole circle (at 8.89 24.13) (size 1.524 1.524) (drill 0.9) (layers *.Cu *.Mask)
      (net 23 23))
    (pad 25 thru_hole circle (at 11.43 24.13) (size 1.524 1.524) (drill 0.9) (layers *.Cu *.Mask)
      (net 25 25))
    (pad 27 thru_hole circle (at 13.97 24.13) (size 1.524 1.524) (drill 0.9) (layers *.Cu *.Mask)
      (net 27 27))
    (pad 29 thru_hole circle (at 16.51 24.13) (size 1.524 1.524) (drill 0.9) (layers *.Cu *.Mask)
      (net 29 29))
    (pad 31 thru_hole circle (at 19.05 24.13) (size 1.524 1.524) (drill 0.9) (layers *.Cu *.Mask)
      (net 31 31))
    (pad 2 thru_hole circle (at -19.05 26.67) (size 1.524 1.524) (drill 0.9) (layers *.Cu *.Mask)
      (net 2 2))
    (pad 4 thru_hole circle (at -16.51 26.67) (size 1.524 1.524) (drill 0.9) (layers *.Cu *.Mask)
      (net 4 4))
    (pad 6 thru_hole circle (at -13.97 26.67) (size 1.524 1.524) (drill 0.9) (layers *.Cu *.Mask)
      (net 6 6))
    (pad 8 thru_hole circle (at -11.43 26.67) (size 1.524 1.524) (drill 0.9) (layers *.Cu *.Mask)
      (net 8 8))
    (pad 10 thru_hole circle (at -8.89 26.67) (size 1.524 1.524) (drill 0.9) (layers *.Cu *.Mask)
      (net 10 10))
    (pad 12 thru_hole circle (at -6.35 26.67) (size 1.524 1.524) (drill 0.9) (layers *.Cu *.Mask)
      (net 12 12))
    (pad 14 thru_hole circle (at -3.81 26.67) (size 1.524 1.524) (drill 0.9) (layers *.Cu *.Mask)
      (net 14 14))
    (pad 16 thru_hole circle (at -1.27 26.67) (size 1.524 1.524) (drill 0.9) (layers *.Cu *.Mask)
      (net 16 16))
    (pad 18 thru_hole circle (at 1.27 26.67) (size 1.524 1.524) (drill 0.9) (layers *.Cu *.Mask)
      (net 18 18))
    (pad 20 thru_hole circle (at 3.81 26.67) (size 1.524 1.524) (drill 0.9) (layers *.Cu *.Mask)
      (net 20 20))
    (pad 22 thru_hole circle (at 6.35 26.67) (size 1.524 1.524) (drill 0.9) (layers *.Cu *.Mask)
      (net 22 22))
    (pad 24 thru_hole circle (at 8.89 26.67) (size 1.524 1.524) (drill 0.9) (layers *.Cu *.Mask)
      (net 24 24))
    (pad 26 thru_hole circle (at 11.43 26.67) (size 1.524 1.524) (drill 0.9) (layers *.Cu *.Mask)
      (net 26 26))
    (pad 28 thru_hole circle (at 13.97 26.67) (size 1.524 1.524) (drill 0.9) (layers *.Cu *.Mask)
      (net 28 28))
    (pad 30 thru_hole circle (at 16.51 26.67) (size 1.524 1.524) (drill 0.9) (layers *.Cu *.Mask)
      (net 30 30))
    (pad 32 thru_hole circle (at 19.05 26.67) (size 1.524 1.524) (drill 0.9) (layers *.Cu *.Mask)
      (net 32 32))
    (pad 63 thru_hole circle (at 24.13 -19.05) (size 1.524 1.524) (drill 0.9) (layers *.Cu *.Mask)
      (net 33 63))
    (pad 64 thru_hole circle (at 26.67 -19.05) (size 1.524 1.524) (drill 0.9) (layers *.Cu *.Mask)
      (net 34 64))
    (pad 61 thru_hole circle (at 24.13 -16.51) (size 1.524 1.524) (drill 0.9) (layers *.Cu *.Mask)
      (net 35 61))
    (pad 62 thru_hole circle (at 26.67 -16.51) (size 1.524 1.524) (drill 0.9) (layers *.Cu *.Mask)
      (net 36 62))
    (pad 59 thru_hole circle (at 24.13 -13.97) (size 1.524 1.524) (drill 0.9) (layers *.Cu *.Mask)
      (net 37 59))
    (pad 60 thru_hole circle (at 26.67 -13.97) (size 1.524 1.524) (drill 0.9) (layers *.Cu *.Mask)
      (net 38 60))
    (pad 57 thru_hole circle (at 24.13 -11.43) (size 1.524 1.524) (drill 0.9) (layers *.Cu *.Mask)
      (net 39 57))
    (pad 58 thru_hole circle (at 26.67 -11.43) (size 1.524 1.524) (drill 0.9) (layers *.Cu *.Mask)
      (net 40 58))
    (pad 55 thru_hole circle (at 24.13 -8.89) (size 1.524 1.524) (drill 0.9) (layers *.Cu *.Mask)
      (net 41 55))
    (pad 56 thru_hole circle (at 26.67 -8.89) (size 1.524 1.524) (drill 0.9) (layers *.Cu *.Mask)
      (net 42 56))
    (pad 53 thru_hole circle (at 24.13 -6.35) (size 1.524 1.524) (drill 0.9) (layers *.Cu *.Mask)
      (net 43 53))
    (pad 54 thru_hole circle (at 26.67 -6.35) (size 1.524 1.524) (drill 0.9) (layers *.Cu *.Mask)
      (net 44 54))
    (pad 51 thru_hole circle (at 24.13 -3.81) (size 1.524 1.524) (drill 0.9) (layers *.Cu *.Mask)
      (net 45 51))
    (pad 52 thru_hole circle (at 26.67 -3.81) (size 1.524 1.524) (drill 0.9) (layers *.Cu *.Mask)
      (net 46 52))
    (pad 49 thru_hole circle (at 24.13 -1.27) (size 1.524 1.524) (drill 0.9) (layers *.Cu *.Mask)
      (net 47 49))
    (pad 50 thru_hole circle (at 26.67 -1.27) (size 1.524 1.524) (drill 0.9) (layers *.Cu *.Mask)
      (net 48 50))
    (pad 47 thru_hole circle (at 24.13 1.27) (size 1.524 1.524) (drill 0.9) (layers *.Cu *.Mask)
      (net 49 47))
    (pad 48 thru_hole circle (at 26.67 1.27) (size 1.524 1.524) (drill 0.9) (layers *.Cu *.Mask)
      (net 50 48))
    (pad 45 thru_hole circle (at 24.13 3.81) (size 1.524 1.524) (drill 0.9) (layers *.Cu *.Mask)
      (net 51 45))
    (pad 46 thru_hole circle (at 26.67 3.81) (size 1.524 1.524) (drill 0.9) (layers *.Cu *.Mask)
      (net 52 46))
    (pad 43 thru_hole circle (at 24.13 6.35) (size 1.524 1.524) (drill 0.9) (layers *.Cu *.Mask)
      (net 53 43))
    (pad 44 thru_hole circle (at 26.67 6.35) (size 1.524 1.524) (drill 0.9) (layers *.Cu *.Mask)
      (net 54 44))
    (pad 41 thru_hole circle (at 24.13 8.89) (size 1.524 1.524) (drill 0.9) (layers *.Cu *.Mask)
      (net 55 41))
    (pad 42 thru_hole circle (at 26.67 8.89) (size 1.524 1.524) (drill 0.9) (layers *.Cu *.Mask)
      (net 56 42))
    (pad 39 thru_hole circle (at 24.13 11.43) (size 1.524 1.524) (drill 0.9) (layers *.Cu *.Mask)
      (net 57 39))
    (pad 40 thru_hole circle (at 26.67 11.43) (size 1.524 1.524) (drill 0.9) (layers *.Cu *.Mask)
      (net 58 40))
    (pad 37 thru_hole circle (at 24.13 13.97) (size 1.524 1.524) (drill 0.9) (layers *.Cu *.Mask)
      (net 59 37))
    (pad 38 thru_hole circle (at 26.67 13.97) (size 1.524 1.524) (drill 0.9) (layers *.Cu *.Mask)
      (net 60 38))
    (pad 35 thru_hole circle (at 24.13 16.51) (size 1.524 1.524) (drill 0.9) (layers *.Cu *.Mask)
      (net 61 35))
    (pad 36 thru_hole circle (at 26.67 16.51) (size 1.524 1.524) (drill 0.9) (layers *.Cu *.Mask)
      (net 62 36))
    (pad 33 thru_hole circle (at 24.13 19.05) (size 1.524 1.524) (drill 0.9) (layers *.Cu *.Mask)
      (net 63 33))
    (pad 34 thru_hole circle (at 26.67 19.05) (size 1.524 1.524) (drill 0.9) (layers *.Cu *.Mask)
      (net 64 34))
    (pad 96 thru_hole circle (at -19.05 -26.67) (size 1.524 1.524) (drill 0.9) (layers *.Cu *.Mask)
      (net 65 96))
    (pad 94 thru_hole circle (at -16.51 -26.67) (size 1.524 1.524) (drill 0.9) (layers *.Cu *.Mask)
      (net 66 94))
    (pad 92 thru_hole circle (at -13.97 -26.67) (size 1.524 1.524) (drill 0.9) (layers *.Cu *.Mask)
      (net 67 92))
    (pad 90 thru_hole circle (at -11.43 -26.67) (size 1.524 1.524) (drill 0.9) (layers *.Cu *.Mask)
      (net 68 90))
    (pad 88 thru_hole circle (at -8.89 -26.67) (size 1.524 1.524) (drill 0.9) (layers *.Cu *.Mask)
      (net 69 88))
    (pad 86 thru_hole circle (at -6.35 -26.67) (size 1.524 1.524) (drill 0.9) (layers *.Cu *.Mask)
      (net 70 86))
    (pad 84 thru_hole circle (at -3.81 -26.67) (size 1.524 1.524) (drill 0.9) (layers *.Cu *.Mask)
      (net 71 84))
    (pad 82 thru_hole circle (at -1.27 -26.67) (size 1.524 1.524) (drill 0.9) (layers *.Cu *.Mask)
      (net 72 82))
    (pad 80 thru_hole circle (at 1.27 -26.67) (size 1.524 1.524) (drill 0.9) (layers *.Cu *.Mask)
      (net 73 80))
    (pad 78 thru_hole circle (at 3.81 -26.67) (size 1.524 1.524) (drill 0.9) (layers *.Cu *.Mask)
      (net 74 78))
    (pad 76 thru_hole circle (at 6.35 -26.67) (size 1.524 1.524) (drill 0.9) (layers *.Cu *.Mask)
      (net 75 76))
    (pad 74 thru_hole circle (at 8.89 -26.67) (size 1.524 1.524) (drill 0.9) (layers *.Cu *.Mask)
      (net 76 74))
    (pad 72 thru_hole circle (at 11.43 -26.67) (size 1.524 1.524) (drill 0.9) (layers *.Cu *.Mask)
      (net 77 72))
    (pad 70 thru_hole circle (at 13.97 -26.67) (size 1.524 1.524) (drill 0.9) (layers *.Cu *.Mask)
      (net 78 70))
    (pad 68 thru_hole circle (at 16.51 -26.67) (size 1.524 1.524) (drill 0.9) (layers *.Cu *.Mask)
      (net 79 68))
    (pad 66 thru_hole circle (at 19.05 -26.67) (size 1.524 1.524) (drill 0.9) (layers *.Cu *.Mask)
      (net 80 66))
    (pad 95 thru_hole circle (at -19.05 -24.13) (size 1.524 1.524) (drill 0.9) (layers *.Cu *.Mask)
      (net 81 95))
    (pad 93 thru_hole circle (at -16.51 -24.13) (size 1.524 1.524) (drill 0.9) (layers *.Cu *.Mask)
      (net 82 93))
    (pad 91 thru_hole circle (at -13.97 -24.13) (size 1.524 1.524) (drill 0.9) (layers *.Cu *.Mask)
      (net 83 91))
    (pad 89 thru_hole circle (at -11.43 -24.13) (size 1.524 1.524) (drill 0.9) (layers *.Cu *.Mask)
      (net 84 89))
    (pad 87 thru_hole circle (at -8.89 -24.13) (size 1.524 1.524) (drill 0.9) (layers *.Cu *.Mask)
      (net 85 87))
    (pad 85 thru_hole circle (at -6.35 -24.13) (size 1.524 1.524) (drill 0.9) (layers *.Cu *.Mask)
      (net 86 85))
    (pad 83 thru_hole circle (at -3.81 -24.13) (size 1.524 1.524) (drill 0.9) (layers *.Cu *.Mask)
      (net 87 83))
    (pad 81 thru_hole circle (at -1.27 -24.13) (size 1.524 1.524) (drill 0.9) (layers *.Cu *.Mask)
      (net 88 81))
    (pad 79 thru_hole circle (at 1.27 -24.13) (size 1.524 1.524) (drill 0.9) (layers *.Cu *.Mask)
      (net 128 79))
    (pad 77 thru_hole circle (at 3.81 -24.13) (size 1.524 1.524) (drill 0.9) (layers *.Cu *.Mask)
      (net 89 77))
    (pad 75 thru_hole circle (at 6.35 -24.13) (size 1.524 1.524) (drill 0.9) (layers *.Cu *.Mask)
      (net 90 75))
    (pad 73 thru_hole circle (at 8.89 -24.13) (size 1.524 1.524) (drill 0.9) (layers *.Cu *.Mask)
      (net 91 73))
    (pad 71 thru_hole circle (at 11.43 -24.13) (size 1.524 1.524) (drill 0.9) (layers *.Cu *.Mask)
      (net 92 71))
    (pad 69 thru_hole circle (at 13.97 -24.13) (size 1.524 1.524) (drill 0.9) (layers *.Cu *.Mask)
      (net 93 69))
    (pad 67 thru_hole circle (at 16.51 -24.13) (size 1.524 1.524) (drill 0.9) (layers *.Cu *.Mask)
      (net 94 67))
    (pad 65 thru_hole circle (at 19.05 -24.13) (size 1.524 1.524) (drill 0.9) (layers *.Cu *.Mask)
      (net 95 65))
    (pad 98 thru_hole circle (at -26.67 -19.05) (size 1.524 1.524) (drill 0.9) (layers *.Cu *.Mask)
      (net 96 98))
    (pad 97 thru_hole circle (at -24.13 -19.05) (size 1.524 1.524) (drill 0.9) (layers *.Cu *.Mask)
      (net 97 97))
    (pad 100 thru_hole circle (at -26.67 -16.51) (size 1.524 1.524) (drill 0.9) (layers *.Cu *.Mask)
      (net 98 100))
    (pad 99 thru_hole circle (at -24.13 -16.51) (size 1.524 1.524) (drill 0.9) (layers *.Cu *.Mask)
      (net 99 99))
    (pad 102 thru_hole circle (at -26.67 -13.97) (size 1.524 1.524) (drill 0.9) (layers *.Cu *.Mask)
      (net 100 102))
    (pad 101 thru_hole circle (at -24.13 -13.97) (size 1.524 1.524) (drill 0.9) (layers *.Cu *.Mask)
      (net 101 101))
    (pad 104 thru_hole circle (at -26.67 -11.43) (size 1.524 1.524) (drill 0.9) (layers *.Cu *.Mask)
      (net 102 104))
    (pad 103 thru_hole circle (at -24.13 -11.43) (size 1.524 1.524) (drill 0.9) (layers *.Cu *.Mask)
      (net 103 103))
    (pad 106 thru_hole circle (at -26.67 -8.89) (size 1.524 1.524) (drill 0.9) (layers *.Cu *.Mask)
      (net 104 106))
    (pad 105 thru_hole circle (at -24.13 -8.89) (size 1.524 1.524) (drill 0.9) (layers *.Cu *.Mask)
      (net 105 105))
    (pad 108 thru_hole circle (at -26.67 -6.35) (size 1.524 1.524) (drill 0.9) (layers *.Cu *.Mask)
      (net 106 108))
    (pad 107 thru_hole circle (at -24.13 -6.35) (size 1.524 1.524) (drill 0.9) (layers *.Cu *.Mask)
      (net 107 107))
    (pad 110 thru_hole circle (at -26.67 -3.81) (size 1.524 1.524) (drill 0.9) (layers *.Cu *.Mask)
      (net 108 110))
    (pad 109 thru_hole circle (at -24.13 -3.81) (size 1.524 1.524) (drill 0.9) (layers *.Cu *.Mask)
      (net 109 109))
    (pad 112 thru_hole circle (at -26.67 -1.27) (size 1.524 1.524) (drill 0.9) (layers *.Cu *.Mask)
      (net 110 112))
    (pad 111 thru_hole circle (at -24.13 -1.27) (size 1.524 1.524) (drill 0.9) (layers *.Cu *.Mask)
      (net 111 111))
    (pad 114 thru_hole circle (at -26.67 1.27) (size 1.524 1.524) (drill 0.9) (layers *.Cu *.Mask)
      (net 112 114))
    (pad 113 thru_hole circle (at -24.13 1.27) (size 1.524 1.524) (drill 0.9) (layers *.Cu *.Mask)
      (net 113 113))
    (pad 116 thru_hole circle (at -26.67 3.81) (size 1.524 1.524) (drill 0.9) (layers *.Cu *.Mask)
      (net 114 116))
    (pad 115 thru_hole circle (at -24.13 3.81) (size 1.524 1.524) (drill 0.9) (layers *.Cu *.Mask)
      (net 115 115))
    (pad 118 thru_hole circle (at -26.67 6.35) (size 1.524 1.524) (drill 0.9) (layers *.Cu *.Mask)
      (net 116 118))
    (pad 117 thru_hole circle (at -24.13 6.35) (size 1.524 1.524) (drill 0.9) (layers *.Cu *.Mask)
      (net 117 117))
    (pad 120 thru_hole circle (at -26.67 8.89) (size 1.524 1.524) (drill 0.9) (layers *.Cu *.Mask)
      (net 118 120))
    (pad 119 thru_hole circle (at -24.13 8.89) (size 1.524 1.524) (drill 0.9) (layers *.Cu *.Mask)
      (net 119 119))
    (pad 122 thru_hole circle (at -26.67 11.43) (size 1.524 1.524) (drill 0.9) (layers *.Cu *.Mask)
      (net 120 122))
    (pad 121 thru_hole circle (at -24.13 11.43) (size 1.524 1.524) (drill 0.9) (layers *.Cu *.Mask)
      (net 121 121))
    (pad 124 thru_hole circle (at -26.67 13.97) (size 1.524 1.524) (drill 0.9) (layers *.Cu *.Mask)
      (net 122 124))
    (pad 123 thru_hole circle (at -24.13 13.97) (size 1.524 1.524) (drill 0.9) (layers *.Cu *.Mask)
      (net 123 123))
    (pad 126 thru_hole circle (at -26.67 16.51) (size 1.524 1.524) (drill 0.9) (layers *.Cu *.Mask)
      (net 124 126))
    (pad 125 thru_hole circle (at -24.13 16.51) (size 1.524 1.524) (drill 0.9) (layers *.Cu *.Mask)
      (net 125 125))
    (pad 128 thru_hole circle (at -26.67 19.05) (size 1.524 1.524) (drill 0.9) (layers *.Cu *.Mask)
      (net 126 128))
    (pad 127 thru_hole circle (at -24.13 19.05) (size 1.524 1.524) (drill 0.9) (layers *.Cu *.Mask)
      (net 127 127))
  )

  (module Package_QFP:LQFP-128_14x14mm_P0.4mm locked (layer F.Cu) (tedit 5C195F94) (tstamp 5CD39338)
    (at 120.65 127.762 90)
    (descr "LQFP, 128 Pin (https://www.renesas.com/eu/en/package-image/pdf/outdrawing/q128.14x14.pdf), generated with kicad-footprint-generator ipc_gullwing_generator.py")
    (tags "LQFP QFP")
    (path /5CD69CF4)
    (clearance 0.1)
    (zone_connect 0)
    (attr smd)
    (fp_text reference U2 (at 0 -9.35 90) (layer F.SilkS)
      (effects (font (size 1 1) (thickness 0.15)))
    )
    (fp_text value TQFP_BREAKOUT_BOARD (at 0 9.35 90) (layer F.Fab)
      (effects (font (size 1 1) (thickness 0.15)))
    )
    (fp_line (start 6.585 7.11) (end 7.11 7.11) (layer F.SilkS) (width 0.12))
    (fp_line (start 7.11 7.11) (end 7.11 6.585) (layer F.SilkS) (width 0.12))
    (fp_line (start -6.585 7.11) (end -7.11 7.11) (layer F.SilkS) (width 0.12))
    (fp_line (start -7.11 7.11) (end -7.11 6.585) (layer F.SilkS) (width 0.12))
    (fp_line (start 6.585 -7.11) (end 7.11 -7.11) (layer F.SilkS) (width 0.12))
    (fp_line (start 7.11 -7.11) (end 7.11 -6.585) (layer F.SilkS) (width 0.12))
    (fp_line (start -6.585 -7.11) (end -7.11 -7.11) (layer F.SilkS) (width 0.12))
    (fp_line (start -7.11 -7.11) (end -7.11 -6.585) (layer F.SilkS) (width 0.12))
    (fp_line (start -7.11 -6.585) (end -8.4 -6.585) (layer F.SilkS) (width 0.12))
    (fp_line (start -6 -7) (end 7 -7) (layer F.Fab) (width 0.1))
    (fp_line (start 7 -7) (end 7 7) (layer F.Fab) (width 0.1))
    (fp_line (start 7 7) (end -7 7) (layer F.Fab) (width 0.1))
    (fp_line (start -7 7) (end -7 -6) (layer F.Fab) (width 0.1))
    (fp_line (start -7 -6) (end -6 -7) (layer F.Fab) (width 0.1))
    (fp_line (start 0 -8.65) (end -6.58 -8.65) (layer F.CrtYd) (width 0.05))
    (fp_line (start -6.58 -8.65) (end -6.58 -7.25) (layer F.CrtYd) (width 0.05))
    (fp_line (start -6.58 -7.25) (end -7.25 -7.25) (layer F.CrtYd) (width 0.05))
    (fp_line (start -7.25 -7.25) (end -7.25 -6.58) (layer F.CrtYd) (width 0.05))
    (fp_line (start -7.25 -6.58) (end -8.65 -6.58) (layer F.CrtYd) (width 0.05))
    (fp_line (start -8.65 -6.58) (end -8.65 0) (layer F.CrtYd) (width 0.05))
    (fp_line (start 0 -8.65) (end 6.58 -8.65) (layer F.CrtYd) (width 0.05))
    (fp_line (start 6.58 -8.65) (end 6.58 -7.25) (layer F.CrtYd) (width 0.05))
    (fp_line (start 6.58 -7.25) (end 7.25 -7.25) (layer F.CrtYd) (width 0.05))
    (fp_line (start 7.25 -7.25) (end 7.25 -6.58) (layer F.CrtYd) (width 0.05))
    (fp_line (start 7.25 -6.58) (end 8.65 -6.58) (layer F.CrtYd) (width 0.05))
    (fp_line (start 8.65 -6.58) (end 8.65 0) (layer F.CrtYd) (width 0.05))
    (fp_line (start 0 8.65) (end -6.58 8.65) (layer F.CrtYd) (width 0.05))
    (fp_line (start -6.58 8.65) (end -6.58 7.25) (layer F.CrtYd) (width 0.05))
    (fp_line (start -6.58 7.25) (end -7.25 7.25) (layer F.CrtYd) (width 0.05))
    (fp_line (start -7.25 7.25) (end -7.25 6.58) (layer F.CrtYd) (width 0.05))
    (fp_line (start -7.25 6.58) (end -8.65 6.58) (layer F.CrtYd) (width 0.05))
    (fp_line (start -8.65 6.58) (end -8.65 0) (layer F.CrtYd) (width 0.05))
    (fp_line (start 0 8.65) (end 6.58 8.65) (layer F.CrtYd) (width 0.05))
    (fp_line (start 6.58 8.65) (end 6.58 7.25) (layer F.CrtYd) (width 0.05))
    (fp_line (start 6.58 7.25) (end 7.25 7.25) (layer F.CrtYd) (width 0.05))
    (fp_line (start 7.25 7.25) (end 7.25 6.58) (layer F.CrtYd) (width 0.05))
    (fp_line (start 7.25 6.58) (end 8.65 6.58) (layer F.CrtYd) (width 0.05))
    (fp_line (start 8.65 6.58) (end 8.65 0) (layer F.CrtYd) (width 0.05))
    (fp_text user %R (at 0 0 90) (layer F.Fab)
      (effects (font (size 1 1) (thickness 0.15)))
    )
    (pad 1 smd roundrect (at -7.6625 -6.2 90) (size 1.475 0.25) (layers F.Cu F.Paste F.Mask) (roundrect_rratio 0.25)
      (net 1 1) (zone_connect 0))
    (pad 2 smd roundrect (at -7.6625 -5.8 90) (size 1.475 0.25) (layers F.Cu F.Paste F.Mask) (roundrect_rratio 0.25)
      (net 2 2) (zone_connect 0))
    (pad 3 smd roundrect (at -7.6625 -5.4 90) (size 1.475 0.25) (layers F.Cu F.Paste F.Mask) (roundrect_rratio 0.25)
      (net 3 3) (zone_connect 0))
    (pad 4 smd roundrect (at -7.6625 -5 90) (size 1.475 0.25) (layers F.Cu F.Paste F.Mask) (roundrect_rratio 0.25)
      (net 4 4) (zone_connect 0))
    (pad 5 smd roundrect (at -7.6625 -4.6 90) (size 1.475 0.25) (layers F.Cu F.Paste F.Mask) (roundrect_rratio 0.25)
      (net 5 5) (zone_connect 0))
    (pad 6 smd roundrect (at -7.6625 -4.2 90) (size 1.475 0.25) (layers F.Cu F.Paste F.Mask) (roundrect_rratio 0.25)
      (net 6 6) (zone_connect 0))
    (pad 7 smd roundrect (at -7.6625 -3.8 90) (size 1.475 0.25) (layers F.Cu F.Paste F.Mask) (roundrect_rratio 0.25)
      (net 7 7) (zone_connect 0))
    (pad 8 smd roundrect (at -7.6625 -3.4 90) (size 1.475 0.25) (layers F.Cu F.Paste F.Mask) (roundrect_rratio 0.25)
      (net 8 8) (zone_connect 0))
    (pad 9 smd roundrect (at -7.6625 -3 90) (size 1.475 0.25) (layers F.Cu F.Paste F.Mask) (roundrect_rratio 0.25)
      (net 9 9) (zone_connect 0))
    (pad 10 smd roundrect (at -7.6625 -2.6 90) (size 1.475 0.25) (layers F.Cu F.Paste F.Mask) (roundrect_rratio 0.25)
      (net 10 10) (zone_connect 0))
    (pad 11 smd roundrect (at -7.6625 -2.2 90) (size 1.475 0.25) (layers F.Cu F.Paste F.Mask) (roundrect_rratio 0.25)
      (net 11 11) (zone_connect 0))
    (pad 12 smd roundrect (at -7.6625 -1.8 90) (size 1.475 0.25) (layers F.Cu F.Paste F.Mask) (roundrect_rratio 0.25)
      (net 12 12) (zone_connect 0))
    (pad 13 smd roundrect (at -7.6625 -1.4 90) (size 1.475 0.25) (layers F.Cu F.Paste F.Mask) (roundrect_rratio 0.25)
      (net 13 13) (zone_connect 0))
    (pad 14 smd roundrect (at -7.6625 -1 90) (size 1.475 0.25) (layers F.Cu F.Paste F.Mask) (roundrect_rratio 0.25)
      (net 14 14) (zone_connect 0))
    (pad 15 smd roundrect (at -7.6625 -0.6 90) (size 1.475 0.25) (layers F.Cu F.Paste F.Mask) (roundrect_rratio 0.25)
      (net 15 15) (zone_connect 0))
    (pad 16 smd roundrect (at -7.6625 -0.2 90) (size 1.475 0.25) (layers F.Cu F.Paste F.Mask) (roundrect_rratio 0.25)
      (net 16 16) (zone_connect 0))
    (pad 17 smd roundrect (at -7.6625 0.2 90) (size 1.475 0.25) (layers F.Cu F.Paste F.Mask) (roundrect_rratio 0.25)
      (net 17 17) (zone_connect 0))
    (pad 18 smd roundrect (at -7.6625 0.6 90) (size 1.475 0.25) (layers F.Cu F.Paste F.Mask) (roundrect_rratio 0.25)
      (net 18 18) (zone_connect 0))
    (pad 19 smd roundrect (at -7.6625 1 90) (size 1.475 0.25) (layers F.Cu F.Paste F.Mask) (roundrect_rratio 0.25)
      (net 19 19) (zone_connect 0))
    (pad 20 smd roundrect (at -7.6625 1.4 90) (size 1.475 0.25) (layers F.Cu F.Paste F.Mask) (roundrect_rratio 0.25)
      (net 20 20) (zone_connect 0))
    (pad 21 smd roundrect (at -7.6625 1.8 90) (size 1.475 0.25) (layers F.Cu F.Paste F.Mask) (roundrect_rratio 0.25)
      (net 21 21) (zone_connect 0))
    (pad 22 smd roundrect (at -7.6625 2.2 90) (size 1.475 0.25) (layers F.Cu F.Paste F.Mask) (roundrect_rratio 0.25)
      (net 22 22) (zone_connect 0))
    (pad 23 smd roundrect (at -7.6625 2.6 90) (size 1.475 0.25) (layers F.Cu F.Paste F.Mask) (roundrect_rratio 0.25)
      (net 23 23) (zone_connect 0))
    (pad 24 smd roundrect (at -7.6625 3 90) (size 1.475 0.25) (layers F.Cu F.Paste F.Mask) (roundrect_rratio 0.25)
      (net 24 24) (zone_connect 0))
    (pad 25 smd roundrect (at -7.6625 3.4 90) (size 1.475 0.25) (layers F.Cu F.Paste F.Mask) (roundrect_rratio 0.25)
      (net 25 25) (zone_connect 0))
    (pad 26 smd roundrect (at -7.6625 3.8 90) (size 1.475 0.25) (layers F.Cu F.Paste F.Mask) (roundrect_rratio 0.25)
      (net 26 26) (zone_connect 0))
    (pad 27 smd roundrect (at -7.6625 4.2 90) (size 1.475 0.25) (layers F.Cu F.Paste F.Mask) (roundrect_rratio 0.25)
      (net 27 27) (zone_connect 0))
    (pad 28 smd roundrect (at -7.6625 4.6 90) (size 1.475 0.25) (layers F.Cu F.Paste F.Mask) (roundrect_rratio 0.25)
      (net 28 28) (zone_connect 0))
    (pad 29 smd roundrect (at -7.6625 5 90) (size 1.475 0.25) (layers F.Cu F.Paste F.Mask) (roundrect_rratio 0.25)
      (net 29 29) (zone_connect 0))
    (pad 30 smd roundrect (at -7.6625 5.4 90) (size 1.475 0.25) (layers F.Cu F.Paste F.Mask) (roundrect_rratio 0.25)
      (net 30 30) (zone_connect 0))
    (pad 31 smd roundrect (at -7.6625 5.8 90) (size 1.475 0.25) (layers F.Cu F.Paste F.Mask) (roundrect_rratio 0.25)
      (net 31 31) (zone_connect 0))
    (pad 32 smd roundrect (at -7.6625 6.2 90) (size 1.475 0.25) (layers F.Cu F.Paste F.Mask) (roundrect_rratio 0.25)
      (net 32 32) (zone_connect 0))
    (pad 33 smd roundrect (at -6.2 7.6625 90) (size 0.25 1.475) (layers F.Cu F.Paste F.Mask) (roundrect_rratio 0.25)
      (net 63 33) (zone_connect 0))
    (pad 34 smd roundrect (at -5.8 7.6625 90) (size 0.25 1.475) (layers F.Cu F.Paste F.Mask) (roundrect_rratio 0.25)
      (net 64 34) (zone_connect 0))
    (pad 35 smd roundrect (at -5.4 7.6625 90) (size 0.25 1.475) (layers F.Cu F.Paste F.Mask) (roundrect_rratio 0.25)
      (net 61 35) (zone_connect 0))
    (pad 36 smd roundrect (at -5 7.6625 90) (size 0.25 1.475) (layers F.Cu F.Paste F.Mask) (roundrect_rratio 0.25)
      (net 62 36) (zone_connect 0))
    (pad 37 smd roundrect (at -4.6 7.6625 90) (size 0.25 1.475) (layers F.Cu F.Paste F.Mask) (roundrect_rratio 0.25)
      (net 59 37) (zone_connect 0))
    (pad 38 smd roundrect (at -4.2 7.6625 90) (size 0.25 1.475) (layers F.Cu F.Paste F.Mask) (roundrect_rratio 0.25)
      (net 60 38) (zone_connect 0))
    (pad 39 smd roundrect (at -3.8 7.6625 90) (size 0.25 1.475) (layers F.Cu F.Paste F.Mask) (roundrect_rratio 0.25)
      (net 57 39) (zone_connect 0))
    (pad 40 smd roundrect (at -3.4 7.6625 90) (size 0.25 1.475) (layers F.Cu F.Paste F.Mask) (roundrect_rratio 0.25)
      (net 58 40) (zone_connect 0))
    (pad 41 smd roundrect (at -3 7.6625 90) (size 0.25 1.475) (layers F.Cu F.Paste F.Mask) (roundrect_rratio 0.25)
      (net 55 41) (zone_connect 0))
    (pad 42 smd roundrect (at -2.6 7.6625 90) (size 0.25 1.475) (layers F.Cu F.Paste F.Mask) (roundrect_rratio 0.25)
      (net 56 42) (zone_connect 0))
    (pad 43 smd roundrect (at -2.2 7.6625 90) (size 0.25 1.475) (layers F.Cu F.Paste F.Mask) (roundrect_rratio 0.25)
      (net 53 43) (zone_connect 0))
    (pad 44 smd roundrect (at -1.8 7.6625 90) (size 0.25 1.475) (layers F.Cu F.Paste F.Mask) (roundrect_rratio 0.25)
      (net 54 44) (zone_connect 0))
    (pad 45 smd roundrect (at -1.4 7.6625 90) (size 0.25 1.475) (layers F.Cu F.Paste F.Mask) (roundrect_rratio 0.25)
      (net 51 45) (zone_connect 0))
    (pad 46 smd roundrect (at -1 7.6625 90) (size 0.25 1.475) (layers F.Cu F.Paste F.Mask) (roundrect_rratio 0.25)
      (net 52 46) (zone_connect 0))
    (pad 47 smd roundrect (at -0.6 7.6625 90) (size 0.25 1.475) (layers F.Cu F.Paste F.Mask) (roundrect_rratio 0.25)
      (net 49 47) (zone_connect 0))
    (pad 48 smd roundrect (at -0.2 7.6625 90) (size 0.25 1.475) (layers F.Cu F.Paste F.Mask) (roundrect_rratio 0.25)
      (net 50 48) (zone_connect 0))
    (pad 49 smd roundrect (at 0.2 7.6625 90) (size 0.25 1.475) (layers F.Cu F.Paste F.Mask) (roundrect_rratio 0.25)
      (net 47 49) (zone_connect 0))
    (pad 50 smd roundrect (at 0.6 7.6625 90) (size 0.25 1.475) (layers F.Cu F.Paste F.Mask) (roundrect_rratio 0.25)
      (net 48 50) (zone_connect 0))
    (pad 51 smd roundrect (at 1 7.6625 90) (size 0.25 1.475) (layers F.Cu F.Paste F.Mask) (roundrect_rratio 0.25)
      (net 45 51) (zone_connect 0))
    (pad 52 smd roundrect (at 1.4 7.6625 90) (size 0.25 1.475) (layers F.Cu F.Paste F.Mask) (roundrect_rratio 0.25)
      (net 46 52) (zone_connect 0))
    (pad 53 smd roundrect (at 1.8 7.6625 90) (size 0.25 1.475) (layers F.Cu F.Paste F.Mask) (roundrect_rratio 0.25)
      (net 43 53) (zone_connect 0))
    (pad 54 smd roundrect (at 2.2 7.6625 90) (size 0.25 1.475) (layers F.Cu F.Paste F.Mask) (roundrect_rratio 0.25)
      (net 44 54) (zone_connect 0))
    (pad 55 smd roundrect (at 2.6 7.6625 90) (size 0.25 1.475) (layers F.Cu F.Paste F.Mask) (roundrect_rratio 0.25)
      (net 41 55) (zone_connect 0))
    (pad 56 smd roundrect (at 3 7.6625 90) (size 0.25 1.475) (layers F.Cu F.Paste F.Mask) (roundrect_rratio 0.25)
      (net 42 56) (zone_connect 0))
    (pad 57 smd roundrect (at 3.4 7.6625 90) (size 0.25 1.475) (layers F.Cu F.Paste F.Mask) (roundrect_rratio 0.25)
      (net 39 57) (zone_connect 0))
    (pad 58 smd roundrect (at 3.8 7.6625 90) (size 0.25 1.475) (layers F.Cu F.Paste F.Mask) (roundrect_rratio 0.25)
      (net 40 58) (zone_connect 0))
    (pad 59 smd roundrect (at 4.2 7.6625 90) (size 0.25 1.475) (layers F.Cu F.Paste F.Mask) (roundrect_rratio 0.25)
      (net 37 59) (zone_connect 0))
    (pad 60 smd roundrect (at 4.6 7.6625 90) (size 0.25 1.475) (layers F.Cu F.Paste F.Mask) (roundrect_rratio 0.25)
      (net 38 60) (zone_connect 0))
    (pad 61 smd roundrect (at 5 7.6625 90) (size 0.25 1.475) (layers F.Cu F.Paste F.Mask) (roundrect_rratio 0.25)
      (net 35 61) (zone_connect 0))
    (pad 62 smd roundrect (at 5.4 7.6625 90) (size 0.25 1.475) (layers F.Cu F.Paste F.Mask) (roundrect_rratio 0.25)
      (net 36 62) (zone_connect 0))
    (pad 63 smd roundrect (at 5.8 7.6625 90) (size 0.25 1.475) (layers F.Cu F.Paste F.Mask) (roundrect_rratio 0.25)
      (net 33 63) (zone_connect 0))
    (pad 64 smd roundrect (at 6.2 7.6625 90) (size 0.25 1.475) (layers F.Cu F.Paste F.Mask) (roundrect_rratio 0.25)
      (net 34 64) (zone_connect 0))
    (pad 65 smd roundrect (at 7.6625 6.2 90) (size 1.475 0.25) (layers F.Cu F.Paste F.Mask) (roundrect_rratio 0.25)
      (net 95 65) (zone_connect 0))
    (pad 66 smd roundrect (at 7.6625 5.8 90) (size 1.475 0.25) (layers F.Cu F.Paste F.Mask) (roundrect_rratio 0.25)
      (net 80 66) (zone_connect 0))
    (pad 67 smd roundrect (at 7.6625 5.4 90) (size 1.475 0.25) (layers F.Cu F.Paste F.Mask) (roundrect_rratio 0.25)
      (net 94 67) (zone_connect 0))
    (pad 68 smd roundrect (at 7.6625 5 90) (size 1.475 0.25) (layers F.Cu F.Paste F.Mask) (roundrect_rratio 0.25)
      (net 79 68) (zone_connect 0))
    (pad 69 smd roundrect (at 7.6625 4.6 90) (size 1.475 0.25) (layers F.Cu F.Paste F.Mask) (roundrect_rratio 0.25)
      (net 93 69) (zone_connect 0))
    (pad 70 smd roundrect (at 7.6625 4.2 90) (size 1.475 0.25) (layers F.Cu F.Paste F.Mask) (roundrect_rratio 0.25)
      (net 78 70) (zone_connect 0))
    (pad 71 smd roundrect (at 7.6625 3.8 90) (size 1.475 0.25) (layers F.Cu F.Paste F.Mask) (roundrect_rratio 0.25)
      (net 92 71) (zone_connect 0))
    (pad 72 smd roundrect (at 7.6625 3.4 90) (size 1.475 0.25) (layers F.Cu F.Paste F.Mask) (roundrect_rratio 0.25)
      (net 77 72) (zone_connect 0))
    (pad 73 smd roundrect (at 7.6625 3 90) (size 1.475 0.25) (layers F.Cu F.Paste F.Mask) (roundrect_rratio 0.25)
      (net 91 73) (zone_connect 0))
    (pad 74 smd roundrect (at 7.6625 2.6 90) (size 1.475 0.25) (layers F.Cu F.Paste F.Mask) (roundrect_rratio 0.25)
      (net 76 74) (zone_connect 0))
    (pad 75 smd roundrect (at 7.6625 2.2 90) (size 1.475 0.25) (layers F.Cu F.Paste F.Mask) (roundrect_rratio 0.25)
      (net 90 75) (zone_connect 0))
    (pad 76 smd roundrect (at 7.6625 1.8 90) (size 1.475 0.25) (layers F.Cu F.Paste F.Mask) (roundrect_rratio 0.25)
      (net 75 76) (zone_connect 0))
    (pad 77 smd roundrect (at 7.6625 1.4 90) (size 1.475 0.25) (layers F.Cu F.Paste F.Mask) (roundrect_rratio 0.25)
      (net 89 77) (zone_connect 0))
    (pad 78 smd roundrect (at 7.6625 1 90) (size 1.475 0.25) (layers F.Cu F.Paste F.Mask) (roundrect_rratio 0.25)
      (net 74 78) (zone_connect 0))
    (pad 79 smd roundrect (at 7.6625 0.6 90) (size 1.475 0.25) (layers F.Cu F.Paste F.Mask) (roundrect_rratio 0.25)
      (net 128 79) (zone_connect 0))
    (pad 80 smd roundrect (at 7.6625 0.2 90) (size 1.475 0.25) (layers F.Cu F.Paste F.Mask) (roundrect_rratio 0.25)
      (net 73 80) (zone_connect 0))
    (pad 81 smd roundrect (at 7.6625 -0.2 90) (size 1.475 0.25) (layers F.Cu F.Paste F.Mask) (roundrect_rratio 0.25)
      (net 88 81) (zone_connect 0))
    (pad 82 smd roundrect (at 7.6625 -0.6 90) (size 1.475 0.25) (layers F.Cu F.Paste F.Mask) (roundrect_rratio 0.25)
      (net 72 82) (zone_connect 0))
    (pad 83 smd roundrect (at 7.6625 -1 90) (size 1.475 0.25) (layers F.Cu F.Paste F.Mask) (roundrect_rratio 0.25)
      (net 87 83) (zone_connect 0))
    (pad 84 smd roundrect (at 7.6625 -1.4 90) (size 1.475 0.25) (layers F.Cu F.Paste F.Mask) (roundrect_rratio 0.25)
      (net 71 84) (zone_connect 0))
    (pad 85 smd roundrect (at 7.6625 -1.8 90) (size 1.475 0.25) (layers F.Cu F.Paste F.Mask) (roundrect_rratio 0.25)
      (net 86 85) (zone_connect 0))
    (pad 86 smd roundrect (at 7.6625 -2.2 90) (size 1.475 0.25) (layers F.Cu F.Paste F.Mask) (roundrect_rratio 0.25)
      (net 70 86) (zone_connect 0))
    (pad 87 smd roundrect (at 7.6625 -2.6 90) (size 1.475 0.25) (layers F.Cu F.Paste F.Mask) (roundrect_rratio 0.25)
      (net 85 87) (zone_connect 0))
    (pad 88 smd roundrect (at 7.6625 -3 90) (size 1.475 0.25) (layers F.Cu F.Paste F.Mask) (roundrect_rratio 0.25)
      (net 69 88) (zone_connect 0))
    (pad 89 smd roundrect (at 7.6625 -3.4 90) (size 1.475 0.25) (layers F.Cu F.Paste F.Mask) (roundrect_rratio 0.25)
      (net 84 89) (zone_connect 0))
    (pad 90 smd roundrect (at 7.6625 -3.8 90) (size 1.475 0.25) (layers F.Cu F.Paste F.Mask) (roundrect_rratio 0.25)
      (net 68 90) (zone_connect 0))
    (pad 91 smd roundrect (at 7.6625 -4.2 90) (size 1.475 0.25) (layers F.Cu F.Paste F.Mask) (roundrect_rratio 0.25)
      (net 83 91) (zone_connect 0))
    (pad 92 smd roundrect (at 7.6625 -4.6 90) (size 1.475 0.25) (layers F.Cu F.Paste F.Mask) (roundrect_rratio 0.25)
      (net 67 92) (zone_connect 0))
    (pad 93 smd roundrect (at 7.6625 -5 90) (size 1.475 0.25) (layers F.Cu F.Paste F.Mask) (roundrect_rratio 0.25)
      (net 82 93) (zone_connect 0))
    (pad 94 smd roundrect (at 7.6625 -5.4 90) (size 1.475 0.25) (layers F.Cu F.Paste F.Mask) (roundrect_rratio 0.25)
      (net 66 94) (zone_connect 0))
    (pad 95 smd roundrect (at 7.6625 -5.8 90) (size 1.475 0.25) (layers F.Cu F.Paste F.Mask) (roundrect_rratio 0.25)
      (net 81 95) (zone_connect 0))
    (pad 96 smd roundrect (at 7.6625 -6.2 90) (size 1.475 0.25) (layers F.Cu F.Paste F.Mask) (roundrect_rratio 0.25)
      (net 65 96) (zone_connect 0))
    (pad 97 smd roundrect (at 6.2 -7.6625 90) (size 0.25 1.475) (layers F.Cu F.Paste F.Mask) (roundrect_rratio 0.25)
      (net 97 97) (zone_connect 0))
    (pad 98 smd roundrect (at 5.8 -7.6625 90) (size 0.25 1.475) (layers F.Cu F.Paste F.Mask) (roundrect_rratio 0.25)
      (net 96 98) (zone_connect 0))
    (pad 99 smd roundrect (at 5.4 -7.6625 90) (size 0.25 1.475) (layers F.Cu F.Paste F.Mask) (roundrect_rratio 0.25)
      (net 99 99) (zone_connect 0))
    (pad 100 smd roundrect (at 5 -7.6625 90) (size 0.25 1.475) (layers F.Cu F.Paste F.Mask) (roundrect_rratio 0.25)
      (net 98 100) (zone_connect 0))
    (pad 101 smd roundrect (at 4.6 -7.6625 90) (size 0.25 1.475) (layers F.Cu F.Paste F.Mask) (roundrect_rratio 0.25)
      (net 101 101) (zone_connect 0))
    (pad 102 smd roundrect (at 4.2 -7.6625 90) (size 0.25 1.475) (layers F.Cu F.Paste F.Mask) (roundrect_rratio 0.25)
      (net 100 102) (zone_connect 0))
    (pad 103 smd roundrect (at 3.8 -7.6625 90) (size 0.25 1.475) (layers F.Cu F.Paste F.Mask) (roundrect_rratio 0.25)
      (net 103 103) (zone_connect 0))
    (pad 104 smd roundrect (at 3.4 -7.6625 90) (size 0.25 1.475) (layers F.Cu F.Paste F.Mask) (roundrect_rratio 0.25)
      (net 102 104) (zone_connect 0))
    (pad 105 smd roundrect (at 3 -7.6625 90) (size 0.25 1.475) (layers F.Cu F.Paste F.Mask) (roundrect_rratio 0.25)
      (net 105 105) (zone_connect 0))
    (pad 106 smd roundrect (at 2.6 -7.6625 90) (size 0.25 1.475) (layers F.Cu F.Paste F.Mask) (roundrect_rratio 0.25)
      (net 104 106) (zone_connect 0))
    (pad 107 smd roundrect (at 2.2 -7.6625 90) (size 0.25 1.475) (layers F.Cu F.Paste F.Mask) (roundrect_rratio 0.25)
      (net 107 107) (zone_connect 0))
    (pad 108 smd roundrect (at 1.8 -7.6625 90) (size 0.25 1.475) (layers F.Cu F.Paste F.Mask) (roundrect_rratio 0.25)
      (net 106 108) (zone_connect 0))
    (pad 109 smd roundrect (at 1.4 -7.6625 90) (size 0.25 1.475) (layers F.Cu F.Paste F.Mask) (roundrect_rratio 0.25)
      (net 109 109) (zone_connect 0))
    (pad 110 smd roundrect (at 1 -7.6625 90) (size 0.25 1.475) (layers F.Cu F.Paste F.Mask) (roundrect_rratio 0.25)
      (net 108 110) (zone_connect 0))
    (pad 111 smd roundrect (at 0.6 -7.6625 90) (size 0.25 1.475) (layers F.Cu F.Paste F.Mask) (roundrect_rratio 0.25)
      (net 111 111) (zone_connect 0))
    (pad 112 smd roundrect (at 0.2 -7.6625 90) (size 0.25 1.475) (layers F.Cu F.Paste F.Mask) (roundrect_rratio 0.25)
      (net 110 112) (zone_connect 0))
    (pad 113 smd roundrect (at -0.2 -7.6625 90) (size 0.25 1.475) (layers F.Cu F.Paste F.Mask) (roundrect_rratio 0.25)
      (net 113 113) (zone_connect 0))
    (pad 114 smd roundrect (at -0.6 -7.6625 90) (size 0.25 1.475) (layers F.Cu F.Paste F.Mask) (roundrect_rratio 0.25)
      (net 112 114) (zone_connect 0))
    (pad 115 smd roundrect (at -1 -7.6625 90) (size 0.25 1.475) (layers F.Cu F.Paste F.Mask) (roundrect_rratio 0.25)
      (net 115 115) (zone_connect 0))
    (pad 116 smd roundrect (at -1.4 -7.6625 90) (size 0.25 1.475) (layers F.Cu F.Paste F.Mask) (roundrect_rratio 0.25)
      (net 114 116) (zone_connect 0))
    (pad 117 smd roundrect (at -1.8 -7.6625 90) (size 0.25 1.475) (layers F.Cu F.Paste F.Mask) (roundrect_rratio 0.25)
      (net 117 117) (zone_connect 0))
    (pad 118 smd roundrect (at -2.2 -7.6625 90) (size 0.25 1.475) (layers F.Cu F.Paste F.Mask) (roundrect_rratio 0.25)
      (net 116 118) (zone_connect 0))
    (pad 119 smd roundrect (at -2.6 -7.6625 90) (size 0.25 1.475) (layers F.Cu F.Paste F.Mask) (roundrect_rratio 0.25)
      (net 119 119) (zone_connect 0))
    (pad 120 smd roundrect (at -3 -7.6625 90) (size 0.25 1.475) (layers F.Cu F.Paste F.Mask) (roundrect_rratio 0.25)
      (net 118 120) (zone_connect 0))
    (pad 121 smd roundrect (at -3.4 -7.6625 90) (size 0.25 1.475) (layers F.Cu F.Paste F.Mask) (roundrect_rratio 0.25)
      (net 121 121) (zone_connect 0))
    (pad 122 smd roundrect (at -3.8 -7.6625 90) (size 0.25 1.475) (layers F.Cu F.Paste F.Mask) (roundrect_rratio 0.25)
      (net 120 122) (zone_connect 0))
    (pad 123 smd roundrect (at -4.2 -7.6625 90) (size 0.25 1.475) (layers F.Cu F.Paste F.Mask) (roundrect_rratio 0.25)
      (net 123 123) (zone_connect 0))
    (pad 124 smd roundrect (at -4.6 -7.6625 90) (size 0.25 1.475) (layers F.Cu F.Paste F.Mask) (roundrect_rratio 0.25)
      (net 122 124) (zone_connect 0))
    (pad 125 smd roundrect (at -5 -7.6625 90) (size 0.25 1.475) (layers F.Cu F.Paste F.Mask) (roundrect_rratio 0.25)
      (net 125 125) (zone_connect 0))
    (pad 126 smd roundrect (at -5.4 -7.6625 90) (size 0.25 1.475) (layers F.Cu F.Paste F.Mask) (roundrect_rratio 0.25)
      (net 124 126) (zone_connect 0))
    (pad 127 smd roundrect (at -5.8 -7.6625 90) (size 0.25 1.475) (layers F.Cu F.Paste F.Mask) (roundrect_rratio 0.25)
      (net 127 127) (zone_connect 0))
    (pad 128 smd roundrect (at -6.2 -7.6625 90) (size 0.25 1.475) (layers F.Cu F.Paste F.Mask) (roundrect_rratio 0.25)
      (net 126 128) (zone_connect 0))
    (model ${KISYS3DMOD}/Package_QFP.3dshapes/LQFP-128_14x14mm_P0.4mm.wrl
      (at (xyz 0 0 0))
      (scale (xyz 1 1 1))
      (rotate (xyz 0 0 0))
    )
  )

  (target plus (at 114.4524 135.4328) (size 5) (width 0.05) (layer Edge.Cuts) (tstamp 5CD426B8))
  (target plus (at 96.52 155.702) (size 5) (width 0.05) (layer Edge.Cuts))

  (segment (start 101.6 149.112) (end 101.6 151.0284) (width 0.2) (layer F.Cu) (net 1))
  (segment (start 114.45 136.262) (end 101.6 149.112) (width 0.2) (layer F.Cu) (net 1))
  (segment (start 114.45 135.4245) (end 114.45 136.262) (width 0.2) (layer F.Cu) (net 1))
  (segment (start 101.6 151.892) (end 101.6 151.0284) (width 0.2) (layer F.Cu) (net 1))
  (segment (start 101.6 151.0284) (end 101.6 149.352) (width 0.2) (layer F.Cu) (net 1))
  (segment (start 101.6 154.432) (end 102.87 153.162) (width 0.2) (layer F.Cu) (net 2))
  (segment (start 102.87 153.162) (end 102.87 149.352) (width 0.2) (layer F.Cu) (net 2))
  (segment (start 102.87 149.352) (end 102.87 148.717) (width 0.2) (layer F.Cu) (net 2))
  (segment (start 102.87 148.717) (end 111.76 139.827) (width 0.2) (layer F.Cu) (net 2))
  (segment (start 104.14 151.892) (end 104.14 149.352) (width 0.2) (layer F.Cu) (net 3))
  (segment (start 104.14 149.352) (end 104.14 148.082) (width 0.2) (layer F.Cu) (net 3))
  (segment (start 104.14 148.082) (end 112.395 139.827) (width 0.2) (layer F.Cu) (net 3))
  (segment (start 104.14 154.432) (end 105.41 153.162) (width 0.2) (layer F.Cu) (net 4))
  (segment (start 105.41 153.162) (end 105.41 149.352) (width 0.2) (layer F.Cu) (net 4))
  (segment (start 105.41 149.352) (end 105.41 147.447) (width 0.2) (layer F.Cu) (net 4))
  (segment (start 105.41 147.447) (end 113.03 139.827) (width 0.2) (layer F.Cu) (net 4))
  (segment (start 106.68 151.892) (end 106.68 149.352) (width 0.2) (layer F.Cu) (net 5))
  (segment (start 106.68 149.352) (end 106.68 146.812) (width 0.2) (layer F.Cu) (net 5))
  (segment (start 106.68 146.812) (end 113.665 139.827) (width 0.2) (layer F.Cu) (net 5))
  (segment (start 106.68 154.432) (end 107.95 153.162) (width 0.2) (layer F.Cu) (net 6))
  (segment (start 107.95 153.162) (end 107.95 149.352) (width 0.2) (layer F.Cu) (net 6))
  (segment (start 107.95 149.352) (end 107.95 146.177) (width 0.2) (layer F.Cu) (net 6))
  (segment (start 107.95 146.177) (end 114.3 139.827) (width 0.2) (layer F.Cu) (net 6))
  (segment (start 109.22 151.892) (end 109.22 149.352) (width 0.2) (layer F.Cu) (net 7))
  (segment (start 109.22 149.352) (end 109.22 145.542) (width 0.2) (layer F.Cu) (net 7))
  (segment (start 109.22 145.542) (end 114.935 139.827) (width 0.2) (layer F.Cu) (net 7))
  (segment (start 109.22 154.432) (end 110.49 153.162) (width 0.2) (layer F.Cu) (net 8))
  (segment (start 110.49 153.162) (end 110.49 149.352) (width 0.2) (layer F.Cu) (net 8))
  (segment (start 110.49 149.352) (end 110.49 144.907) (width 0.2) (layer F.Cu) (net 8))
  (segment (start 110.49 144.907) (end 115.57 139.827) (width 0.2) (layer F.Cu) (net 8))
  (segment (start 111.76 151.892) (end 111.76 149.352) (width 0.2) (layer F.Cu) (net 9))
  (segment (start 111.76 149.352) (end 111.76 144.272) (width 0.2) (layer F.Cu) (net 9))
  (segment (start 111.76 144.272) (end 116.205 139.827) (width 0.2) (layer F.Cu) (net 9))
  (segment (start 111.76 154.432) (end 113.03 153.162) (width 0.2) (layer F.Cu) (net 10))
  (segment (start 113.03 153.162) (end 113.03 149.352) (width 0.2) (layer F.Cu) (net 10))
  (segment (start 113.03 149.352) (end 113.03 143.637) (width 0.2) (layer F.Cu) (net 10))
  (segment (start 113.03 143.637) (end 116.84 139.827) (width 0.2) (layer F.Cu) (net 10))
  (segment (start 114.3 151.892) (end 114.3 149.352) (width 0.2) (layer F.Cu) (net 11))
  (segment (start 114.3 149.352) (end 114.3 143.002) (width 0.2) (layer F.Cu) (net 11))
  (segment (start 114.3 143.002) (end 117.475 139.827) (width 0.2) (layer F.Cu) (net 11))
  (segment (start 115.57 153.162) (end 114.3 154.432) (width 0.2) (layer F.Cu) (net 12))
  (segment (start 115.57 149.352) (end 115.57 153.162) (width 0.2) (layer F.Cu) (net 12))
  (segment (start 115.57 149.352) (end 115.57 142.367) (width 0.2) (layer F.Cu) (net 12))
  (segment (start 115.57 142.367) (end 118.11 139.827) (width 0.2) (layer F.Cu) (net 12))
  (segment (start 116.84 151.892) (end 116.84 149.352) (width 0.2) (layer F.Cu) (net 13))
  (segment (start 116.84 149.352) (end 116.84 141.732) (width 0.2) (layer F.Cu) (net 13))
  (segment (start 116.84 141.732) (end 118.745 139.827) (width 0.2) (layer F.Cu) (net 13))
  (segment (start 116.84 154.432) (end 118.11 153.162) (width 0.2) (layer F.Cu) (net 14))
  (segment (start 118.11 153.162) (end 118.11 149.352) (width 0.2) (layer F.Cu) (net 14))
  (segment (start 118.11 149.352) (end 118.11 141.732) (width 0.2) (layer F.Cu) (net 14))
  (segment (start 118.11 141.732) (end 118.11 141.097) (width 0.2) (layer F.Cu) (net 14))
  (segment (start 118.11 141.097) (end 119.38 139.827) (width 0.2) (layer F.Cu) (net 14))
  (segment (start 119.38 149.352) (end 119.38 151.892) (width 0.2) (layer F.Cu) (net 15))
  (segment (start 119.38 149.352) (end 119.38 141.097) (width 0.2) (layer F.Cu) (net 15))
  (segment (start 119.38 141.097) (end 119.38 140.462) (width 0.2) (layer F.Cu) (net 15))
  (segment (start 119.38 140.462) (end 120.015 139.827) (width 0.2) (layer F.Cu) (net 15))
  (segment (start 119.38 154.432) (end 120.65 153.162) (width 0.2) (layer F.Cu) (net 16))
  (segment (start 120.65 153.162) (end 120.65 149.352) (width 0.2) (layer F.Cu) (net 16))
  (segment (start 120.65 149.352) (end 120.65 140.462) (width 0.2) (layer F.Cu) (net 16))
  (segment (start 120.65 140.462) (end 120.65 139.827) (width 0.2) (layer F.Cu) (net 16))
  (segment (start 121.92 151.892) (end 121.92 149.352) (width 0.2) (layer F.Cu) (net 17))
  (segment (start 121.92 149.352) (end 121.92 139.827) (width 0.2) (layer F.Cu) (net 17))
  (segment (start 121.92 154.432) (end 123.19 153.162) (width 0.2) (layer F.Cu) (net 18))
  (segment (start 123.19 153.162) (end 123.19 149.352) (width 0.2) (layer F.Cu) (net 18))
  (segment (start 123.19 149.352) (end 123.19 140.462) (width 0.2) (layer F.Cu) (net 18))
  (segment (start 123.19 140.462) (end 122.555 139.827) (width 0.2) (layer F.Cu) (net 18))
  (segment (start 124.46 151.892) (end 124.46 149.352) (width 0.2) (layer F.Cu) (net 19))
  (segment (start 124.46 149.352) (end 124.46 141.097) (width 0.2) (layer F.Cu) (net 19))
  (segment (start 124.46 141.097) (end 123.19 139.827) (width 0.2) (layer F.Cu) (net 19))
  (segment (start 124.46 154.432) (end 125.73 153.162) (width 0.2) (layer F.Cu) (net 20))
  (segment (start 125.73 153.162) (end 125.73 149.352) (width 0.2) (layer F.Cu) (net 20))
  (segment (start 125.73 149.352) (end 125.73 141.732) (width 0.2) (layer F.Cu) (net 20))
  (segment (start 125.73 141.732) (end 123.825 139.827) (width 0.2) (layer F.Cu) (net 20))
  (segment (start 127 151.892) (end 127 149.352) (width 0.2) (layer F.Cu) (net 21))
  (segment (start 127 149.352) (end 127 142.367) (width 0.2) (layer F.Cu) (net 21))
  (segment (start 127 142.367) (end 124.46 139.827) (width 0.2) (layer F.Cu) (net 21))
  (segment (start 127 154.432) (end 128.27 153.162) (width 0.2) (layer F.Cu) (net 22))
  (segment (start 128.27 153.162) (end 128.27 149.352) (width 0.2) (layer F.Cu) (net 22))
  (segment (start 128.27 149.352) (end 128.27 143.002) (width 0.2) (layer F.Cu) (net 22))
  (segment (start 128.27 143.002) (end 125.095 139.827) (width 0.2) (layer F.Cu) (net 22))
  (segment (start 129.54 151.892) (end 129.54 149.352) (width 0.2) (layer F.Cu) (net 23))
  (segment (start 129.54 149.352) (end 129.54 143.637) (width 0.2) (layer F.Cu) (net 23))
  (segment (start 129.54 143.637) (end 125.73 139.827) (width 0.2) (layer F.Cu) (net 23))
  (segment (start 129.54 154.432) (end 130.81 153.162) (width 0.2) (layer F.Cu) (net 24))
  (segment (start 130.81 153.162) (end 130.81 149.352) (width 0.2) (layer F.Cu) (net 24))
  (segment (start 130.81 149.352) (end 130.81 144.272) (width 0.2) (layer F.Cu) (net 24))
  (segment (start 130.81 144.272) (end 126.365 139.827) (width 0.2) (layer F.Cu) (net 24))
  (segment (start 132.08 151.892) (end 132.08 149.352) (width 0.2) (layer F.Cu) (net 25))
  (segment (start 132.08 149.352) (end 132.08 144.907) (width 0.2) (layer F.Cu) (net 25))
  (segment (start 132.08 144.907) (end 127 139.827) (width 0.2) (layer F.Cu) (net 25))
  (segment (start 132.08 154.432) (end 133.35 153.162) (width 0.2) (layer F.Cu) (net 26))
  (segment (start 133.35 153.162) (end 133.35 149.352) (width 0.2) (layer F.Cu) (net 26))
  (segment (start 133.35 149.352) (end 133.35 145.542) (width 0.2) (layer F.Cu) (net 26))
  (segment (start 133.35 145.542) (end 127.635 139.827) (width 0.2) (layer F.Cu) (net 26))
  (segment (start 134.62 151.892) (end 134.62 149.352) (width 0.2) (layer F.Cu) (net 27))
  (segment (start 134.62 149.352) (end 134.62 146.177) (width 0.2) (layer F.Cu) (net 27))
  (segment (start 134.62 146.177) (end 128.27 139.827) (width 0.2) (layer F.Cu) (net 27))
  (segment (start 134.62 154.432) (end 135.89 153.162) (width 0.2) (layer F.Cu) (net 28))
  (segment (start 135.89 153.162) (end 135.89 149.352) (width 0.2) (layer F.Cu) (net 28))
  (segment (start 135.89 149.352) (end 135.89 146.812) (width 0.2) (layer F.Cu) (net 28))
  (segment (start 135.89 146.812) (end 128.905 139.827) (width 0.2) (layer F.Cu) (net 28))
  (segment (start 137.16 151.892) (end 137.16 149.352) (width 0.2) (layer F.Cu) (net 29))
  (segment (start 137.16 149.352) (end 137.16 147.447) (width 0.2) (layer F.Cu) (net 29))
  (segment (start 137.16 147.447) (end 129.54 139.827) (width 0.2) (layer F.Cu) (net 29))
  (segment (start 138.43 153.162) (end 138.43 149.352) (width 0.2) (layer F.Cu) (net 30))
  (segment (start 137.16 154.432) (end 138.43 153.162) (width 0.2) (layer F.Cu) (net 30))
  (segment (start 138.43 149.352) (end 138.43 148.082) (width 0.2) (layer F.Cu) (net 30))
  (segment (start 138.43 148.082) (end 130.175 139.827) (width 0.2) (layer F.Cu) (net 30))
  (segment (start 139.7 151.892) (end 139.7 149.352) (width 0.2) (layer F.Cu) (net 31))
  (segment (start 139.7 149.352) (end 139.7 148.717) (width 0.2) (layer F.Cu) (net 31))
  (segment (start 139.7 148.717) (end 130.81 139.827) (width 0.2) (layer F.Cu) (net 31))
  (segment (start 139.7 154.432) (end 140.97 153.162) (width 0.2) (layer F.Cu) (net 32))
  (segment (start 140.97 153.162) (end 140.97 149.3012) (width 0.2) (layer F.Cu) (net 32))
  (segment (start 140.97 149.3012) (end 140.9192 149.3012) (width 0.2) (layer F.Cu) (net 32))
  (segment (start 140.9192 149.3012) (end 131.445 139.827) (width 0.2) (layer F.Cu) (net 32))
  (segment (start 144.78 108.712) (end 142.24 108.712) (width 0.2) (layer F.Cu) (net 33))
  (segment (start 147.32 108.712) (end 146.05 107.442) (width 0.2) (layer F.Cu) (net 34))
  (segment (start 146.05 107.442) (end 142.24 107.442) (width 0.2) (layer F.Cu) (net 34))
  (segment (start 144.78 111.252) (end 142.24 111.252) (width 0.2) (layer F.Cu) (net 35))
  (segment (start 147.32 111.252) (end 146.05 109.982) (width 0.2) (layer F.Cu) (net 36))
  (segment (start 146.05 109.982) (end 142.24 109.982) (width 0.2) (layer F.Cu) (net 36))
  (segment (start 144.78 113.792) (end 142.24 113.792) (width 0.2) (layer F.Cu) (net 37))
  (segment (start 147.32 113.792) (end 146.05 112.522) (width 0.2) (layer F.Cu) (net 38))
  (segment (start 146.05 112.522) (end 142.24 112.522) (width 0.2) (layer F.Cu) (net 38))
  (segment (start 144.78 116.332) (end 142.24 116.332) (width 0.2) (layer F.Cu) (net 39))
  (segment (start 147.32 116.332) (end 146.05 115.062) (width 0.2) (layer F.Cu) (net 40))
  (segment (start 146.05 115.062) (end 142.24 115.062) (width 0.2) (layer F.Cu) (net 40))
  (segment (start 144.78 118.872) (end 142.24 118.872) (width 0.2) (layer F.Cu) (net 41))
  (segment (start 147.32 118.872) (end 146.05 117.602) (width 0.2) (layer F.Cu) (net 42))
  (segment (start 146.05 117.602) (end 142.24 117.602) (width 0.2) (layer F.Cu) (net 42))
  (segment (start 144.78 121.412) (end 142.24 121.412) (width 0.2) (layer F.Cu) (net 43))
  (segment (start 147.32 121.412) (end 146.05 120.142) (width 0.2) (layer F.Cu) (net 44))
  (segment (start 146.05 120.142) (end 142.24 120.142) (width 0.2) (layer F.Cu) (net 44))
  (segment (start 144.78 123.952) (end 142.24 123.952) (width 0.2) (layer F.Cu) (net 45))
  (segment (start 147.32 123.952) (end 146.05 122.682) (width 0.2) (layer F.Cu) (net 46))
  (segment (start 146.05 122.682) (end 142.24 122.682) (width 0.2) (layer F.Cu) (net 46))
  (segment (start 144.78 126.492) (end 142.24 126.492) (width 0.2) (layer F.Cu) (net 47))
  (segment (start 147.32 126.492) (end 146.05 125.222) (width 0.2) (layer F.Cu) (net 48))
  (segment (start 146.05 125.222) (end 142.24 125.222) (width 0.2) (layer F.Cu) (net 48))
  (segment (start 144.78 129.032) (end 142.24 129.032) (width 0.2) (layer F.Cu) (net 49))
  (segment (start 147.32 129.032) (end 146.05 127.762) (width 0.2) (layer F.Cu) (net 50))
  (segment (start 146.05 127.762) (end 142.24 127.762) (width 0.2) (layer F.Cu) (net 50))
  (segment (start 144.78 131.572) (end 142.24 131.572) (width 0.2) (layer F.Cu) (net 51))
  (segment (start 147.32 131.572) (end 146.05 130.302) (width 0.2) (layer F.Cu) (net 52))
  (segment (start 146.05 130.302) (end 142.24 130.302) (width 0.2) (layer F.Cu) (net 52))
  (segment (start 144.78 134.112) (end 142.24 134.112) (width 0.2) (layer F.Cu) (net 53))
  (segment (start 147.32 134.112) (end 146.05 132.842) (width 0.2) (layer F.Cu) (net 54))
  (segment (start 146.05 132.842) (end 142.24 132.842) (width 0.2) (layer F.Cu) (net 54))
  (segment (start 144.78 136.652) (end 142.24 136.652) (width 0.2) (layer F.Cu) (net 55))
  (segment (start 147.32 136.652) (end 146.05 135.382) (width 0.2) (layer F.Cu) (net 56))
  (segment (start 146.05 135.382) (end 142.24 135.382) (width 0.2) (layer F.Cu) (net 56))
  (segment (start 144.78 139.192) (end 142.24 139.192) (width 0.2) (layer F.Cu) (net 57))
  (segment (start 147.32 139.192) (end 146.05 137.922) (width 0.2) (layer F.Cu) (net 58))
  (segment (start 146.05 137.922) (end 142.24 137.922) (width 0.2) (layer F.Cu) (net 58))
  (segment (start 144.78 141.732) (end 142.24 141.732) (width 0.2) (layer F.Cu) (net 59))
  (segment (start 147.32 141.732) (end 146.05 140.462) (width 0.2) (layer F.Cu) (net 60))
  (segment (start 146.05 140.462) (end 142.24 140.462) (width 0.2) (layer F.Cu) (net 60))
  (segment (start 144.78 144.272) (end 142.24 144.272) (width 0.2) (layer F.Cu) (net 61))
  (segment (start 147.32 144.272) (end 146.05 143.002) (width 0.2) (layer F.Cu) (net 62))
  (segment (start 146.05 143.002) (end 142.24 143.002) (width 0.2) (layer F.Cu) (net 62))
  (segment (start 144.78 146.812) (end 142.24 146.812) (width 0.2) (layer F.Cu) (net 63))
  (segment (start 147.32 146.812) (end 146.05 145.542) (width 0.2) (layer F.Cu) (net 64))
  (segment (start 146.05 145.542) (end 142.24 145.542) (width 0.2) (layer F.Cu) (net 64))
  (segment (start 101.6 101.092) (end 100.33 102.362) (width 0.2) (layer F.Cu) (net 65))
  (segment (start 100.33 102.362) (end 100.33 106.172) (width 0.2) (layer F.Cu) (net 65))
  (segment (start 104.14 101.092) (end 102.87 102.362) (width 0.2) (layer F.Cu) (net 66))
  (segment (start 102.87 102.362) (end 102.87 106.172) (width 0.2) (layer F.Cu) (net 66))
  (segment (start 106.68 101.092) (end 105.41 102.362) (width 0.2) (layer F.Cu) (net 67))
  (segment (start 105.41 102.362) (end 105.41 106.172) (width 0.2) (layer F.Cu) (net 67))
  (segment (start 109.22 101.092) (end 107.95 102.362) (width 0.2) (layer F.Cu) (net 68))
  (segment (start 107.95 102.362) (end 107.95 106.172) (width 0.2) (layer F.Cu) (net 68))
  (segment (start 111.76 101.092) (end 110.49 102.362) (width 0.2) (layer F.Cu) (net 69))
  (segment (start 110.49 102.362) (end 110.49 106.172) (width 0.2) (layer F.Cu) (net 69))
  (segment (start 114.3 101.092) (end 113.03 102.362) (width 0.2) (layer F.Cu) (net 70))
  (segment (start 113.03 102.362) (end 113.03 106.172) (width 0.2) (layer F.Cu) (net 70))
  (segment (start 116.84 101.092) (end 115.57 102.362) (width 0.2) (layer F.Cu) (net 71))
  (segment (start 115.57 102.362) (end 115.57 106.172) (width 0.2) (layer F.Cu) (net 71))
  (segment (start 119.38 101.092) (end 118.11 102.362) (width 0.2) (layer F.Cu) (net 72))
  (segment (start 118.11 102.362) (end 118.11 106.172) (width 0.2) (layer F.Cu) (net 72))
  (segment (start 121.92 101.092) (end 120.65 102.362) (width 0.2) (layer F.Cu) (net 73))
  (segment (start 120.65 102.362) (end 120.65 106.172) (width 0.2) (layer F.Cu) (net 73))
  (segment (start 124.46 101.092) (end 123.19 102.362) (width 0.2) (layer F.Cu) (net 74))
  (segment (start 123.19 102.362) (end 123.19 106.172) (width 0.2) (layer F.Cu) (net 74))
  (segment (start 127 101.092) (end 125.73 102.362) (width 0.2) (layer F.Cu) (net 75))
  (segment (start 125.73 102.362) (end 125.73 106.172) (width 0.2) (layer F.Cu) (net 75))
  (segment (start 129.54 101.092) (end 128.27 102.362) (width 0.2) (layer F.Cu) (net 76))
  (segment (start 128.27 102.362) (end 128.27 106.172) (width 0.2) (layer F.Cu) (net 76))
  (segment (start 132.08 101.092) (end 130.81 102.362) (width 0.2) (layer F.Cu) (net 77))
  (segment (start 130.81 102.362) (end 130.81 106.172) (width 0.2) (layer F.Cu) (net 77))
  (segment (start 134.62 101.092) (end 133.35 102.362) (width 0.2) (layer F.Cu) (net 78))
  (segment (start 133.35 102.362) (end 133.35 106.172) (width 0.2) (layer F.Cu) (net 78))
  (segment (start 137.16 101.092) (end 135.89 102.362) (width 0.2) (layer F.Cu) (net 79))
  (segment (start 135.89 102.362) (end 135.89 106.172) (width 0.2) (layer F.Cu) (net 79))
  (segment (start 121.92 103.632) (end 121.92 106.172) (width 0.2) (layer F.Cu) (net 128))
  (segment (start 139.7 101.092) (end 138.43 102.362) (width 0.2) (layer F.Cu) (net 80))
  (segment (start 138.43 102.362) (end 138.43 106.172) (width 0.2) (layer F.Cu) (net 80))
  (segment (start 101.6 103.632) (end 101.6 106.172) (width 0.2) (layer F.Cu) (net 81))
  (segment (start 104.14 103.632) (end 104.14 106.172) (width 0.2) (layer F.Cu) (net 82))
  (segment (start 106.68 103.632) (end 106.68 106.172) (width 0.2) (layer F.Cu) (net 83))
  (segment (start 109.22 103.632) (end 109.22 106.172) (width 0.2) (layer F.Cu) (net 84))
  (segment (start 111.76 103.632) (end 111.76 106.172) (width 0.2) (layer F.Cu) (net 85))
  (segment (start 114.3 103.632) (end 114.3 106.172) (width 0.2) (layer F.Cu) (net 86))
  (segment (start 116.84 103.632) (end 116.84 106.172) (width 0.2) (layer F.Cu) (net 87))
  (segment (start 119.38 103.632) (end 119.38 106.172) (width 0.2) (layer F.Cu) (net 88))
  (segment (start 124.46 103.632) (end 124.46 106.172) (width 0.2) (layer F.Cu) (net 89))
  (segment (start 127 103.632) (end 127 106.172) (width 0.2) (layer F.Cu) (net 90))
  (segment (start 129.54 103.632) (end 129.54 106.172) (width 0.2) (layer F.Cu) (net 91))
  (segment (start 132.08 103.632) (end 132.08 106.172) (width 0.2) (layer F.Cu) (net 92))
  (segment (start 134.62 103.632) (end 134.62 106.172) (width 0.2) (layer F.Cu) (net 93))
  (segment (start 137.16 103.632) (end 137.16 106.172) (width 0.2) (layer F.Cu) (net 94))
  (segment (start 139.7 103.632) (end 139.7 106.172) (width 0.2) (layer F.Cu) (net 95))
  (segment (start 93.98 108.712) (end 95.25 109.982) (width 0.2) (layer F.Cu) (net 96))
  (segment (start 95.25 109.982) (end 99.06 109.982) (width 0.2) (layer F.Cu) (net 96))
  (segment (start 96.52 108.712) (end 99.06 108.712) (width 0.2) (layer F.Cu) (net 97))
  (segment (start 93.98 111.252) (end 95.25 112.522) (width 0.2) (layer F.Cu) (net 98))
  (segment (start 95.25 112.522) (end 99.06 112.522) (width 0.2) (layer F.Cu) (net 98))
  (segment (start 96.52 111.252) (end 99.06 111.252) (width 0.2) (layer F.Cu) (net 99))
  (segment (start 93.98 113.792) (end 95.25 115.062) (width 0.2) (layer F.Cu) (net 100))
  (segment (start 95.25 115.062) (end 99.06 115.062) (width 0.2) (layer F.Cu) (net 100))
  (segment (start 96.52 113.792) (end 99.06 113.792) (width 0.2) (layer F.Cu) (net 101))
  (segment (start 93.98 116.332) (end 95.25 117.602) (width 0.2) (layer F.Cu) (net 102))
  (segment (start 95.25 117.602) (end 99.06 117.602) (width 0.2) (layer F.Cu) (net 102))
  (segment (start 96.52 116.332) (end 99.06 116.332) (width 0.2) (layer F.Cu) (net 103))
  (segment (start 93.98 118.872) (end 95.25 120.142) (width 0.2) (layer F.Cu) (net 104))
  (segment (start 95.25 120.142) (end 99.06 120.142) (width 0.2) (layer F.Cu) (net 104))
  (segment (start 96.52 118.872) (end 99.06 118.872) (width 0.2) (layer F.Cu) (net 105))
  (segment (start 93.98 121.412) (end 95.25 122.682) (width 0.2) (layer F.Cu) (net 106))
  (segment (start 95.25 122.682) (end 99.06 122.682) (width 0.2) (layer F.Cu) (net 106))
  (segment (start 96.52 121.412) (end 99.06 121.412) (width 0.2) (layer F.Cu) (net 107))
  (segment (start 93.98 123.952) (end 95.25 125.222) (width 0.2) (layer F.Cu) (net 108))
  (segment (start 95.25 125.222) (end 99.06 125.222) (width 0.2) (layer F.Cu) (net 108))
  (segment (start 96.52 123.952) (end 99.06 123.952) (width 0.2) (layer F.Cu) (net 109))
  (segment (start 93.98 126.492) (end 95.25 127.762) (width 0.2) (layer F.Cu) (net 110))
  (segment (start 95.25 127.762) (end 99.06 127.762) (width 0.2) (layer F.Cu) (net 110))
  (segment (start 96.52 126.492) (end 99.06 126.492) (width 0.2) (layer F.Cu) (net 111))
  (segment (start 93.98 129.032) (end 95.25 130.302) (width 0.2) (layer F.Cu) (net 112))
  (segment (start 95.25 130.302) (end 99.06 130.302) (width 0.2) (layer F.Cu) (net 112))
  (segment (start 96.52 129.032) (end 99.06 129.032) (width 0.2) (layer F.Cu) (net 113))
  (segment (start 93.98 131.572) (end 95.25 132.842) (width 0.2) (layer F.Cu) (net 114))
  (segment (start 95.25 132.842) (end 99.06 132.842) (width 0.2) (layer F.Cu) (net 114))
  (segment (start 96.52 131.572) (end 99.06 131.572) (width 0.2) (layer F.Cu) (net 115))
  (segment (start 93.98 134.112) (end 95.25 135.382) (width 0.2) (layer F.Cu) (net 116))
  (segment (start 95.25 135.382) (end 99.06 135.382) (width 0.2) (layer F.Cu) (net 116))
  (segment (start 96.52 134.112) (end 99.06 134.112) (width 0.2) (layer F.Cu) (net 117))
  (segment (start 93.98 136.652) (end 95.25 137.922) (width 0.2) (layer F.Cu) (net 118))
  (segment (start 95.25 137.922) (end 99.06 137.922) (width 0.2) (layer F.Cu) (net 118))
  (segment (start 96.52 136.652) (end 99.06 136.652) (width 0.2) (layer F.Cu) (net 119))
  (segment (start 93.98 139.192) (end 95.25 140.462) (width 0.2) (layer F.Cu) (net 120))
  (segment (start 95.25 140.462) (end 99.06 140.462) (width 0.2) (layer F.Cu) (net 120))
  (segment (start 96.52 139.192) (end 99.06 139.192) (width 0.2) (layer F.Cu) (net 121))
  (segment (start 93.98 141.732) (end 95.25 143.002) (width 0.2) (layer F.Cu) (net 122))
  (segment (start 95.25 143.002) (end 99.06 143.002) (width 0.2) (layer F.Cu) (net 122))
  (segment (start 96.52 141.732) (end 99.06 141.732) (width 0.2) (layer F.Cu) (net 123))
  (segment (start 93.98 144.272) (end 95.25 145.542) (width 0.2) (layer F.Cu) (net 124))
  (segment (start 95.25 145.542) (end 99.06 145.542) (width 0.2) (layer F.Cu) (net 124))
  (segment (start 96.52 144.272) (end 99.06 144.272) (width 0.2) (layer F.Cu) (net 125))
  (segment (start 93.98 146.812) (end 95.25 148.082) (width 0.2) (layer F.Cu) (net 126))
  (segment (start 95.25 148.082) (end 99.06 148.082) (width 0.2) (layer F.Cu) (net 126))
  (segment (start 96.52 146.812) (end 99.06 146.812) (width 0.2) (layer F.Cu) (net 127))

)
