(kicad_pcb (version 20171130) (host pcbnew "(5.1.0)-1")

  (general
    (thickness 1.6)
    (drawings 10)
    (tracks 476)
    (zones 0)
    (modules 2)
    (nets 129)
  )

  (page A4)
  (layers
    (0 F.Cu signal)
    (31 B.Cu signal)
    (32 B.Adhes user)
    (33 F.Adhes user)
    (34 B.Paste user)
    (35 F.Paste user)
    (36 B.SilkS user)
    (37 F.SilkS user)
    (38 B.Mask user)
    (39 F.Mask user)
    (40 Dwgs.User user)
    (41 Cmts.User user)
    (42 Eco1.User user)
    (43 Eco2.User user)
    (44 Edge.Cuts user)
    (45 Margin user)
    (46 B.CrtYd user)
    (47 F.CrtYd user)
    (48 B.Fab user)
    (49 F.Fab user)
  )

  (setup
    (last_trace_width 0.2)
    (user_trace_width 0.2)
    (user_trace_width 1.5)
    (user_trace_width 2)
    (trace_clearance 0)
    (zone_clearance 0.508)
    (zone_45_only no)
    (trace_min 0.2)
    (via_size 0.8)
    (via_drill 0.4)
    (via_min_size 0.4)
    (via_min_drill 0.3)
    (uvia_size 0.3)
    (uvia_drill 0.1)
    (uvias_allowed no)
    (uvia_min_size 0.2)
    (uvia_min_drill 0.1)
    (edge_width 0.05)
    (segment_width 0.2)
    (pcb_text_width 0.3)
    (pcb_text_size 1.5 1.5)
    (mod_edge_width 0.12)
    (mod_text_size 1 1)
    (mod_text_width 0.15)
    (pad_size 1.524 1.524)
    (pad_drill 0.762)
    (pad_to_mask_clearance 0.051)
    (solder_mask_min_width 0.25)
    (aux_axis_origin 99.06 153.162)
    (grid_origin 99.06 153.162)
    (visible_elements 7FFFFFFF)
    (pcbplotparams
      (layerselection 0x010fc_ffffffff)
      (usegerberextensions false)
      (usegerberattributes false)
      (usegerberadvancedattributes false)
      (creategerberjobfile false)
      (excludeedgelayer true)
      (linewidth 0.100000)
      (plotframeref false)
      (viasonmask false)
      (mode 1)
      (useauxorigin false)
      (hpglpennumber 1)
      (hpglpenspeed 20)
      (hpglpendiameter 15.000000)
      (psnegative false)
      (psa4output false)
      (plotreference true)
      (plotvalue true)
      (plotinvisibletext false)
      (padsonsilk false)
      (subtractmaskfromsilk false)
      (outputformat 1)
      (mirror false)
      (drillshape 1)
      (scaleselection 1)
      (outputdirectory ""))
  )

  (net 0 "")
  (net 1 1)
  (net 2 2)
  (net 3 3)
  (net 4 4)
  (net 5 5)
  (net 6 6)
  (net 7 7)
  (net 8 8)
  (net 9 9)
  (net 10 10)
  (net 11 11)
  (net 12 12)
  (net 13 13)
  (net 14 14)
  (net 15 15)
  (net 16 16)
  (net 17 17)
  (net 18 18)
  (net 19 19)
  (net 20 20)
  (net 21 21)
  (net 22 22)
  (net 23 23)
  (net 24 24)
  (net 25 25)
  (net 26 26)
  (net 27 27)
  (net 28 28)
  (net 29 29)
  (net 30 30)
  (net 31 31)
  (net 32 32)
  (net 33 63)
  (net 34 64)
  (net 35 61)
  (net 36 62)
  (net 37 59)
  (net 38 60)
  (net 39 57)
  (net 40 58)
  (net 41 55)
  (net 42 56)
  (net 43 53)
  (net 44 54)
  (net 45 51)
  (net 46 52)
  (net 47 49)
  (net 48 50)
  (net 49 47)
  (net 50 48)
  (net 51 45)
  (net 52 46)
  (net 53 43)
  (net 54 44)
  (net 55 41)
  (net 56 42)
  (net 57 39)
  (net 58 40)
  (net 59 37)
  (net 60 38)
  (net 61 35)
  (net 62 36)
  (net 63 33)
  (net 64 34)
  (net 65 96)
  (net 66 94)
  (net 67 92)
  (net 68 90)
  (net 69 88)
  (net 70 86)
  (net 71 84)
  (net 72 82)
  (net 73 80)
  (net 74 78)
  (net 75 76)
  (net 76 74)
  (net 77 72)
  (net 78 70)
  (net 79 68)
  (net 80 66)
  (net 81 95)
  (net 82 93)
  (net 83 91)
  (net 84 89)
  (net 85 87)
  (net 86 85)
  (net 87 83)
  (net 88 81)
  (net 89 77)
  (net 90 75)
  (net 91 73)
  (net 92 71)
  (net 93 69)
  (net 94 67)
  (net 95 65)
  (net 96 98)
  (net 97 97)
  (net 98 100)
  (net 99 99)
  (net 100 102)
  (net 101 101)
  (net 102 104)
  (net 103 103)
  (net 104 106)
  (net 105 105)
  (net 106 108)
  (net 107 107)
  (net 108 110)
  (net 109 109)
  (net 110 112)
  (net 111 111)
  (net 112 114)
  (net 113 113)
  (net 114 116)
  (net 115 115)
  (net 116 118)
  (net 117 117)
  (net 118 120)
  (net 119 119)
  (net 120 122)
  (net 121 121)
  (net 122 124)
  (net 123 123)
  (net 124 126)
  (net 125 125)
  (net 126 128)
  (net 127 127)
  (net 128 79)

  (net_class Default "This is the default net class."
    (clearance 0)
    (trace_width 0.2)
    (via_dia 0.8)
    (via_drill 0.4)
    (uvia_dia 0.3)
    (uvia_drill 0.1)
    (add_net 1)
    (add_net 10)
    (add_net 100)
    (add_net 101)
    (add_net 102)
    (add_net 103)
    (add_net 104)
    (add_net 105)
    (add_net 106)
    (add_net 107)
    (add_net 108)
    (add_net 109)
    (add_net 11)
    (add_net 110)
    (add_net 111)
    (add_net 112)
    (add_net 113)
    (add_net 114)
    (add_net 115)
    (add_net 116)
    (add_net 117)
    (add_net 118)
    (add_net 119)
    (add_net 12)
    (add_net 120)
    (add_net 121)
    (add_net 122)
    (add_net 123)
    (add_net 124)
    (add_net 125)
    (add_net 126)
    (add_net 127)
    (add_net 128)
    (add_net 13)
    (add_net 14)
    (add_net 15)
    (add_net 16)
    (add_net 17)
    (add_net 18)
    (add_net 19)
    (add_net 2)
    (add_net 20)
    (add_net 21)
    (add_net 22)
    (add_net 23)
    (add_net 24)
    (add_net 25)
    (add_net 26)
    (add_net 27)
    (add_net 28)
    (add_net 29)
    (add_net 3)
    (add_net 30)
    (add_net 31)
    (add_net 32)
    (add_net 33)
    (add_net 34)
    (add_net 35)
    (add_net 36)
    (add_net 37)
    (add_net 38)
    (add_net 39)
    (add_net 4)
    (add_net 40)
    (add_net 41)
    (add_net 42)
    (add_net 43)
    (add_net 44)
    (add_net 45)
    (add_net 46)
    (add_net 47)
    (add_net 48)
    (add_net 49)
    (add_net 5)
    (add_net 50)
    (add_net 51)
    (add_net 52)
    (add_net 53)
    (add_net 54)
    (add_net 55)
    (add_net 56)
    (add_net 57)
    (add_net 58)
    (add_net 59)
    (add_net 6)
    (add_net 60)
    (add_net 61)
    (add_net 62)
    (add_net 63)
    (add_net 64)
    (add_net 65)
    (add_net 66)
    (add_net 67)
    (add_net 68)
    (add_net 69)
    (add_net 7)
    (add_net 70)
    (add_net 71)
    (add_net 72)
    (add_net 73)
    (add_net 74)
    (add_net 75)
    (add_net 76)
    (add_net 77)
    (add_net 78)
    (add_net 79)
    (add_net 8)
    (add_net 80)
    (add_net 81)
    (add_net 82)
    (add_net 83)
    (add_net 84)
    (add_net 85)
    (add_net 86)
    (add_net 87)
    (add_net 88)
    (add_net 89)
    (add_net 9)
    (add_net 90)
    (add_net 91)
    (add_net 92)
    (add_net 93)
    (add_net 94)
    (add_net 95)
    (add_net 96)
    (add_net 97)
    (add_net 98)
    (add_net 99)
  )

  (module own:Breakout_board_tqfp128 locked (layer F.Cu) (tedit 5CD31668) (tstamp 5CD3928D)
    (at 120.65 127.762)
    (path /5CD2F02F)
    (fp_text reference U1 (at 0 16.51) (layer F.SilkS) hide
      (effects (font (size 1 1) (thickness 0.15)))
    )
    (fp_text value TQFP_BREAKOUT_BOARD (at 0 12.7) (layer F.Fab)
      (effects (font (size 1 1) (thickness 0.15)))
    )
    (fp_arc (start 21.59 -21.59) (end 25.4 -21.59) (angle -90) (layer F.SilkS) (width 0.12))
    (fp_arc (start -21.59 -21.59) (end -21.59 -25.4) (angle -90) (layer F.SilkS) (width 0.12))
    (fp_arc (start 21.59 21.59) (end 21.59 25.4) (angle -90) (layer F.SilkS) (width 0.12))
    (fp_line (start 25.4 -21.59) (end 25.4 21.59) (layer F.SilkS) (width 0.12))
    (fp_line (start -25.4 -21.59) (end -25.4 21.59) (layer F.SilkS) (width 0.12))
    (fp_line (start 21.59 25.4) (end -21.59 25.4) (layer F.SilkS) (width 0.12))
    (fp_line (start -21.59 25.4) (end -25.4 21.59) (layer F.SilkS) (width 0.12))
    (fp_line (start -21.59 -25.4) (end 21.59 -25.4) (layer F.SilkS) (width 0.12))
    (pad 127 thru_hole circle (at -21.59 19.05) (size 1.524 1.524) (drill 0.9) (layers *.Cu *.Mask)
      (net 127 127))
    (pad 128 thru_hole circle (at -24.13 19.05) (size 1.524 1.524) (drill 0.9) (layers *.Cu *.Mask)
      (net 126 128))
    (pad 125 thru_hole circle (at -21.59 16.51) (size 1.524 1.524) (drill 0.9) (layers *.Cu *.Mask)
      (net 125 125))
    (pad 126 thru_hole circle (at -24.13 16.51) (size 1.524 1.524) (drill 0.9) (layers *.Cu *.Mask)
      (net 124 126))
    (pad 123 thru_hole circle (at -21.59 13.97) (size 1.524 1.524) (drill 0.9) (layers *.Cu *.Mask)
      (net 123 123))
    (pad 124 thru_hole circle (at -24.13 13.97) (size 1.524 1.524) (drill 0.9) (layers *.Cu *.Mask)
      (net 122 124))
    (pad 121 thru_hole circle (at -21.59 11.43) (size 1.524 1.524) (drill 0.9) (layers *.Cu *.Mask)
      (net 121 121))
    (pad 122 thru_hole circle (at -24.13 11.43) (size 1.524 1.524) (drill 0.9) (layers *.Cu *.Mask)
      (net 120 122))
    (pad 119 thru_hole circle (at -21.59 8.89) (size 1.524 1.524) (drill 0.9) (layers *.Cu *.Mask)
      (net 119 119))
    (pad 120 thru_hole circle (at -24.13 8.89) (size 1.524 1.524) (drill 0.9) (layers *.Cu *.Mask)
      (net 118 120))
    (pad 117 thru_hole circle (at -21.59 6.35) (size 1.524 1.524) (drill 0.9) (layers *.Cu *.Mask)
      (net 117 117))
    (pad 118 thru_hole circle (at -24.13 6.35) (size 1.524 1.524) (drill 0.9) (layers *.Cu *.Mask)
      (net 116 118))
    (pad 115 thru_hole circle (at -21.59 3.81) (size 1.524 1.524) (drill 0.9) (layers *.Cu *.Mask)
      (net 115 115))
    (pad 116 thru_hole circle (at -24.13 3.81) (size 1.524 1.524) (drill 0.9) (layers *.Cu *.Mask)
      (net 114 116))
    (pad 113 thru_hole circle (at -21.59 1.27) (size 1.524 1.524) (drill 0.9) (layers *.Cu *.Mask)
      (net 113 113))
    (pad 114 thru_hole circle (at -24.13 1.27) (size 1.524 1.524) (drill 0.9) (layers *.Cu *.Mask)
      (net 112 114))
    (pad 111 thru_hole circle (at -21.59 -1.27) (size 1.524 1.524) (drill 0.9) (layers *.Cu *.Mask)
      (net 111 111))
    (pad 112 thru_hole circle (at -24.13 -1.27) (size 1.524 1.524) (drill 0.9) (layers *.Cu *.Mask)
      (net 110 112))
    (pad 109 thru_hole circle (at -21.59 -3.81) (size 1.524 1.524) (drill 0.9) (layers *.Cu *.Mask)
      (net 109 109))
    (pad 110 thru_hole circle (at -24.13 -3.81) (size 1.524 1.524) (drill 0.9) (layers *.Cu *.Mask)
      (net 108 110))
    (pad 107 thru_hole circle (at -21.59 -6.35) (size 1.524 1.524) (drill 0.9) (layers *.Cu *.Mask)
      (net 107 107))
    (pad 108 thru_hole circle (at -24.13 -6.35) (size 1.524 1.524) (drill 0.9) (layers *.Cu *.Mask)
      (net 106 108))
    (pad 105 thru_hole circle (at -21.59 -8.89) (size 1.524 1.524) (drill 0.9) (layers *.Cu *.Mask)
      (net 105 105))
    (pad 106 thru_hole circle (at -24.13 -8.89) (size 1.524 1.524) (drill 0.9) (layers *.Cu *.Mask)
      (net 104 106))
    (pad 103 thru_hole circle (at -21.59 -11.43) (size 1.524 1.524) (drill 0.9) (layers *.Cu *.Mask)
      (net 103 103))
    (pad 104 thru_hole circle (at -24.13 -11.43) (size 1.524 1.524) (drill 0.9) (layers *.Cu *.Mask)
      (net 102 104))
    (pad 101 thru_hole circle (at -21.59 -13.97) (size 1.524 1.524) (drill 0.9) (layers *.Cu *.Mask)
      (net 101 101))
    (pad 102 thru_hole circle (at -24.13 -13.97) (size 1.524 1.524) (drill 0.9) (layers *.Cu *.Mask)
      (net 100 102))
    (pad 99 thru_hole circle (at -21.59 -16.51) (size 1.524 1.524) (drill 0.9) (layers *.Cu *.Mask)
      (net 99 99))
    (pad 100 thru_hole circle (at -24.13 -16.51) (size 1.524 1.524) (drill 0.9) (layers *.Cu *.Mask)
      (net 98 100))
    (pad 97 thru_hole circle (at -21.59 -19.05) (size 1.524 1.524) (drill 0.9) (layers *.Cu *.Mask)
      (net 97 97))
    (pad 98 thru_hole circle (at -24.13 -19.05) (size 1.524 1.524) (drill 0.9) (layers *.Cu *.Mask)
      (net 96 98))
    (pad 65 thru_hole circle (at 19.05 -21.59) (size 1.524 1.524) (drill 0.9) (layers *.Cu *.Mask)
      (net 95 65))
    (pad 67 thru_hole circle (at 16.51 -21.59) (size 1.524 1.524) (drill 0.9) (layers *.Cu *.Mask)
      (net 94 67))
    (pad 69 thru_hole circle (at 13.97 -21.59) (size 1.524 1.524) (drill 0.9) (layers *.Cu *.Mask)
      (net 93 69))
    (pad 71 thru_hole circle (at 11.43 -21.59) (size 1.524 1.524) (drill 0.9) (layers *.Cu *.Mask)
      (net 92 71))
    (pad 73 thru_hole circle (at 8.89 -21.59) (size 1.524 1.524) (drill 0.9) (layers *.Cu *.Mask)
      (net 91 73))
    (pad 75 thru_hole circle (at 6.35 -21.59) (size 1.524 1.524) (drill 0.9) (layers *.Cu *.Mask)
      (net 90 75))
    (pad 77 thru_hole circle (at 3.81 -21.59) (size 1.524 1.524) (drill 0.9) (layers *.Cu *.Mask)
      (net 89 77))
    (pad 79 thru_hole circle (at 1.27 -21.59) (size 1.524 1.524) (drill 0.9) (layers *.Cu *.Mask)
      (net 128 79))
    (pad 81 thru_hole circle (at -1.27 -21.59) (size 1.524 1.524) (drill 0.9) (layers *.Cu *.Mask)
      (net 88 81))
    (pad 83 thru_hole circle (at -3.81 -21.59) (size 1.524 1.524) (drill 0.9) (layers *.Cu *.Mask)
      (net 87 83))
    (pad 85 thru_hole circle (at -6.35 -21.59) (size 1.524 1.524) (drill 0.9) (layers *.Cu *.Mask)
      (net 86 85))
    (pad 87 thru_hole circle (at -8.89 -21.59) (size 1.524 1.524) (drill 0.9) (layers *.Cu *.Mask)
      (net 85 87))
    (pad 89 thru_hole circle (at -11.43 -21.59) (size 1.524 1.524) (drill 0.9) (layers *.Cu *.Mask)
      (net 84 89))
    (pad 91 thru_hole circle (at -13.97 -21.59) (size 1.524 1.524) (drill 0.9) (layers *.Cu *.Mask)
      (net 83 91))
    (pad 93 thru_hole circle (at -16.51 -21.59) (size 1.524 1.524) (drill 0.9) (layers *.Cu *.Mask)
      (net 82 93))
    (pad 95 thru_hole circle (at -19.05 -21.59) (size 1.524 1.524) (drill 0.9) (layers *.Cu *.Mask)
      (net 81 95))
    (pad 66 thru_hole circle (at 19.05 -24.13) (size 1.524 1.524) (drill 0.9) (layers *.Cu *.Mask)
      (net 80 66))
    (pad 68 thru_hole circle (at 16.51 -24.13) (size 1.524 1.524) (drill 0.9) (layers *.Cu *.Mask)
      (net 79 68))
    (pad 70 thru_hole circle (at 13.97 -24.13) (size 1.524 1.524) (drill 0.9) (layers *.Cu *.Mask)
      (net 78 70))
    (pad 72 thru_hole circle (at 11.43 -24.13) (size 1.524 1.524) (drill 0.9) (layers *.Cu *.Mask)
      (net 77 72))
    (pad 74 thru_hole circle (at 8.89 -24.13) (size 1.524 1.524) (drill 0.9) (layers *.Cu *.Mask)
      (net 76 74))
    (pad 76 thru_hole circle (at 6.35 -24.13) (size 1.524 1.524) (drill 0.9) (layers *.Cu *.Mask)
      (net 75 76))
    (pad 78 thru_hole circle (at 3.81 -24.13) (size 1.524 1.524) (drill 0.9) (layers *.Cu *.Mask)
      (net 74 78))
    (pad 80 thru_hole circle (at 1.27 -24.13) (size 1.524 1.524) (drill 0.9) (layers *.Cu *.Mask)
      (net 73 80))
    (pad 82 thru_hole circle (at -1.27 -24.13) (size 1.524 1.524) (drill 0.9) (layers *.Cu *.Mask)
      (net 72 82))
    (pad 84 thru_hole circle (at -3.81 -24.13) (size 1.524 1.524) (drill 0.9) (layers *.Cu *.Mask)
      (net 71 84))
    (pad 86 thru_hole circle (at -6.35 -24.13) (size 1.524 1.524) (drill 0.9) (layers *.Cu *.Mask)
      (net 70 86))
    (pad 88 thru_hole circle (at -8.89 -24.13) (size 1.524 1.524) (drill 0.9) (layers *.Cu *.Mask)
      (net 69 88))
    (pad 90 thru_hole circle (at -11.43 -24.13) (size 1.524 1.524) (drill 0.9) (layers *.Cu *.Mask)
      (net 68 90))
    (pad 92 thru_hole circle (at -13.97 -24.13) (size 1.524 1.524) (drill 0.9) (layers *.Cu *.Mask)
      (net 67 92))
    (pad 94 thru_hole circle (at -16.51 -24.13) (size 1.524 1.524) (drill 0.9) (layers *.Cu *.Mask)
      (net 66 94))
    (pad 96 thru_hole circle (at -19.05 -24.13) (size 1.524 1.524) (drill 0.9) (layers *.Cu *.Mask)
      (net 65 96))
    (pad 34 thru_hole circle (at 24.13 19.05) (size 1.524 1.524) (drill 0.9) (layers *.Cu *.Mask)
      (net 64 34))
    (pad 33 thru_hole circle (at 21.59 19.05) (size 1.524 1.524) (drill 0.9) (layers *.Cu *.Mask)
      (net 63 33))
    (pad 36 thru_hole circle (at 24.13 16.51) (size 1.524 1.524) (drill 0.9) (layers *.Cu *.Mask)
      (net 62 36))
    (pad 35 thru_hole circle (at 21.59 16.51) (size 1.524 1.524) (drill 0.9) (layers *.Cu *.Mask)
      (net 61 35))
    (pad 38 thru_hole circle (at 24.13 13.97) (size 1.524 1.524) (drill 0.9) (layers *.Cu *.Mask)
      (net 60 38))
    (pad 37 thru_hole circle (at 21.59 13.97) (size 1.524 1.524) (drill 0.9) (layers *.Cu *.Mask)
      (net 59 37))
    (pad 40 thru_hole circle (at 24.13 11.43) (size 1.524 1.524) (drill 0.9) (layers *.Cu *.Mask)
      (net 58 40))
    (pad 39 thru_hole circle (at 21.59 11.43) (size 1.524 1.524) (drill 0.9) (layers *.Cu *.Mask)
      (net 57 39))
    (pad 42 thru_hole circle (at 24.13 8.89) (size 1.524 1.524) (drill 0.9) (layers *.Cu *.Mask)
      (net 56 42))
    (pad 41 thru_hole circle (at 21.59 8.89) (size 1.524 1.524) (drill 0.9) (layers *.Cu *.Mask)
      (net 55 41))
    (pad 44 thru_hole circle (at 24.13 6.35) (size 1.524 1.524) (drill 0.9) (layers *.Cu *.Mask)
      (net 54 44))
    (pad 43 thru_hole circle (at 21.59 6.35) (size 1.524 1.524) (drill 0.9) (layers *.Cu *.Mask)
      (net 53 43))
    (pad 46 thru_hole circle (at 24.13 3.81) (size 1.524 1.524) (drill 0.9) (layers *.Cu *.Mask)
      (net 52 46))
    (pad 45 thru_hole circle (at 21.59 3.81) (size 1.524 1.524) (drill 0.9) (layers *.Cu *.Mask)
      (net 51 45))
    (pad 48 thru_hole circle (at 24.13 1.27) (size 1.524 1.524) (drill 0.9) (layers *.Cu *.Mask)
      (net 50 48))
    (pad 47 thru_hole circle (at 21.59 1.27) (size 1.524 1.524) (drill 0.9) (layers *.Cu *.Mask)
      (net 49 47))
    (pad 50 thru_hole circle (at 24.13 -1.27) (size 1.524 1.524) (drill 0.9) (layers *.Cu *.Mask)
      (net 48 50))
    (pad 49 thru_hole circle (at 21.59 -1.27) (size 1.524 1.524) (drill 0.9) (layers *.Cu *.Mask)
      (net 47 49))
    (pad 52 thru_hole circle (at 24.13 -3.81) (size 1.524 1.524) (drill 0.9) (layers *.Cu *.Mask)
      (net 46 52))
    (pad 51 thru_hole circle (at 21.59 -3.81) (size 1.524 1.524) (drill 0.9) (layers *.Cu *.Mask)
      (net 45 51))
    (pad 54 thru_hole circle (at 24.13 -6.35) (size 1.524 1.524) (drill 0.9) (layers *.Cu *.Mask)
      (net 44 54))
    (pad 53 thru_hole circle (at 21.59 -6.35) (size 1.524 1.524) (drill 0.9) (layers *.Cu *.Mask)
      (net 43 53))
    (pad 56 thru_hole circle (at 24.13 -8.89) (size 1.524 1.524) (drill 0.9) (layers *.Cu *.Mask)
      (net 42 56))
    (pad 55 thru_hole circle (at 21.59 -8.89) (size 1.524 1.524) (drill 0.9) (layers *.Cu *.Mask)
      (net 41 55))
    (pad 58 thru_hole circle (at 24.13 -11.43) (size 1.524 1.524) (drill 0.9) (layers *.Cu *.Mask)
      (net 40 58))
    (pad 57 thru_hole circle (at 21.59 -11.43) (size 1.524 1.524) (drill 0.9) (layers *.Cu *.Mask)
      (net 39 57))
    (pad 60 thru_hole circle (at 24.13 -13.97) (size 1.524 1.524) (drill 0.9) (layers *.Cu *.Mask)
      (net 38 60))
    (pad 59 thru_hole circle (at 21.59 -13.97) (size 1.524 1.524) (drill 0.9) (layers *.Cu *.Mask)
      (net 37 59))
    (pad 62 thru_hole circle (at 24.13 -16.51) (size 1.524 1.524) (drill 0.9) (layers *.Cu *.Mask)
      (net 36 62))
    (pad 61 thru_hole circle (at 21.59 -16.51) (size 1.524 1.524) (drill 0.9) (layers *.Cu *.Mask)
      (net 35 61))
    (pad 64 thru_hole circle (at 24.13 -19.05) (size 1.524 1.524) (drill 0.9) (layers *.Cu *.Mask)
      (net 34 64))
    (pad 63 thru_hole circle (at 21.59 -19.05) (size 1.524 1.524) (drill 0.9) (layers *.Cu *.Mask)
      (net 33 63))
    (pad 32 thru_hole circle (at 19.05 24.13) (size 1.524 1.524) (drill 0.9) (layers *.Cu *.Mask)
      (net 32 32))
    (pad 30 thru_hole circle (at 16.51 24.13) (size 1.524 1.524) (drill 0.9) (layers *.Cu *.Mask)
      (net 30 30))
    (pad 28 thru_hole circle (at 13.97 24.13) (size 1.524 1.524) (drill 0.9) (layers *.Cu *.Mask)
      (net 28 28))
    (pad 26 thru_hole circle (at 11.43 24.13) (size 1.524 1.524) (drill 0.9) (layers *.Cu *.Mask)
      (net 26 26))
    (pad 24 thru_hole circle (at 8.89 24.13) (size 1.524 1.524) (drill 0.9) (layers *.Cu *.Mask)
      (net 24 24))
    (pad 22 thru_hole circle (at 6.35 24.13) (size 1.524 1.524) (drill 0.9) (layers *.Cu *.Mask)
      (net 22 22))
    (pad 20 thru_hole circle (at 3.81 24.13) (size 1.524 1.524) (drill 0.9) (layers *.Cu *.Mask)
      (net 20 20))
    (pad 18 thru_hole circle (at 1.27 24.13) (size 1.524 1.524) (drill 0.9) (layers *.Cu *.Mask)
      (net 18 18))
    (pad 16 thru_hole circle (at -1.27 24.13) (size 1.524 1.524) (drill 0.9) (layers *.Cu *.Mask)
      (net 16 16))
    (pad 14 thru_hole circle (at -3.81 24.13) (size 1.524 1.524) (drill 0.9) (layers *.Cu *.Mask)
      (net 14 14))
    (pad 12 thru_hole circle (at -6.35 24.13) (size 1.524 1.524) (drill 0.9) (layers *.Cu *.Mask)
      (net 12 12))
    (pad 10 thru_hole circle (at -8.89 24.13) (size 1.524 1.524) (drill 0.9) (layers *.Cu *.Mask)
      (net 10 10))
    (pad 8 thru_hole circle (at -11.43 24.13) (size 1.524 1.524) (drill 0.9) (layers *.Cu *.Mask)
      (net 8 8))
    (pad 6 thru_hole circle (at -13.97 24.13) (size 1.524 1.524) (drill 0.9) (layers *.Cu *.Mask)
      (net 6 6))
    (pad 4 thru_hole circle (at -16.51 24.13) (size 1.524 1.524) (drill 0.9) (layers *.Cu *.Mask)
      (net 4 4))
    (pad 2 thru_hole circle (at -19.05 24.13) (size 1.524 1.524) (drill 0.9) (layers *.Cu *.Mask)
      (net 2 2))
    (pad 31 thru_hole circle (at 19.05 21.59) (size 1.524 1.524) (drill 0.9) (layers *.Cu *.Mask)
      (net 31 31))
    (pad 29 thru_hole circle (at 16.51 21.59) (size 1.524 1.524) (drill 0.9) (layers *.Cu *.Mask)
      (net 29 29))
    (pad 27 thru_hole circle (at 13.97 21.59) (size 1.524 1.524) (drill 0.9) (layers *.Cu *.Mask)
      (net 27 27))
    (pad 25 thru_hole circle (at 11.43 21.59) (size 1.524 1.524) (drill 0.9) (layers *.Cu *.Mask)
      (net 25 25))
    (pad 23 thru_hole circle (at 8.89 21.59) (size 1.524 1.524) (drill 0.9) (layers *.Cu *.Mask)
      (net 23 23))
    (pad 21 thru_hole circle (at 6.35 21.59) (size 1.524 1.524) (drill 0.9) (layers *.Cu *.Mask)
      (net 21 21))
    (pad 19 thru_hole circle (at 3.81 21.59) (size 1.524 1.524) (drill 0.9) (layers *.Cu *.Mask)
      (net 19 19))
    (pad 17 thru_hole circle (at 1.27 21.59) (size 1.524 1.524) (drill 0.9) (layers *.Cu *.Mask)
      (net 17 17))
    (pad 15 thru_hole circle (at -1.27 21.59) (size 1.524 1.524) (drill 0.9) (layers *.Cu *.Mask)
      (net 15 15))
    (pad 13 thru_hole circle (at -3.81 21.59) (size 1.524 1.524) (drill 0.9) (layers *.Cu *.Mask)
      (net 13 13))
    (pad 11 thru_hole circle (at -6.35 21.59) (size 1.524 1.524) (drill 0.9) (layers *.Cu *.Mask)
      (net 11 11))
    (pad 9 thru_hole circle (at -8.89 21.59) (size 1.524 1.524) (drill 0.9) (layers *.Cu *.Mask)
      (net 9 9))
    (pad 7 thru_hole circle (at -11.43 21.59) (size 1.524 1.524) (drill 0.9) (layers *.Cu *.Mask)
      (net 7 7))
    (pad 5 thru_hole circle (at -13.97 21.59) (size 1.524 1.524) (drill 0.9) (layers *.Cu *.Mask)
      (net 5 5))
    (pad 3 thru_hole circle (at -16.51 21.59) (size 1.524 1.524) (drill 0.9) (layers *.Cu *.Mask)
      (net 3 3))
    (pad 1 thru_hole circle (at -19.05 21.59) (size 1.524 1.524) (drill 0.9) (layers *.Cu *.Mask)
      (net 1 1))
  )

  (module Package_QFP:LQFP-128_14x14mm_P0.4mm locked (layer F.Cu) (tedit 5C195F94) (tstamp 5CD39338)
    (at 120.65 127.762 90)
    (descr "LQFP, 128 Pin (https://www.renesas.com/eu/en/package-image/pdf/outdrawing/q128.14x14.pdf), generated with kicad-footprint-generator ipc_gullwing_generator.py")
    (tags "LQFP QFP")
    (path /5CD69CF4)
    (clearance 0.1)
    (zone_connect 0)
    (attr smd)
    (fp_text reference U2 (at 0 -9.35 90) (layer F.SilkS) hide
      (effects (font (size 1 1) (thickness 0.15)))
    )
    (fp_text value TQFP_BREAKOUT_BOARD (at 0 9.35 90) (layer F.Fab)
      (effects (font (size 1 1) (thickness 0.15)))
    )
    (fp_line (start 6.585 7.11) (end 7.11 7.11) (layer F.SilkS) (width 0.12))
    (fp_line (start 7.11 7.11) (end 7.11 6.585) (layer F.SilkS) (width 0.12))
    (fp_line (start -6.585 7.11) (end -7.11 7.11) (layer F.SilkS) (width 0.12))
    (fp_line (start -7.11 7.11) (end -7.11 6.585) (layer F.SilkS) (width 0.12))
    (fp_line (start 6.585 -7.11) (end 7.11 -7.11) (layer F.SilkS) (width 0.12))
    (fp_line (start 7.11 -7.11) (end 7.11 -6.585) (layer F.SilkS) (width 0.12))
    (fp_line (start -6.585 -7.11) (end -7.11 -7.11) (layer F.SilkS) (width 0.12))
    (fp_line (start -7.11 -7.11) (end -7.11 -6.585) (layer F.SilkS) (width 0.12))
    (fp_line (start -7.11 -6.585) (end -8.4 -6.585) (layer F.SilkS) (width 0.12))
    (fp_line (start -6 -7) (end 7 -7) (layer F.Fab) (width 0.1))
    (fp_line (start 7 -7) (end 7 7) (layer F.Fab) (width 0.1))
    (fp_line (start 7 7) (end -7 7) (layer F.Fab) (width 0.1))
    (fp_line (start -7 7) (end -7 -6) (layer F.Fab) (width 0.1))
    (fp_line (start -7 -6) (end -6 -7) (layer F.Fab) (width 0.1))
    (fp_line (start 0 -8.65) (end -6.58 -8.65) (layer F.CrtYd) (width 0.05))
    (fp_line (start -6.58 -8.65) (end -6.58 -7.25) (layer F.CrtYd) (width 0.05))
    (fp_line (start -6.58 -7.25) (end -7.25 -7.25) (layer F.CrtYd) (width 0.05))
    (fp_line (start -7.25 -7.25) (end -7.25 -6.58) (layer F.CrtYd) (width 0.05))
    (fp_line (start -7.25 -6.58) (end -8.65 -6.58) (layer F.CrtYd) (width 0.05))
    (fp_line (start -8.65 -6.58) (end -8.65 0) (layer F.CrtYd) (width 0.05))
    (fp_line (start 0 -8.65) (end 6.58 -8.65) (layer F.CrtYd) (width 0.05))
    (fp_line (start 6.58 -8.65) (end 6.58 -7.25) (layer F.CrtYd) (width 0.05))
    (fp_line (start 6.58 -7.25) (end 7.25 -7.25) (layer F.CrtYd) (width 0.05))
    (fp_line (start 7.25 -7.25) (end 7.25 -6.58) (layer F.CrtYd) (width 0.05))
    (fp_line (start 7.25 -6.58) (end 8.65 -6.58) (layer F.CrtYd) (width 0.05))
    (fp_line (start 8.65 -6.58) (end 8.65 0) (layer F.CrtYd) (width 0.05))
    (fp_line (start 0 8.65) (end -6.58 8.65) (layer F.CrtYd) (width 0.05))
    (fp_line (start -6.58 8.65) (end -6.58 7.25) (layer F.CrtYd) (width 0.05))
    (fp_line (start -6.58 7.25) (end -7.25 7.25) (layer F.CrtYd) (width 0.05))
    (fp_line (start -7.25 7.25) (end -7.25 6.58) (layer F.CrtYd) (width 0.05))
    (fp_line (start -7.25 6.58) (end -8.65 6.58) (layer F.CrtYd) (width 0.05))
    (fp_line (start -8.65 6.58) (end -8.65 0) (layer F.CrtYd) (width 0.05))
    (fp_line (start 0 8.65) (end 6.58 8.65) (layer F.CrtYd) (width 0.05))
    (fp_line (start 6.58 8.65) (end 6.58 7.25) (layer F.CrtYd) (width 0.05))
    (fp_line (start 6.58 7.25) (end 7.25 7.25) (layer F.CrtYd) (width 0.05))
    (fp_line (start 7.25 7.25) (end 7.25 6.58) (layer F.CrtYd) (width 0.05))
    (fp_line (start 7.25 6.58) (end 8.65 6.58) (layer F.CrtYd) (width 0.05))
    (fp_line (start 8.65 6.58) (end 8.65 0) (layer F.CrtYd) (width 0.05))
    (fp_text user %R (at 0 0 90) (layer F.Fab)
      (effects (font (size 1 1) (thickness 0.15)))
    )
    (pad 1 smd roundrect (at -7.6625 -6.2 90) (size 1.475 0.25) (layers F.Cu F.Paste F.Mask) (roundrect_rratio 0.25)
      (net 1 1) (zone_connect 0))
    (pad 2 smd roundrect (at -7.6625 -5.8 90) (size 1.475 0.25) (layers F.Cu F.Paste F.Mask) (roundrect_rratio 0.25)
      (net 2 2) (zone_connect 0))
    (pad 3 smd roundrect (at -7.6625 -5.4 90) (size 1.475 0.25) (layers F.Cu F.Paste F.Mask) (roundrect_rratio 0.25)
      (net 3 3) (zone_connect 0))
    (pad 4 smd roundrect (at -7.6625 -5 90) (size 1.475 0.25) (layers F.Cu F.Paste F.Mask) (roundrect_rratio 0.25)
      (net 4 4) (zone_connect 0))
    (pad 5 smd roundrect (at -7.6625 -4.6 90) (size 1.475 0.25) (layers F.Cu F.Paste F.Mask) (roundrect_rratio 0.25)
      (net 5 5) (zone_connect 0))
    (pad 6 smd roundrect (at -7.6625 -4.2 90) (size 1.475 0.25) (layers F.Cu F.Paste F.Mask) (roundrect_rratio 0.25)
      (net 6 6) (zone_connect 0))
    (pad 7 smd roundrect (at -7.6625 -3.8 90) (size 1.475 0.25) (layers F.Cu F.Paste F.Mask) (roundrect_rratio 0.25)
      (net 7 7) (zone_connect 0))
    (pad 8 smd roundrect (at -7.6625 -3.4 90) (size 1.475 0.25) (layers F.Cu F.Paste F.Mask) (roundrect_rratio 0.25)
      (net 8 8) (zone_connect 0))
    (pad 9 smd roundrect (at -7.6625 -3 90) (size 1.475 0.25) (layers F.Cu F.Paste F.Mask) (roundrect_rratio 0.25)
      (net 9 9) (zone_connect 0))
    (pad 10 smd roundrect (at -7.6625 -2.6 90) (size 1.475 0.25) (layers F.Cu F.Paste F.Mask) (roundrect_rratio 0.25)
      (net 10 10) (zone_connect 0))
    (pad 11 smd roundrect (at -7.6625 -2.2 90) (size 1.475 0.25) (layers F.Cu F.Paste F.Mask) (roundrect_rratio 0.25)
      (net 11 11) (zone_connect 0))
    (pad 12 smd roundrect (at -7.6625 -1.8 90) (size 1.475 0.25) (layers F.Cu F.Paste F.Mask) (roundrect_rratio 0.25)
      (net 12 12) (zone_connect 0))
    (pad 13 smd roundrect (at -7.6625 -1.4 90) (size 1.475 0.25) (layers F.Cu F.Paste F.Mask) (roundrect_rratio 0.25)
      (net 13 13) (zone_connect 0))
    (pad 14 smd roundrect (at -7.6625 -1 90) (size 1.475 0.25) (layers F.Cu F.Paste F.Mask) (roundrect_rratio 0.25)
      (net 14 14) (zone_connect 0))
    (pad 15 smd roundrect (at -7.6625 -0.6 90) (size 1.475 0.25) (layers F.Cu F.Paste F.Mask) (roundrect_rratio 0.25)
      (net 15 15) (zone_connect 0))
    (pad 16 smd roundrect (at -7.6625 -0.2 90) (size 1.475 0.25) (layers F.Cu F.Paste F.Mask) (roundrect_rratio 0.25)
      (net 16 16) (zone_connect 0))
    (pad 17 smd roundrect (at -7.6625 0.2 90) (size 1.475 0.25) (layers F.Cu F.Paste F.Mask) (roundrect_rratio 0.25)
      (net 17 17) (zone_connect 0))
    (pad 18 smd roundrect (at -7.6625 0.6 90) (size 1.475 0.25) (layers F.Cu F.Paste F.Mask) (roundrect_rratio 0.25)
      (net 18 18) (zone_connect 0))
    (pad 19 smd roundrect (at -7.6625 1 90) (size 1.475 0.25) (layers F.Cu F.Paste F.Mask) (roundrect_rratio 0.25)
      (net 19 19) (zone_connect 0))
    (pad 20 smd roundrect (at -7.6625 1.4 90) (size 1.475 0.25) (layers F.Cu F.Paste F.Mask) (roundrect_rratio 0.25)
      (net 20 20) (zone_connect 0))
    (pad 21 smd roundrect (at -7.6625 1.8 90) (size 1.475 0.25) (layers F.Cu F.Paste F.Mask) (roundrect_rratio 0.25)
      (net 21 21) (zone_connect 0))
    (pad 22 smd roundrect (at -7.6625 2.2 90) (size 1.475 0.25) (layers F.Cu F.Paste F.Mask) (roundrect_rratio 0.25)
      (net 22 22) (zone_connect 0))
    (pad 23 smd roundrect (at -7.6625 2.6 90) (size 1.475 0.25) (layers F.Cu F.Paste F.Mask) (roundrect_rratio 0.25)
      (net 23 23) (zone_connect 0))
    (pad 24 smd roundrect (at -7.6625 3 90) (size 1.475 0.25) (layers F.Cu F.Paste F.Mask) (roundrect_rratio 0.25)
      (net 24 24) (zone_connect 0))
    (pad 25 smd roundrect (at -7.6625 3.4 90) (size 1.475 0.25) (layers F.Cu F.Paste F.Mask) (roundrect_rratio 0.25)
      (net 25 25) (zone_connect 0))
    (pad 26 smd roundrect (at -7.6625 3.8 90) (size 1.475 0.25) (layers F.Cu F.Paste F.Mask) (roundrect_rratio 0.25)
      (net 26 26) (zone_connect 0))
    (pad 27 smd roundrect (at -7.6625 4.2 90) (size 1.475 0.25) (layers F.Cu F.Paste F.Mask) (roundrect_rratio 0.25)
      (net 27 27) (zone_connect 0))
    (pad 28 smd roundrect (at -7.6625 4.6 90) (size 1.475 0.25) (layers F.Cu F.Paste F.Mask) (roundrect_rratio 0.25)
      (net 28 28) (zone_connect 0))
    (pad 29 smd roundrect (at -7.6625 5 90) (size 1.475 0.25) (layers F.Cu F.Paste F.Mask) (roundrect_rratio 0.25)
      (net 29 29) (zone_connect 0))
    (pad 30 smd roundrect (at -7.6625 5.4 90) (size 1.475 0.25) (layers F.Cu F.Paste F.Mask) (roundrect_rratio 0.25)
      (net 30 30) (zone_connect 0))
    (pad 31 smd roundrect (at -7.6625 5.8 90) (size 1.475 0.25) (layers F.Cu F.Paste F.Mask) (roundrect_rratio 0.25)
      (net 31 31) (zone_connect 0))
    (pad 32 smd roundrect (at -7.6625 6.2 90) (size 1.475 0.25) (layers F.Cu F.Paste F.Mask) (roundrect_rratio 0.25)
      (net 32 32) (zone_connect 0))
    (pad 33 smd roundrect (at -6.2 7.6625 90) (size 0.25 1.475) (layers F.Cu F.Paste F.Mask) (roundrect_rratio 0.25)
      (net 63 33) (zone_connect 0))
    (pad 34 smd roundrect (at -5.8 7.6625 90) (size 0.25 1.475) (layers F.Cu F.Paste F.Mask) (roundrect_rratio 0.25)
      (net 64 34) (zone_connect 0))
    (pad 35 smd roundrect (at -5.4 7.6625 90) (size 0.25 1.475) (layers F.Cu F.Paste F.Mask) (roundrect_rratio 0.25)
      (net 61 35) (zone_connect 0))
    (pad 36 smd roundrect (at -5 7.6625 90) (size 0.25 1.475) (layers F.Cu F.Paste F.Mask) (roundrect_rratio 0.25)
      (net 62 36) (zone_connect 0))
    (pad 37 smd roundrect (at -4.6 7.6625 90) (size 0.25 1.475) (layers F.Cu F.Paste F.Mask) (roundrect_rratio 0.25)
      (net 59 37) (zone_connect 0))
    (pad 38 smd roundrect (at -4.2 7.6625 90) (size 0.25 1.475) (layers F.Cu F.Paste F.Mask) (roundrect_rratio 0.25)
      (net 60 38) (zone_connect 0))
    (pad 39 smd roundrect (at -3.8 7.6625 90) (size 0.25 1.475) (layers F.Cu F.Paste F.Mask) (roundrect_rratio 0.25)
      (net 57 39) (zone_connect 0))
    (pad 40 smd roundrect (at -3.4 7.6625 90) (size 0.25 1.475) (layers F.Cu F.Paste F.Mask) (roundrect_rratio 0.25)
      (net 58 40) (zone_connect 0))
    (pad 41 smd roundrect (at -3 7.6625 90) (size 0.25 1.475) (layers F.Cu F.Paste F.Mask) (roundrect_rratio 0.25)
      (net 55 41) (zone_connect 0))
    (pad 42 smd roundrect (at -2.6 7.6625 90) (size 0.25 1.475) (layers F.Cu F.Paste F.Mask) (roundrect_rratio 0.25)
      (net 56 42) (zone_connect 0))
    (pad 43 smd roundrect (at -2.2 7.6625 90) (size 0.25 1.475) (layers F.Cu F.Paste F.Mask) (roundrect_rratio 0.25)
      (net 53 43) (zone_connect 0))
    (pad 44 smd roundrect (at -1.8 7.6625 90) (size 0.25 1.475) (layers F.Cu F.Paste F.Mask) (roundrect_rratio 0.25)
      (net 54 44) (zone_connect 0))
    (pad 45 smd roundrect (at -1.4 7.6625 90) (size 0.25 1.475) (layers F.Cu F.Paste F.Mask) (roundrect_rratio 0.25)
      (net 51 45) (zone_connect 0))
    (pad 46 smd roundrect (at -1 7.6625 90) (size 0.25 1.475) (layers F.Cu F.Paste F.Mask) (roundrect_rratio 0.25)
      (net 52 46) (zone_connect 0))
    (pad 47 smd roundrect (at -0.6 7.6625 90) (size 0.25 1.475) (layers F.Cu F.Paste F.Mask) (roundrect_rratio 0.25)
      (net 49 47) (zone_connect 0))
    (pad 48 smd roundrect (at -0.2 7.6625 90) (size 0.25 1.475) (layers F.Cu F.Paste F.Mask) (roundrect_rratio 0.25)
      (net 50 48) (zone_connect 0))
    (pad 49 smd roundrect (at 0.2 7.6625 90) (size 0.25 1.475) (layers F.Cu F.Paste F.Mask) (roundrect_rratio 0.25)
      (net 47 49) (zone_connect 0))
    (pad 50 smd roundrect (at 0.6 7.6625 90) (size 0.25 1.475) (layers F.Cu F.Paste F.Mask) (roundrect_rratio 0.25)
      (net 48 50) (zone_connect 0))
    (pad 51 smd roundrect (at 1 7.6625 90) (size 0.25 1.475) (layers F.Cu F.Paste F.Mask) (roundrect_rratio 0.25)
      (net 45 51) (zone_connect 0))
    (pad 52 smd roundrect (at 1.4 7.6625 90) (size 0.25 1.475) (layers F.Cu F.Paste F.Mask) (roundrect_rratio 0.25)
      (net 46 52) (zone_connect 0))
    (pad 53 smd roundrect (at 1.8 7.6625 90) (size 0.25 1.475) (layers F.Cu F.Paste F.Mask) (roundrect_rratio 0.25)
      (net 43 53) (zone_connect 0))
    (pad 54 smd roundrect (at 2.2 7.6625 90) (size 0.25 1.475) (layers F.Cu F.Paste F.Mask) (roundrect_rratio 0.25)
      (net 44 54) (zone_connect 0))
    (pad 55 smd roundrect (at 2.6 7.6625 90) (size 0.25 1.475) (layers F.Cu F.Paste F.Mask) (roundrect_rratio 0.25)
      (net 41 55) (zone_connect 0))
    (pad 56 smd roundrect (at 3 7.6625 90) (size 0.25 1.475) (layers F.Cu F.Paste F.Mask) (roundrect_rratio 0.25)
      (net 42 56) (zone_connect 0))
    (pad 57 smd roundrect (at 3.4 7.6625 90) (size 0.25 1.475) (layers F.Cu F.Paste F.Mask) (roundrect_rratio 0.25)
      (net 39 57) (zone_connect 0))
    (pad 58 smd roundrect (at 3.8 7.6625 90) (size 0.25 1.475) (layers F.Cu F.Paste F.Mask) (roundrect_rratio 0.25)
      (net 40 58) (zone_connect 0))
    (pad 59 smd roundrect (at 4.2 7.6625 90) (size 0.25 1.475) (layers F.Cu F.Paste F.Mask) (roundrect_rratio 0.25)
      (net 37 59) (zone_connect 0))
    (pad 60 smd roundrect (at 4.6 7.6625 90) (size 0.25 1.475) (layers F.Cu F.Paste F.Mask) (roundrect_rratio 0.25)
      (net 38 60) (zone_connect 0))
    (pad 61 smd roundrect (at 5 7.6625 90) (size 0.25 1.475) (layers F.Cu F.Paste F.Mask) (roundrect_rratio 0.25)
      (net 35 61) (zone_connect 0))
    (pad 62 smd roundrect (at 5.4 7.6625 90) (size 0.25 1.475) (layers F.Cu F.Paste F.Mask) (roundrect_rratio 0.25)
      (net 36 62) (zone_connect 0))
    (pad 63 smd roundrect (at 5.8 7.6625 90) (size 0.25 1.475) (layers F.Cu F.Paste F.Mask) (roundrect_rratio 0.25)
      (net 33 63) (zone_connect 0))
    (pad 64 smd roundrect (at 6.2 7.6625 90) (size 0.25 1.475) (layers F.Cu F.Paste F.Mask) (roundrect_rratio 0.25)
      (net 34 64) (zone_connect 0))
    (pad 65 smd roundrect (at 7.6625 6.2 90) (size 1.475 0.25) (layers F.Cu F.Paste F.Mask) (roundrect_rratio 0.25)
      (net 95 65) (zone_connect 0))
    (pad 66 smd roundrect (at 7.6625 5.8 90) (size 1.475 0.25) (layers F.Cu F.Paste F.Mask) (roundrect_rratio 0.25)
      (net 80 66) (zone_connect 0))
    (pad 67 smd roundrect (at 7.6625 5.4 90) (size 1.475 0.25) (layers F.Cu F.Paste F.Mask) (roundrect_rratio 0.25)
      (net 94 67) (zone_connect 0))
    (pad 68 smd roundrect (at 7.6625 5 90) (size 1.475 0.25) (layers F.Cu F.Paste F.Mask) (roundrect_rratio 0.25)
      (net 79 68) (zone_connect 0))
    (pad 69 smd roundrect (at 7.6625 4.6 90) (size 1.475 0.25) (layers F.Cu F.Paste F.Mask) (roundrect_rratio 0.25)
      (net 93 69) (zone_connect 0))
    (pad 70 smd roundrect (at 7.6625 4.2 90) (size 1.475 0.25) (layers F.Cu F.Paste F.Mask) (roundrect_rratio 0.25)
      (net 78 70) (zone_connect 0))
    (pad 71 smd roundrect (at 7.6625 3.8 90) (size 1.475 0.25) (layers F.Cu F.Paste F.Mask) (roundrect_rratio 0.25)
      (net 92 71) (zone_connect 0))
    (pad 72 smd roundrect (at 7.6625 3.4 90) (size 1.475 0.25) (layers F.Cu F.Paste F.Mask) (roundrect_rratio 0.25)
      (net 77 72) (zone_connect 0))
    (pad 73 smd roundrect (at 7.6625 3 90) (size 1.475 0.25) (layers F.Cu F.Paste F.Mask) (roundrect_rratio 0.25)
      (net 91 73) (zone_connect 0))
    (pad 74 smd roundrect (at 7.6625 2.6 90) (size 1.475 0.25) (layers F.Cu F.Paste F.Mask) (roundrect_rratio 0.25)
      (net 76 74) (zone_connect 0))
    (pad 75 smd roundrect (at 7.6625 2.2 90) (size 1.475 0.25) (layers F.Cu F.Paste F.Mask) (roundrect_rratio 0.25)
      (net 90 75) (zone_connect 0))
    (pad 76 smd roundrect (at 7.6625 1.8 90) (size 1.475 0.25) (layers F.Cu F.Paste F.Mask) (roundrect_rratio 0.25)
      (net 75 76) (zone_connect 0))
    (pad 77 smd roundrect (at 7.6625 1.4 90) (size 1.475 0.25) (layers F.Cu F.Paste F.Mask) (roundrect_rratio 0.25)
      (net 89 77) (zone_connect 0))
    (pad 78 smd roundrect (at 7.6625 1 90) (size 1.475 0.25) (layers F.Cu F.Paste F.Mask) (roundrect_rratio 0.25)
      (net 74 78) (zone_connect 0))
    (pad 79 smd roundrect (at 7.6625 0.6 90) (size 1.475 0.25) (layers F.Cu F.Paste F.Mask) (roundrect_rratio 0.25)
      (net 128 79) (zone_connect 0))
    (pad 80 smd roundrect (at 7.6625 0.2 90) (size 1.475 0.25) (layers F.Cu F.Paste F.Mask) (roundrect_rratio 0.25)
      (net 73 80) (zone_connect 0))
    (pad 81 smd roundrect (at 7.6625 -0.2 90) (size 1.475 0.25) (layers F.Cu F.Paste F.Mask) (roundrect_rratio 0.25)
      (net 88 81) (zone_connect 0))
    (pad 82 smd roundrect (at 7.6625 -0.6 90) (size 1.475 0.25) (layers F.Cu F.Paste F.Mask) (roundrect_rratio 0.25)
      (net 72 82) (zone_connect 0))
    (pad 83 smd roundrect (at 7.6625 -1 90) (size 1.475 0.25) (layers F.Cu F.Paste F.Mask) (roundrect_rratio 0.25)
      (net 87 83) (zone_connect 0))
    (pad 84 smd roundrect (at 7.6625 -1.4 90) (size 1.475 0.25) (layers F.Cu F.Paste F.Mask) (roundrect_rratio 0.25)
      (net 71 84) (zone_connect 0))
    (pad 85 smd roundrect (at 7.6625 -1.8 90) (size 1.475 0.25) (layers F.Cu F.Paste F.Mask) (roundrect_rratio 0.25)
      (net 86 85) (zone_connect 0))
    (pad 86 smd roundrect (at 7.6625 -2.2 90) (size 1.475 0.25) (layers F.Cu F.Paste F.Mask) (roundrect_rratio 0.25)
      (net 70 86) (zone_connect 0))
    (pad 87 smd roundrect (at 7.6625 -2.6 90) (size 1.475 0.25) (layers F.Cu F.Paste F.Mask) (roundrect_rratio 0.25)
      (net 85 87) (zone_connect 0))
    (pad 88 smd roundrect (at 7.6625 -3 90) (size 1.475 0.25) (layers F.Cu F.Paste F.Mask) (roundrect_rratio 0.25)
      (net 69 88) (zone_connect 0))
    (pad 89 smd roundrect (at 7.6625 -3.4 90) (size 1.475 0.25) (layers F.Cu F.Paste F.Mask) (roundrect_rratio 0.25)
      (net 84 89) (zone_connect 0))
    (pad 90 smd roundrect (at 7.6625 -3.8 90) (size 1.475 0.25) (layers F.Cu F.Paste F.Mask) (roundrect_rratio 0.25)
      (net 68 90) (zone_connect 0))
    (pad 91 smd roundrect (at 7.6625 -4.2 90) (size 1.475 0.25) (layers F.Cu F.Paste F.Mask) (roundrect_rratio 0.25)
      (net 83 91) (zone_connect 0))
    (pad 92 smd roundrect (at 7.6625 -4.6 90) (size 1.475 0.25) (layers F.Cu F.Paste F.Mask) (roundrect_rratio 0.25)
      (net 67 92) (zone_connect 0))
    (pad 93 smd roundrect (at 7.6625 -5 90) (size 1.475 0.25) (layers F.Cu F.Paste F.Mask) (roundrect_rratio 0.25)
      (net 82 93) (zone_connect 0))
    (pad 94 smd roundrect (at 7.6625 -5.4 90) (size 1.475 0.25) (layers F.Cu F.Paste F.Mask) (roundrect_rratio 0.25)
      (net 66 94) (zone_connect 0))
    (pad 95 smd roundrect (at 7.6625 -5.8 90) (size 1.475 0.25) (layers F.Cu F.Paste F.Mask) (roundrect_rratio 0.25)
      (net 81 95) (zone_connect 0))
    (pad 96 smd roundrect (at 7.6625 -6.2 90) (size 1.475 0.25) (layers F.Cu F.Paste F.Mask) (roundrect_rratio 0.25)
      (net 65 96) (zone_connect 0))
    (pad 97 smd roundrect (at 6.2 -7.6625 90) (size 0.25 1.475) (layers F.Cu F.Paste F.Mask) (roundrect_rratio 0.25)
      (net 97 97) (zone_connect 0))
    (pad 98 smd roundrect (at 5.8 -7.6625 90) (size 0.25 1.475) (layers F.Cu F.Paste F.Mask) (roundrect_rratio 0.25)
      (net 96 98) (zone_connect 0))
    (pad 99 smd roundrect (at 5.4 -7.6625 90) (size 0.25 1.475) (layers F.Cu F.Paste F.Mask) (roundrect_rratio 0.25)
      (net 99 99) (zone_connect 0))
    (pad 100 smd roundrect (at 5 -7.6625 90) (size 0.25 1.475) (layers F.Cu F.Paste F.Mask) (roundrect_rratio 0.25)
      (net 98 100) (zone_connect 0))
    (pad 101 smd roundrect (at 4.6 -7.6625 90) (size 0.25 1.475) (layers F.Cu F.Paste F.Mask) (roundrect_rratio 0.25)
      (net 101 101) (zone_connect 0))
    (pad 102 smd roundrect (at 4.2 -7.6625 90) (size 0.25 1.475) (layers F.Cu F.Paste F.Mask) (roundrect_rratio 0.25)
      (net 100 102) (zone_connect 0))
    (pad 103 smd roundrect (at 3.8 -7.6625 90) (size 0.25 1.475) (layers F.Cu F.Paste F.Mask) (roundrect_rratio 0.25)
      (net 103 103) (zone_connect 0))
    (pad 104 smd roundrect (at 3.4 -7.6625 90) (size 0.25 1.475) (layers F.Cu F.Paste F.Mask) (roundrect_rratio 0.25)
      (net 102 104) (zone_connect 0))
    (pad 105 smd roundrect (at 3 -7.6625 90) (size 0.25 1.475) (layers F.Cu F.Paste F.Mask) (roundrect_rratio 0.25)
      (net 105 105) (zone_connect 0))
    (pad 106 smd roundrect (at 2.6 -7.6625 90) (size 0.25 1.475) (layers F.Cu F.Paste F.Mask) (roundrect_rratio 0.25)
      (net 104 106) (zone_connect 0))
    (pad 107 smd roundrect (at 2.2 -7.6625 90) (size 0.25 1.475) (layers F.Cu F.Paste F.Mask) (roundrect_rratio 0.25)
      (net 107 107) (zone_connect 0))
    (pad 108 smd roundrect (at 1.8 -7.6625 90) (size 0.25 1.475) (layers F.Cu F.Paste F.Mask) (roundrect_rratio 0.25)
      (net 106 108) (zone_connect 0))
    (pad 109 smd roundrect (at 1.4 -7.6625 90) (size 0.25 1.475) (layers F.Cu F.Paste F.Mask) (roundrect_rratio 0.25)
      (net 109 109) (zone_connect 0))
    (pad 110 smd roundrect (at 1 -7.6625 90) (size 0.25 1.475) (layers F.Cu F.Paste F.Mask) (roundrect_rratio 0.25)
      (net 108 110) (zone_connect 0))
    (pad 111 smd roundrect (at 0.6 -7.6625 90) (size 0.25 1.475) (layers F.Cu F.Paste F.Mask) (roundrect_rratio 0.25)
      (net 111 111) (zone_connect 0))
    (pad 112 smd roundrect (at 0.2 -7.6625 90) (size 0.25 1.475) (layers F.Cu F.Paste F.Mask) (roundrect_rratio 0.25)
      (net 110 112) (zone_connect 0))
    (pad 113 smd roundrect (at -0.2 -7.6625 90) (size 0.25 1.475) (layers F.Cu F.Paste F.Mask) (roundrect_rratio 0.25)
      (net 113 113) (zone_connect 0))
    (pad 114 smd roundrect (at -0.6 -7.6625 90) (size 0.25 1.475) (layers F.Cu F.Paste F.Mask) (roundrect_rratio 0.25)
      (net 112 114) (zone_connect 0))
    (pad 115 smd roundrect (at -1 -7.6625 90) (size 0.25 1.475) (layers F.Cu F.Paste F.Mask) (roundrect_rratio 0.25)
      (net 115 115) (zone_connect 0))
    (pad 116 smd roundrect (at -1.4 -7.6625 90) (size 0.25 1.475) (layers F.Cu F.Paste F.Mask) (roundrect_rratio 0.25)
      (net 114 116) (zone_connect 0))
    (pad 117 smd roundrect (at -1.8 -7.6625 90) (size 0.25 1.475) (layers F.Cu F.Paste F.Mask) (roundrect_rratio 0.25)
      (net 117 117) (zone_connect 0))
    (pad 118 smd roundrect (at -2.2 -7.6625 90) (size 0.25 1.475) (layers F.Cu F.Paste F.Mask) (roundrect_rratio 0.25)
      (net 116 118) (zone_connect 0))
    (pad 119 smd roundrect (at -2.6 -7.6625 90) (size 0.25 1.475) (layers F.Cu F.Paste F.Mask) (roundrect_rratio 0.25)
      (net 119 119) (zone_connect 0))
    (pad 120 smd roundrect (at -3 -7.6625 90) (size 0.25 1.475) (layers F.Cu F.Paste F.Mask) (roundrect_rratio 0.25)
      (net 118 120) (zone_connect 0))
    (pad 121 smd roundrect (at -3.4 -7.6625 90) (size 0.25 1.475) (layers F.Cu F.Paste F.Mask) (roundrect_rratio 0.25)
      (net 121 121) (zone_connect 0))
    (pad 122 smd roundrect (at -3.8 -7.6625 90) (size 0.25 1.475) (layers F.Cu F.Paste F.Mask) (roundrect_rratio 0.25)
      (net 120 122) (zone_connect 0))
    (pad 123 smd roundrect (at -4.2 -7.6625 90) (size 0.25 1.475) (layers F.Cu F.Paste F.Mask) (roundrect_rratio 0.25)
      (net 123 123) (zone_connect 0))
    (pad 124 smd roundrect (at -4.6 -7.6625 90) (size 0.25 1.475) (layers F.Cu F.Paste F.Mask) (roundrect_rratio 0.25)
      (net 122 124) (zone_connect 0))
    (pad 125 smd roundrect (at -5 -7.6625 90) (size 0.25 1.475) (layers F.Cu F.Paste F.Mask) (roundrect_rratio 0.25)
      (net 125 125) (zone_connect 0))
    (pad 126 smd roundrect (at -5.4 -7.6625 90) (size 0.25 1.475) (layers F.Cu F.Paste F.Mask) (roundrect_rratio 0.25)
      (net 124 126) (zone_connect 0))
    (pad 127 smd roundrect (at -5.8 -7.6625 90) (size 0.25 1.475) (layers F.Cu F.Paste F.Mask) (roundrect_rratio 0.25)
      (net 127 127) (zone_connect 0))
    (pad 128 smd roundrect (at -6.2 -7.6625 90) (size 0.25 1.475) (layers F.Cu F.Paste F.Mask) (roundrect_rratio 0.25)
      (net 126 128) (zone_connect 0))
    (model ${KISYS3DMOD}/Package_QFP.3dshapes/LQFP-128_14x14mm_P0.4mm.wrl
      (at (xyz 0 0 0))
      (scale (xyz 1 1 1))
      (rotate (xyz 0 0 0))
    )
  )

  (gr_line (start 99.06 153.162) (end 142.24 153.162) (layer Edge.Cuts) (width 0.05) (tstamp 5CD7688A))
  (gr_line (start 95.25 149.352) (end 99.06 153.162) (layer Edge.Cuts) (width 0.05))
  (gr_line (start 95.25 149.352) (end 95.25 106.172) (layer Edge.Cuts) (width 0.05) (tstamp 5CD75E99))
  (gr_line (start 146.05 106.172) (end 146.05 149.352) (layer Edge.Cuts) (width 0.05) (tstamp 5CD75E98))
  (gr_line (start 99.06 102.362) (end 142.24 102.362) (layer Edge.Cuts) (width 0.05) (tstamp 5CD75E97))
  (gr_text "QFP 128 14x14 0.4" (at 133.35 114.427 45) (layer F.SilkS) (tstamp 5CD62F1A)
    (effects (font (size 1 1) (thickness 0.25)))
  )
  (gr_text "-  Breakout Board" (at 107.95 141.097 45) (layer F.SilkS)
    (effects (font (size 1 1) (thickness 0.25)))
  )
  (gr_arc (start 99.06 106.172) (end 99.06 102.362) (angle -90) (layer Edge.Cuts) (width 0.05))
  (gr_arc (start 142.24 106.172) (end 146.05 106.172) (angle -90) (layer Edge.Cuts) (width 0.05))
  (gr_arc (start 142.24 149.352) (end 142.24 153.162) (angle -90) (layer Edge.Cuts) (width 0.05))

  (segment (start 103.505 145.542) (end 102.87 146.177) (width 1.5) (layer F.Cu) (net 0))
  (segment (start 114.45 136.502) (end 101.6 149.352) (width 0.2) (layer F.Cu) (net 1))
  (segment (start 114.45 135.4245) (end 114.45 136.502) (width 0.2) (layer F.Cu) (net 1))
  (segment (start 114.85 136.737) (end 114.85 135.4245) (width 0.2) (layer F.Cu) (net 2))
  (segment (start 102.87 148.717) (end 114.85 136.737) (width 0.2) (layer F.Cu) (net 2))
  (segment (start 101.6 151.892) (end 102.87 150.622) (width 0.2) (layer F.Cu) (net 2))
  (segment (start 102.87 150.622) (end 102.87 148.717) (width 0.2) (layer F.Cu) (net 2))
  (segment (start 115.25 136.972) (end 115.25 135.4245) (width 0.2) (layer F.Cu) (net 3))
  (segment (start 104.14 148.082) (end 115.25 136.972) (width 0.2) (layer F.Cu) (net 3))
  (segment (start 104.14 148.082) (end 104.14 149.352) (width 0.2) (layer F.Cu) (net 3))
  (segment (start 115.65 137.207) (end 115.65 135.4245) (width 0.2) (layer F.Cu) (net 4))
  (segment (start 105.41 147.447) (end 115.65 137.207) (width 0.2) (layer F.Cu) (net 4))
  (segment (start 104.14 151.892) (end 105.41 150.622) (width 0.2) (layer F.Cu) (net 4))
  (segment (start 105.41 147.447) (end 105.41 150.622) (width 0.2) (layer F.Cu) (net 4))
  (segment (start 116.05 137.442) (end 116.05 135.4245) (width 0.2) (layer F.Cu) (net 5))
  (segment (start 106.68 146.812) (end 116.05 137.442) (width 0.2) (layer F.Cu) (net 5))
  (segment (start 106.68 149.352) (end 106.68 146.812) (width 0.2) (layer F.Cu) (net 5))
  (segment (start 116.45 137.677) (end 116.45 135.4245) (width 0.2) (layer F.Cu) (net 6))
  (segment (start 107.95 146.177) (end 116.45 137.677) (width 0.2) (layer F.Cu) (net 6))
  (segment (start 106.68 151.892) (end 107.95 150.622) (width 0.2) (layer F.Cu) (net 6))
  (segment (start 107.95 146.177) (end 107.95 150.622) (width 0.2) (layer F.Cu) (net 6))
  (segment (start 116.85 137.912) (end 116.85 135.4245) (width 0.2) (layer F.Cu) (net 7))
  (segment (start 109.22 145.542) (end 116.85 137.912) (width 0.2) (layer F.Cu) (net 7))
  (segment (start 109.22 149.352) (end 109.22 145.542) (width 0.2) (layer F.Cu) (net 7))
  (segment (start 117.25 138.147) (end 117.25 135.4245) (width 0.2) (layer F.Cu) (net 8))
  (segment (start 110.49 144.907) (end 117.25 138.147) (width 0.2) (layer F.Cu) (net 8))
  (segment (start 109.22 151.892) (end 110.49 150.622) (width 0.2) (layer F.Cu) (net 8))
  (segment (start 110.49 150.622) (end 110.49 144.907) (width 0.2) (layer F.Cu) (net 8))
  (segment (start 117.65 138.382) (end 117.65 135.4245) (width 0.2) (layer F.Cu) (net 9))
  (segment (start 111.76 144.272) (end 117.65 138.382) (width 0.2) (layer F.Cu) (net 9))
  (segment (start 111.76 149.352) (end 111.76 144.272) (width 0.2) (layer F.Cu) (net 9))
  (segment (start 118.05 138.617) (end 118.05 135.4245) (width 0.2) (layer F.Cu) (net 10))
  (segment (start 113.03 143.637) (end 118.05 138.617) (width 0.2) (layer F.Cu) (net 10))
  (segment (start 111.76 151.892) (end 113.03 150.622) (width 0.2) (layer F.Cu) (net 10))
  (segment (start 113.03 143.637) (end 113.03 150.622) (width 0.2) (layer F.Cu) (net 10))
  (segment (start 118.45 138.852) (end 118.45 135.4245) (width 0.2) (layer F.Cu) (net 11))
  (segment (start 114.3 143.002) (end 118.45 138.852) (width 0.2) (layer F.Cu) (net 11))
  (segment (start 114.3 149.352) (end 114.3 143.002) (width 0.2) (layer F.Cu) (net 11))
  (segment (start 118.85 139.087) (end 118.85 135.4245) (width 0.2) (layer F.Cu) (net 12))
  (segment (start 115.57 142.367) (end 118.85 139.087) (width 0.2) (layer F.Cu) (net 12))
  (segment (start 114.3 151.892) (end 115.57 150.622) (width 0.2) (layer F.Cu) (net 12))
  (segment (start 115.57 150.622) (end 115.57 142.367) (width 0.2) (layer F.Cu) (net 12))
  (segment (start 119.25 139.322) (end 119.25 135.4245) (width 0.2) (layer F.Cu) (net 13))
  (segment (start 116.84 141.732) (end 119.25 139.322) (width 0.2) (layer F.Cu) (net 13))
  (segment (start 116.84 141.732) (end 116.84 149.352) (width 0.2) (layer F.Cu) (net 13))
  (segment (start 116.84 151.892) (end 118.11 150.622) (width 0.2) (layer F.Cu) (net 14))
  (segment (start 119.65 139.557) (end 119.65 135.4245) (width 0.2) (layer F.Cu) (net 14))
  (segment (start 118.11 141.097) (end 119.65 139.557) (width 0.2) (layer F.Cu) (net 14))
  (segment (start 118.11 141.097) (end 118.11 150.622) (width 0.2) (layer F.Cu) (net 14))
  (segment (start 120.05 139.792) (end 120.05 135.4245) (width 0.2) (layer F.Cu) (net 15))
  (segment (start 119.38 140.462) (end 120.05 139.792) (width 0.2) (layer F.Cu) (net 15))
  (segment (start 119.38 149.352) (end 119.38 140.462) (width 0.2) (layer F.Cu) (net 15))
  (segment (start 119.38 151.892) (end 120.65 150.622) (width 0.2) (layer F.Cu) (net 16))
  (segment (start 120.45 140.262) (end 120.45 135.4245) (width 0.2) (layer F.Cu) (net 16))
  (segment (start 120.65 140.462) (end 120.45 140.262) (width 0.2) (layer F.Cu) (net 16))
  (segment (start 120.65 140.462) (end 120.65 150.622) (width 0.2) (layer F.Cu) (net 16))
  (segment (start 120.85 140.027) (end 120.85 135.4245) (width 0.2) (layer F.Cu) (net 17))
  (segment (start 121.92 141.097) (end 120.85 140.027) (width 0.2) (layer F.Cu) (net 17))
  (segment (start 121.92 141.097) (end 121.92 149.352) (width 0.2) (layer F.Cu) (net 17))
  (segment (start 121.92 151.892) (end 123.19 150.622) (width 0.2) (layer F.Cu) (net 18))
  (segment (start 121.25 139.792) (end 121.25 135.4245) (width 0.2) (layer F.Cu) (net 18))
  (segment (start 123.19 141.732) (end 121.25 139.792) (width 0.2) (layer F.Cu) (net 18))
  (segment (start 123.19 141.732) (end 123.19 150.622) (width 0.2) (layer F.Cu) (net 18))
  (segment (start 121.65 139.557) (end 121.65 135.4245) (width 0.2) (layer F.Cu) (net 19))
  (segment (start 124.46 142.367) (end 121.65 139.557) (width 0.2) (layer F.Cu) (net 19))
  (segment (start 124.46 142.367) (end 124.46 149.352) (width 0.2) (layer F.Cu) (net 19))
  (segment (start 124.46 151.892) (end 125.73 150.622) (width 0.2) (layer F.Cu) (net 20))
  (segment (start 122.05 139.322) (end 122.05 135.4245) (width 0.2) (layer F.Cu) (net 20))
  (segment (start 125.73 143.002) (end 122.05 139.322) (width 0.2) (layer F.Cu) (net 20))
  (segment (start 125.73 143.002) (end 125.73 150.622) (width 0.2) (layer F.Cu) (net 20))
  (segment (start 122.45 139.087) (end 122.45 135.4245) (width 0.2) (layer F.Cu) (net 21))
  (segment (start 127 143.637) (end 122.45 139.087) (width 0.2) (layer F.Cu) (net 21))
  (segment (start 127 143.637) (end 127 149.352) (width 0.2) (layer F.Cu) (net 21))
  (segment (start 127 151.892) (end 128.27 150.622) (width 0.2) (layer F.Cu) (net 22))
  (segment (start 122.85 138.852) (end 122.85 135.4245) (width 0.2) (layer F.Cu) (net 22))
  (segment (start 128.27 144.272) (end 122.85 138.852) (width 0.2) (layer F.Cu) (net 22))
  (segment (start 128.27 144.272) (end 128.27 150.622) (width 0.2) (layer F.Cu) (net 22))
  (segment (start 123.25 138.617) (end 123.25 135.4245) (width 0.2) (layer F.Cu) (net 23))
  (segment (start 129.54 144.907) (end 123.25 138.617) (width 0.2) (layer F.Cu) (net 23))
  (segment (start 129.54 144.907) (end 129.54 149.352) (width 0.2) (layer F.Cu) (net 23))
  (segment (start 129.54 151.892) (end 130.81 150.622) (width 0.2) (layer F.Cu) (net 24))
  (segment (start 123.65 138.382) (end 123.65 135.4245) (width 0.2) (layer F.Cu) (net 24))
  (segment (start 130.81 145.542) (end 123.65 138.382) (width 0.2) (layer F.Cu) (net 24))
  (segment (start 130.81 145.542) (end 130.81 150.622) (width 0.2) (layer F.Cu) (net 24))
  (segment (start 124.05 138.147) (end 124.05 135.4245) (width 0.2) (layer F.Cu) (net 25))
  (segment (start 132.08 146.177) (end 124.05 138.147) (width 0.2) (layer F.Cu) (net 25))
  (segment (start 132.08 146.177) (end 132.08 149.352) (width 0.2) (layer F.Cu) (net 25))
  (segment (start 132.08 151.892) (end 133.35 150.622) (width 0.2) (layer F.Cu) (net 26))
  (segment (start 124.45 136.262) (end 124.45 135.4245) (width 0.2) (layer F.Cu) (net 26))
  (segment (start 124.45 137.912) (end 124.45 136.262) (width 0.2) (layer F.Cu) (net 26))
  (segment (start 133.35 146.812) (end 124.45 137.912) (width 0.2) (layer F.Cu) (net 26))
  (segment (start 133.35 146.812) (end 133.35 150.622) (width 0.2) (layer F.Cu) (net 26))
  (segment (start 124.85 137.677) (end 124.85 135.4245) (width 0.2) (layer F.Cu) (net 27))
  (segment (start 134.62 147.447) (end 124.85 137.677) (width 0.2) (layer F.Cu) (net 27))
  (segment (start 134.62 147.447) (end 134.62 149.352) (width 0.2) (layer F.Cu) (net 27))
  (segment (start 134.62 151.892) (end 135.89 150.622) (width 0.2) (layer F.Cu) (net 28))
  (segment (start 125.25 137.442) (end 125.25 135.4245) (width 0.2) (layer F.Cu) (net 28))
  (segment (start 135.89 148.082) (end 125.25 137.442) (width 0.2) (layer F.Cu) (net 28))
  (segment (start 135.89 148.082) (end 135.89 150.622) (width 0.2) (layer F.Cu) (net 28))
  (segment (start 125.65 137.218954) (end 125.65 135.4245) (width 0.2) (layer F.Cu) (net 29))
  (segment (start 137.16 148.717) (end 137.148046 148.717) (width 0.2) (layer F.Cu) (net 29))
  (segment (start 137.148046 148.717) (end 125.65 137.218954) (width 0.2) (layer F.Cu) (net 29))
  (segment (start 126.05 136.972) (end 126.05 135.4245) (width 0.2) (layer F.Cu) (net 30))
  (segment (start 137.16 148.082) (end 126.05 136.972) (width 0.2) (layer F.Cu) (net 30))
  (segment (start 137.795 148.082) (end 137.16 148.082) (width 0.2) (layer F.Cu) (net 30))
  (segment (start 138.43 148.717) (end 137.795 148.082) (width 0.2) (layer F.Cu) (net 30))
  (segment (start 137.16 151.892) (end 138.43 150.622) (width 0.2) (layer F.Cu) (net 30))
  (segment (start 138.43 150.622) (end 138.43 148.717) (width 0.2) (layer F.Cu) (net 30))
  (segment (start 139.7 149.352) (end 139.065 149.352) (width 0.2) (layer F.Cu) (net 31))
  (segment (start 126.45 136.737) (end 126.45 135.4245) (width 0.2) (layer F.Cu) (net 31))
  (segment (start 137.16 147.447) (end 126.45 136.737) (width 0.2) (layer F.Cu) (net 31))
  (segment (start 138.43 147.447) (end 137.16 147.447) (width 0.2) (layer F.Cu) (net 31))
  (segment (start 139.7 149.352) (end 139.7 148.717) (width 0.2) (layer F.Cu) (net 31))
  (segment (start 139.7 148.717) (end 138.43 147.447) (width 0.2) (layer F.Cu) (net 31))
  (segment (start 140.335 151.892) (end 139.7 151.892) (width 0.2) (layer F.Cu) (net 32))
  (segment (start 126.85 136.502) (end 137.16 146.812) (width 0.2) (layer F.Cu) (net 32))
  (segment (start 126.85 135.4245) (end 126.85 136.502) (width 0.2) (layer F.Cu) (net 32))
  (segment (start 137.16 146.812) (end 139.065 146.812) (width 0.2) (layer F.Cu) (net 32))
  (segment (start 139.065 146.812) (end 140.97 148.717) (width 0.2) (layer F.Cu) (net 32))
  (segment (start 140.97 148.717) (end 140.97 151.257) (width 0.2) (layer F.Cu) (net 32))
  (segment (start 140.97 151.257) (end 140.335 151.892) (width 0.2) (layer F.Cu) (net 32))
  (segment (start 141.605 108.712) (end 142.24 108.712) (width 0.2) (layer F.Cu) (net 33))
  (segment (start 140.335 109.982) (end 141.605 108.712) (width 0.2) (layer F.Cu) (net 33))
  (segment (start 140.335 111.252) (end 140.335 109.982) (width 0.2) (layer F.Cu) (net 33))
  (segment (start 128.3125 121.962) (end 129.625 121.962) (width 0.2) (layer F.Cu) (net 33))
  (segment (start 129.625 121.962) (end 140.335 111.252) (width 0.2) (layer F.Cu) (net 33))
  (segment (start 144.78 108.077) (end 144.78 108.712) (width 0.2) (layer F.Cu) (net 34))
  (segment (start 129.39 121.562) (end 139.7 111.252) (width 0.2) (layer F.Cu) (net 34))
  (segment (start 128.3125 121.562) (end 129.39 121.562) (width 0.2) (layer F.Cu) (net 34))
  (segment (start 139.7 111.252) (end 139.7 109.347) (width 0.2) (layer F.Cu) (net 34))
  (segment (start 139.7 109.347) (end 141.605 107.442) (width 0.2) (layer F.Cu) (net 34))
  (segment (start 141.605 107.442) (end 144.145 107.442) (width 0.2) (layer F.Cu) (net 34))
  (segment (start 144.145 107.442) (end 144.78 108.077) (width 0.2) (layer F.Cu) (net 34))
  (segment (start 129.15 122.762) (end 128.3125 122.762) (width 0.2) (layer F.Cu) (net 35))
  (segment (start 130.095 122.762) (end 129.15 122.762) (width 0.2) (layer F.Cu) (net 35))
  (segment (start 141.605 111.252) (end 130.095 122.762) (width 0.2) (layer F.Cu) (net 35))
  (segment (start 129.86 122.362) (end 128.3125 122.362) (width 0.2) (layer F.Cu) (net 36))
  (segment (start 140.97 111.252) (end 129.86 122.362) (width 0.2) (layer F.Cu) (net 36))
  (segment (start 140.97 110.617) (end 140.97 111.252) (width 0.2) (layer F.Cu) (net 36))
  (segment (start 141.605 109.982) (end 140.97 110.617) (width 0.2) (layer F.Cu) (net 36))
  (segment (start 144.78 111.252) (end 143.51 109.982) (width 0.2) (layer F.Cu) (net 36))
  (segment (start 143.51 109.982) (end 141.605 109.982) (width 0.2) (layer F.Cu) (net 36))
  (segment (start 128.3125 123.562) (end 130.565 123.562) (width 0.2) (layer F.Cu) (net 37))
  (segment (start 130.565 123.562) (end 140.335 113.792) (width 0.2) (layer F.Cu) (net 37))
  (segment (start 140.335 113.792) (end 142.24 113.792) (width 0.2) (layer F.Cu) (net 37))
  (segment (start 143.51 112.522) (end 144.78 113.792) (width 0.2) (layer F.Cu) (net 38))
  (segment (start 128.3125 123.162) (end 130.33 123.162) (width 0.2) (layer F.Cu) (net 38))
  (segment (start 130.33 123.162) (end 140.97 112.522) (width 0.2) (layer F.Cu) (net 38))
  (segment (start 140.97 112.522) (end 143.51 112.522) (width 0.2) (layer F.Cu) (net 38))
  (segment (start 128.3125 124.362) (end 131.035 124.362) (width 0.2) (layer F.Cu) (net 39))
  (segment (start 131.035 124.362) (end 139.065 116.332) (width 0.2) (layer F.Cu) (net 39))
  (segment (start 139.065 116.332) (end 142.24 116.332) (width 0.2) (layer F.Cu) (net 39))
  (segment (start 143.51 115.062) (end 144.78 116.332) (width 0.2) (layer F.Cu) (net 40))
  (segment (start 128.3125 123.962) (end 130.8 123.962) (width 0.2) (layer F.Cu) (net 40))
  (segment (start 130.8 123.962) (end 139.7 115.062) (width 0.2) (layer F.Cu) (net 40))
  (segment (start 139.7 115.062) (end 143.51 115.062) (width 0.2) (layer F.Cu) (net 40))
  (segment (start 128.3125 125.162) (end 131.505 125.162) (width 0.2) (layer F.Cu) (net 41))
  (segment (start 131.505 125.162) (end 137.795 118.872) (width 0.2) (layer F.Cu) (net 41))
  (segment (start 137.795 118.872) (end 142.24 118.872) (width 0.2) (layer F.Cu) (net 41))
  (segment (start 131.27 124.762) (end 138.43 117.602) (width 0.2) (layer F.Cu) (net 42))
  (segment (start 128.3125 124.762) (end 131.27 124.762) (width 0.2) (layer F.Cu) (net 42))
  (segment (start 143.51 117.602) (end 144.78 118.872) (width 0.2) (layer F.Cu) (net 42))
  (segment (start 138.43 117.602) (end 143.51 117.602) (width 0.2) (layer F.Cu) (net 42))
  (segment (start 136.525 121.412) (end 142.24 121.412) (width 0.2) (layer F.Cu) (net 43))
  (segment (start 128.3125 125.962) (end 131.975 125.962) (width 0.2) (layer F.Cu) (net 43))
  (segment (start 131.975 125.962) (end 136.525 121.412) (width 0.2) (layer F.Cu) (net 43))
  (segment (start 143.51 120.142) (end 144.78 121.412) (width 0.2) (layer F.Cu) (net 44))
  (segment (start 128.3125 125.562) (end 131.74 125.562) (width 0.2) (layer F.Cu) (net 44))
  (segment (start 131.74 125.562) (end 137.16 120.142) (width 0.2) (layer F.Cu) (net 44))
  (segment (start 137.16 120.142) (end 143.51 120.142) (width 0.2) (layer F.Cu) (net 44))
  (segment (start 132.445 126.762) (end 128.3125 126.762) (width 0.2) (layer F.Cu) (net 45))
  (segment (start 135.255 123.952) (end 132.445 126.762) (width 0.2) (layer F.Cu) (net 45))
  (segment (start 135.255 123.952) (end 142.24 123.952) (width 0.2) (layer F.Cu) (net 45))
  (segment (start 143.51 122.682) (end 144.78 123.952) (width 0.2) (layer F.Cu) (net 46))
  (segment (start 135.89 122.682) (end 143.51 122.682) (width 0.2) (layer F.Cu) (net 46))
  (segment (start 128.3125 126.362) (end 132.21 126.362) (width 0.2) (layer F.Cu) (net 46))
  (segment (start 132.21 126.362) (end 135.89 122.682) (width 0.2) (layer F.Cu) (net 46))
  (segment (start 132.915 127.562) (end 128.3125 127.562) (width 0.2) (layer F.Cu) (net 47))
  (segment (start 133.985 126.492) (end 132.915 127.562) (width 0.2) (layer F.Cu) (net 47))
  (segment (start 133.985 126.492) (end 142.24 126.492) (width 0.2) (layer F.Cu) (net 47))
  (segment (start 132.68 127.162) (end 128.3125 127.162) (width 0.2) (layer F.Cu) (net 48))
  (segment (start 134.62 125.222) (end 132.68 127.162) (width 0.2) (layer F.Cu) (net 48))
  (segment (start 144.78 126.492) (end 143.51 125.222) (width 0.2) (layer F.Cu) (net 48))
  (segment (start 134.62 125.222) (end 143.51 125.222) (width 0.2) (layer F.Cu) (net 48))
  (segment (start 132.68 128.362) (end 128.3125 128.362) (width 0.2) (layer F.Cu) (net 49))
  (segment (start 133.35 129.032) (end 132.68 128.362) (width 0.2) (layer F.Cu) (net 49))
  (segment (start 133.35 129.032) (end 142.24 129.032) (width 0.2) (layer F.Cu) (net 49))
  (segment (start 133.15 127.962) (end 128.3125 127.962) (width 0.2) (layer F.Cu) (net 50))
  (segment (start 133.35 127.762) (end 133.15 127.962) (width 0.2) (layer F.Cu) (net 50))
  (segment (start 144.78 129.032) (end 143.51 127.762) (width 0.2) (layer F.Cu) (net 50))
  (segment (start 133.35 127.762) (end 143.51 127.762) (width 0.2) (layer F.Cu) (net 50))
  (segment (start 132.21 129.162) (end 128.3125 129.162) (width 0.2) (layer F.Cu) (net 51))
  (segment (start 134.62 131.572) (end 132.21 129.162) (width 0.2) (layer F.Cu) (net 51))
  (segment (start 134.62 131.572) (end 142.24 131.572) (width 0.2) (layer F.Cu) (net 51))
  (segment (start 132.445 128.762) (end 128.3125 128.762) (width 0.2) (layer F.Cu) (net 52))
  (segment (start 133.985 130.302) (end 132.445 128.762) (width 0.2) (layer F.Cu) (net 52))
  (segment (start 144.78 131.572) (end 143.51 130.302) (width 0.2) (layer F.Cu) (net 52))
  (segment (start 133.985 130.302) (end 143.51 130.302) (width 0.2) (layer F.Cu) (net 52))
  (segment (start 131.74 129.962) (end 128.3125 129.962) (width 0.2) (layer F.Cu) (net 53))
  (segment (start 135.89 134.112) (end 131.74 129.962) (width 0.2) (layer F.Cu) (net 53))
  (segment (start 135.89 134.112) (end 142.24 134.112) (width 0.2) (layer F.Cu) (net 53))
  (segment (start 131.975 129.562) (end 128.3125 129.562) (width 0.2) (layer F.Cu) (net 54))
  (segment (start 135.255 132.842) (end 131.975 129.562) (width 0.2) (layer F.Cu) (net 54))
  (segment (start 144.78 134.112) (end 143.51 132.842) (width 0.2) (layer F.Cu) (net 54))
  (segment (start 135.255 132.842) (end 143.51 132.842) (width 0.2) (layer F.Cu) (net 54))
  (segment (start 131.27 130.762) (end 128.3125 130.762) (width 0.2) (layer F.Cu) (net 55))
  (segment (start 137.16 136.652) (end 131.27 130.762) (width 0.2) (layer F.Cu) (net 55))
  (segment (start 137.16 136.652) (end 142.24 136.652) (width 0.2) (layer F.Cu) (net 55))
  (segment (start 131.505 130.362) (end 128.3125 130.362) (width 0.2) (layer F.Cu) (net 56))
  (segment (start 136.525 135.382) (end 131.505 130.362) (width 0.2) (layer F.Cu) (net 56))
  (segment (start 144.78 136.652) (end 143.51 135.382) (width 0.2) (layer F.Cu) (net 56))
  (segment (start 136.525 135.382) (end 143.51 135.382) (width 0.2) (layer F.Cu) (net 56))
  (segment (start 130.8 131.562) (end 128.3125 131.562) (width 0.2) (layer F.Cu) (net 57))
  (segment (start 138.43 139.192) (end 130.8 131.562) (width 0.2) (layer F.Cu) (net 57))
  (segment (start 138.43 139.192) (end 142.24 139.192) (width 0.2) (layer F.Cu) (net 57))
  (segment (start 131.035 131.162) (end 128.3125 131.162) (width 0.2) (layer F.Cu) (net 58))
  (segment (start 137.795 137.922) (end 131.035 131.162) (width 0.2) (layer F.Cu) (net 58))
  (segment (start 144.78 139.192) (end 143.51 137.922) (width 0.2) (layer F.Cu) (net 58))
  (segment (start 137.795 137.922) (end 143.51 137.922) (width 0.2) (layer F.Cu) (net 58))
  (segment (start 130.33 132.362) (end 128.3125 132.362) (width 0.2) (layer F.Cu) (net 59))
  (segment (start 139.7 141.732) (end 130.33 132.362) (width 0.2) (layer F.Cu) (net 59))
  (segment (start 139.7 141.732) (end 142.24 141.732) (width 0.2) (layer F.Cu) (net 59))
  (segment (start 130.565 131.962) (end 128.3125 131.962) (width 0.2) (layer F.Cu) (net 60))
  (segment (start 139.065 140.462) (end 130.565 131.962) (width 0.2) (layer F.Cu) (net 60))
  (segment (start 144.78 141.732) (end 143.51 140.462) (width 0.2) (layer F.Cu) (net 60))
  (segment (start 139.065 140.462) (end 143.51 140.462) (width 0.2) (layer F.Cu) (net 60))
  (segment (start 129.86 133.162) (end 128.3125 133.162) (width 0.2) (layer F.Cu) (net 61))
  (segment (start 140.97 144.272) (end 129.86 133.162) (width 0.2) (layer F.Cu) (net 61))
  (segment (start 140.97 144.272) (end 142.24 144.272) (width 0.2) (layer F.Cu) (net 61))
  (segment (start 130.095 132.762) (end 128.3125 132.762) (width 0.2) (layer F.Cu) (net 62))
  (segment (start 140.335 143.002) (end 130.095 132.762) (width 0.2) (layer F.Cu) (net 62))
  (segment (start 144.78 144.272) (end 143.51 143.002) (width 0.2) (layer F.Cu) (net 62))
  (segment (start 140.335 143.002) (end 143.51 143.002) (width 0.2) (layer F.Cu) (net 62))
  (segment (start 129.39 133.962) (end 128.3125 133.962) (width 0.2) (layer F.Cu) (net 63))
  (segment (start 142.24 146.812) (end 129.39 133.962) (width 0.2) (layer F.Cu) (net 63))
  (segment (start 129.625 133.562) (end 128.3125 133.562) (width 0.2) (layer F.Cu) (net 64))
  (segment (start 141.605 145.542) (end 129.625 133.562) (width 0.2) (layer F.Cu) (net 64))
  (segment (start 144.78 146.812) (end 143.51 145.542) (width 0.2) (layer F.Cu) (net 64))
  (segment (start 141.605 145.542) (end 143.51 145.542) (width 0.2) (layer F.Cu) (net 64))
  (segment (start 114.45 119.022) (end 114.45 120.0995) (width 0.2) (layer F.Cu) (net 65))
  (segment (start 100.965 103.632) (end 100.33 104.267) (width 0.2) (layer F.Cu) (net 65))
  (segment (start 101.6 103.632) (end 100.965 103.632) (width 0.2) (layer F.Cu) (net 65))
  (segment (start 100.33 104.267) (end 100.33 106.807) (width 0.2) (layer F.Cu) (net 65))
  (segment (start 100.33 106.807) (end 102.235 108.712) (width 0.2) (layer F.Cu) (net 65))
  (segment (start 102.235 108.712) (end 104.14 108.712) (width 0.2) (layer F.Cu) (net 65))
  (segment (start 104.14 108.712) (end 114.45 119.022) (width 0.2) (layer F.Cu) (net 65))
  (segment (start 102.87 104.902) (end 104.14 103.632) (width 0.2) (layer F.Cu) (net 66))
  (segment (start 102.87 106.807) (end 102.87 104.902) (width 0.2) (layer F.Cu) (net 66))
  (segment (start 103.505 107.442) (end 102.87 106.807) (width 0.2) (layer F.Cu) (net 66))
  (segment (start 104.14 107.442) (end 103.505 107.442) (width 0.2) (layer F.Cu) (net 66))
  (segment (start 115.25 120.0995) (end 115.25 118.552) (width 0.2) (layer F.Cu) (net 66))
  (segment (start 115.25 118.552) (end 104.14 107.442) (width 0.2) (layer F.Cu) (net 66))
  (segment (start 105.41 104.902) (end 106.68 103.632) (width 0.2) (layer F.Cu) (net 67))
  (segment (start 116.05 120.0995) (end 116.05 118.082) (width 0.2) (layer F.Cu) (net 67))
  (segment (start 116.05 118.082) (end 105.41 107.442) (width 0.2) (layer F.Cu) (net 67))
  (segment (start 105.41 107.442) (end 105.41 104.902) (width 0.2) (layer F.Cu) (net 67))
  (segment (start 107.95 104.902) (end 109.22 103.632) (width 0.2) (layer F.Cu) (net 68))
  (segment (start 116.85 120.0995) (end 116.85 117.612) (width 0.2) (layer F.Cu) (net 68))
  (segment (start 116.85 117.612) (end 107.95 108.712) (width 0.2) (layer F.Cu) (net 68))
  (segment (start 107.95 108.712) (end 107.95 104.902) (width 0.2) (layer F.Cu) (net 68))
  (segment (start 110.49 104.902) (end 111.76 103.632) (width 0.2) (layer F.Cu) (net 69))
  (segment (start 117.65 120.0995) (end 117.65 117.142) (width 0.2) (layer F.Cu) (net 69))
  (segment (start 117.65 117.142) (end 110.49 109.982) (width 0.2) (layer F.Cu) (net 69))
  (segment (start 110.49 109.982) (end 110.49 104.902) (width 0.2) (layer F.Cu) (net 69))
  (segment (start 113.03 104.902) (end 114.3 103.632) (width 0.2) (layer F.Cu) (net 70))
  (segment (start 118.45 120.0995) (end 118.45 116.672) (width 0.2) (layer F.Cu) (net 70))
  (segment (start 118.45 116.672) (end 113.03 111.252) (width 0.2) (layer F.Cu) (net 70))
  (segment (start 113.03 111.252) (end 113.03 104.902) (width 0.2) (layer F.Cu) (net 70))
  (segment (start 119.25 116.202) (end 119.25 120.0995) (width 0.2) (layer F.Cu) (net 71))
  (segment (start 115.57 112.522) (end 119.25 116.202) (width 0.2) (layer F.Cu) (net 71))
  (segment (start 116.84 103.632) (end 115.57 104.902) (width 0.2) (layer F.Cu) (net 71))
  (segment (start 115.57 112.522) (end 115.57 104.902) (width 0.2) (layer F.Cu) (net 71))
  (segment (start 120.05 115.732) (end 120.05 120.0995) (width 0.2) (layer F.Cu) (net 72))
  (segment (start 118.11 113.792) (end 120.05 115.732) (width 0.2) (layer F.Cu) (net 72))
  (segment (start 119.38 103.632) (end 118.11 104.902) (width 0.2) (layer F.Cu) (net 72))
  (segment (start 118.11 113.792) (end 118.11 104.902) (width 0.2) (layer F.Cu) (net 72))
  (segment (start 120.65 104.902) (end 121.92 103.632) (width 0.2) (layer F.Cu) (net 73))
  (segment (start 120.85 120.0995) (end 120.85 115.262) (width 0.2) (layer F.Cu) (net 73))
  (segment (start 120.85 115.262) (end 120.65 115.062) (width 0.2) (layer F.Cu) (net 73))
  (segment (start 120.65 115.062) (end 120.65 104.902) (width 0.2) (layer F.Cu) (net 73))
  (segment (start 121.65 119.262) (end 121.65 120.0995) (width 0.2) (layer F.Cu) (net 74))
  (segment (start 121.65 115.967) (end 121.65 119.262) (width 0.2) (layer F.Cu) (net 74))
  (segment (start 123.19 114.427) (end 121.65 115.967) (width 0.2) (layer F.Cu) (net 74))
  (segment (start 124.46 103.632) (end 123.19 104.902) (width 0.2) (layer F.Cu) (net 74))
  (segment (start 123.19 114.427) (end 123.19 104.902) (width 0.2) (layer F.Cu) (net 74))
  (segment (start 125.73 104.902) (end 127 103.632) (width 0.2) (layer F.Cu) (net 75))
  (segment (start 125.73 113.157) (end 125.73 104.902) (width 0.2) (layer F.Cu) (net 75))
  (segment (start 122.45 120.0995) (end 122.45 116.437) (width 0.2) (layer F.Cu) (net 75))
  (segment (start 122.45 116.437) (end 125.73 113.157) (width 0.2) (layer F.Cu) (net 75))
  (segment (start 123.25 116.907) (end 123.25 120.0995) (width 0.2) (layer F.Cu) (net 76))
  (segment (start 128.27 111.887) (end 123.25 116.907) (width 0.2) (layer F.Cu) (net 76))
  (segment (start 129.54 103.632) (end 128.27 104.902) (width 0.2) (layer F.Cu) (net 76))
  (segment (start 128.27 111.887) (end 128.27 104.902) (width 0.2) (layer F.Cu) (net 76))
  (segment (start 130.81 104.902) (end 132.08 103.632) (width 0.2) (layer F.Cu) (net 77))
  (segment (start 130.81 110.617) (end 130.81 104.902) (width 0.2) (layer F.Cu) (net 77))
  (segment (start 124.05 120.0995) (end 124.05 117.377) (width 0.2) (layer F.Cu) (net 77))
  (segment (start 124.05 117.377) (end 130.81 110.617) (width 0.2) (layer F.Cu) (net 77))
  (segment (start 133.35 104.902) (end 134.62 103.632) (width 0.2) (layer F.Cu) (net 78))
  (segment (start 133.35 109.347) (end 133.35 104.902) (width 0.2) (layer F.Cu) (net 78))
  (segment (start 124.85 120.0995) (end 124.85 117.847) (width 0.2) (layer F.Cu) (net 78))
  (segment (start 124.85 117.847) (end 133.35 109.347) (width 0.2) (layer F.Cu) (net 78))
  (segment (start 125.65 118.317) (end 125.65 120.0995) (width 0.2) (layer F.Cu) (net 79))
  (segment (start 135.89 108.077) (end 125.65 118.317) (width 0.2) (layer F.Cu) (net 79))
  (segment (start 137.16 103.632) (end 135.89 104.902) (width 0.2) (layer F.Cu) (net 79))
  (segment (start 135.89 108.077) (end 135.89 104.902) (width 0.2) (layer F.Cu) (net 79))
  (segment (start 126.45 118.787) (end 126.45 120.0995) (width 0.2) (layer F.Cu) (net 80))
  (segment (start 138.43 106.807) (end 126.45 118.787) (width 0.2) (layer F.Cu) (net 80))
  (segment (start 139.7 103.632) (end 138.43 104.902) (width 0.2) (layer F.Cu) (net 80))
  (segment (start 138.43 104.902) (end 138.43 106.807) (width 0.2) (layer F.Cu) (net 80))
  (segment (start 101.6 106.172) (end 101.6 106.807) (width 0.2) (layer F.Cu) (net 81))
  (segment (start 102.817547 108.024547) (end 101.6 106.807) (width 0.2) (layer F.Cu) (net 81))
  (segment (start 104.087547 108.024547) (end 102.817547 108.024547) (width 0.2) (layer F.Cu) (net 81))
  (segment (start 114.85 120.0995) (end 114.85 118.787) (width 0.2) (layer F.Cu) (net 81))
  (segment (start 114.85 118.787) (end 104.087547 108.024547) (width 0.2) (layer F.Cu) (net 81))
  (segment (start 115.65 120.0995) (end 115.65 118.317) (width 0.2) (layer F.Cu) (net 82))
  (segment (start 115.65 118.317) (end 104.14 106.807) (width 0.2) (layer F.Cu) (net 82))
  (segment (start 116.45 120.0995) (end 116.45 117.847) (width 0.2) (layer F.Cu) (net 83))
  (segment (start 116.45 117.847) (end 106.68 108.077) (width 0.2) (layer F.Cu) (net 83))
  (segment (start 106.68 108.077) (end 106.68 106.172) (width 0.2) (layer F.Cu) (net 83))
  (segment (start 117.25 120.0995) (end 117.25 117.377) (width 0.2) (layer F.Cu) (net 84))
  (segment (start 117.25 117.377) (end 109.22 109.347) (width 0.2) (layer F.Cu) (net 84))
  (segment (start 109.22 109.347) (end 109.22 106.172) (width 0.2) (layer F.Cu) (net 84))
  (segment (start 118.05 120.0995) (end 118.05 116.907) (width 0.2) (layer F.Cu) (net 85))
  (segment (start 118.05 116.907) (end 111.76 110.617) (width 0.2) (layer F.Cu) (net 85))
  (segment (start 111.76 110.617) (end 111.76 106.172) (width 0.2) (layer F.Cu) (net 85))
  (segment (start 118.85 120.0995) (end 118.85 116.437) (width 0.2) (layer F.Cu) (net 86))
  (segment (start 118.85 116.437) (end 114.3 111.887) (width 0.2) (layer F.Cu) (net 86))
  (segment (start 114.3 111.887) (end 114.3 106.172) (width 0.2) (layer F.Cu) (net 86))
  (segment (start 119.65 115.967) (end 119.65 120.0995) (width 0.2) (layer F.Cu) (net 87))
  (segment (start 116.84 113.157) (end 119.65 115.967) (width 0.2) (layer F.Cu) (net 87))
  (segment (start 116.84 113.157) (end 116.84 106.172) (width 0.2) (layer F.Cu) (net 87))
  (segment (start 120.45 115.497) (end 120.45 120.0995) (width 0.2) (layer F.Cu) (net 88))
  (segment (start 119.38 114.427) (end 120.45 115.497) (width 0.2) (layer F.Cu) (net 88))
  (segment (start 119.38 114.427) (end 119.38 106.172) (width 0.2) (layer F.Cu) (net 88))
  (segment (start 122.05 116.202) (end 122.05 120.0995) (width 0.2) (layer F.Cu) (net 89))
  (segment (start 124.46 113.792) (end 122.05 116.202) (width 0.2) (layer F.Cu) (net 89))
  (segment (start 124.46 113.792) (end 124.46 106.172) (width 0.2) (layer F.Cu) (net 89))
  (segment (start 127 112.522) (end 127 106.172) (width 0.2) (layer F.Cu) (net 90))
  (segment (start 122.85 120.0995) (end 122.85 116.672) (width 0.2) (layer F.Cu) (net 90))
  (segment (start 122.85 116.672) (end 127 112.522) (width 0.2) (layer F.Cu) (net 90))
  (segment (start 123.65 117.142) (end 123.65 120.0995) (width 0.2) (layer F.Cu) (net 91))
  (segment (start 129.54 111.252) (end 123.65 117.142) (width 0.2) (layer F.Cu) (net 91))
  (segment (start 129.54 111.252) (end 129.54 106.172) (width 0.2) (layer F.Cu) (net 91))
  (segment (start 132.08 109.982) (end 132.08 106.172) (width 0.2) (layer F.Cu) (net 92))
  (segment (start 124.45 120.0995) (end 124.45 117.612) (width 0.2) (layer F.Cu) (net 92))
  (segment (start 124.45 117.612) (end 132.08 109.982) (width 0.2) (layer F.Cu) (net 92))
  (segment (start 125.25 118.082) (end 125.25 120.0995) (width 0.2) (layer F.Cu) (net 93))
  (segment (start 134.62 108.712) (end 125.25 118.082) (width 0.2) (layer F.Cu) (net 93))
  (segment (start 134.62 108.712) (end 134.62 106.172) (width 0.2) (layer F.Cu) (net 93))
  (segment (start 126.05 118.552) (end 126.05 120.0995) (width 0.2) (layer F.Cu) (net 94))
  (segment (start 137.16 107.442) (end 126.05 118.552) (width 0.2) (layer F.Cu) (net 94))
  (segment (start 137.16 107.442) (end 137.16 106.172) (width 0.2) (layer F.Cu) (net 94))
  (segment (start 126.85 119.022) (end 126.85 120.0995) (width 0.2) (layer F.Cu) (net 95))
  (segment (start 139.7 106.172) (end 126.85 119.022) (width 0.2) (layer F.Cu) (net 95))
  (segment (start 97.79 109.982) (end 96.52 108.712) (width 0.2) (layer F.Cu) (net 96))
  (segment (start 112.9875 121.962) (end 111.675 121.962) (width 0.2) (layer F.Cu) (net 96))
  (segment (start 111.675 121.962) (end 99.695 109.982) (width 0.2) (layer F.Cu) (net 96))
  (segment (start 99.695 109.982) (end 97.79 109.982) (width 0.2) (layer F.Cu) (net 96))
  (segment (start 111.91 121.562) (end 112.9875 121.562) (width 0.2) (layer F.Cu) (net 97))
  (segment (start 99.06 108.712) (end 111.91 121.562) (width 0.2) (layer F.Cu) (net 97))
  (segment (start 111.205 122.762) (end 112.9875 122.762) (width 0.2) (layer F.Cu) (net 98))
  (segment (start 100.965 112.522) (end 111.205 122.762) (width 0.2) (layer F.Cu) (net 98))
  (segment (start 96.52 111.252) (end 97.79 112.522) (width 0.2) (layer F.Cu) (net 98))
  (segment (start 97.79 112.522) (end 100.965 112.522) (width 0.2) (layer F.Cu) (net 98))
  (segment (start 112.9875 122.362) (end 111.44 122.362) (width 0.2) (layer F.Cu) (net 99))
  (segment (start 100.33 111.252) (end 99.06 111.252) (width 0.2) (layer F.Cu) (net 99))
  (segment (start 111.44 122.362) (end 100.33 111.252) (width 0.2) (layer F.Cu) (net 99))
  (segment (start 97.79 115.062) (end 96.52 113.792) (width 0.2) (layer F.Cu) (net 100))
  (segment (start 112.9875 123.562) (end 110.735 123.562) (width 0.2) (layer F.Cu) (net 100))
  (segment (start 110.735 123.562) (end 102.235 115.062) (width 0.2) (layer F.Cu) (net 100))
  (segment (start 97.79 115.062) (end 102.235 115.062) (width 0.2) (layer F.Cu) (net 100))
  (segment (start 112.9875 123.162) (end 110.97 123.162) (width 0.2) (layer F.Cu) (net 101))
  (segment (start 101.6 113.792) (end 99.06 113.792) (width 0.2) (layer F.Cu) (net 101))
  (segment (start 110.97 123.162) (end 101.6 113.792) (width 0.2) (layer F.Cu) (net 101))
  (segment (start 110.265 124.362) (end 112.9875 124.362) (width 0.2) (layer F.Cu) (net 102))
  (segment (start 103.505 117.602) (end 110.265 124.362) (width 0.2) (layer F.Cu) (net 102))
  (segment (start 96.52 116.332) (end 97.79 117.602) (width 0.2) (layer F.Cu) (net 102))
  (segment (start 97.79 117.602) (end 103.505 117.602) (width 0.2) (layer F.Cu) (net 102))
  (segment (start 102.87 116.332) (end 99.06 116.332) (width 0.2) (layer F.Cu) (net 103))
  (segment (start 112.9875 123.962) (end 110.5 123.962) (width 0.2) (layer F.Cu) (net 103))
  (segment (start 110.5 123.962) (end 102.87 116.332) (width 0.2) (layer F.Cu) (net 103))
  (segment (start 97.79 120.142) (end 96.52 118.872) (width 0.2) (layer F.Cu) (net 104))
  (segment (start 112.9875 125.162) (end 109.795 125.162) (width 0.2) (layer F.Cu) (net 104))
  (segment (start 109.795 125.162) (end 104.775 120.142) (width 0.2) (layer F.Cu) (net 104))
  (segment (start 97.79 120.142) (end 104.775 120.142) (width 0.2) (layer F.Cu) (net 104))
  (segment (start 112.9875 124.762) (end 110.03 124.762) (width 0.2) (layer F.Cu) (net 105))
  (segment (start 104.14 118.872) (end 99.06 118.872) (width 0.2) (layer F.Cu) (net 105))
  (segment (start 110.03 124.762) (end 104.14 118.872) (width 0.2) (layer F.Cu) (net 105))
  (segment (start 109.325 125.962) (end 112.9875 125.962) (width 0.2) (layer F.Cu) (net 106))
  (segment (start 106.045 122.682) (end 109.325 125.962) (width 0.2) (layer F.Cu) (net 106))
  (segment (start 96.52 121.412) (end 97.79 122.682) (width 0.2) (layer F.Cu) (net 106))
  (segment (start 97.79 122.682) (end 106.045 122.682) (width 0.2) (layer F.Cu) (net 106))
  (segment (start 112.9875 125.562) (end 109.56 125.562) (width 0.2) (layer F.Cu) (net 107))
  (segment (start 109.56 125.562) (end 105.41 121.412) (width 0.2) (layer F.Cu) (net 107))
  (segment (start 105.41 121.412) (end 99.06 121.412) (width 0.2) (layer F.Cu) (net 107))
  (segment (start 108.855 126.762) (end 112.9875 126.762) (width 0.2) (layer F.Cu) (net 108))
  (segment (start 107.315 125.222) (end 108.855 126.762) (width 0.2) (layer F.Cu) (net 108))
  (segment (start 96.52 123.952) (end 97.79 125.222) (width 0.2) (layer F.Cu) (net 108))
  (segment (start 97.79 125.222) (end 107.315 125.222) (width 0.2) (layer F.Cu) (net 108))
  (segment (start 112.265 126.362) (end 112.9875 126.362) (width 0.2) (layer F.Cu) (net 109))
  (segment (start 109.09 126.362) (end 112.265 126.362) (width 0.2) (layer F.Cu) (net 109))
  (segment (start 99.06 123.952) (end 106.68 123.952) (width 0.2) (layer F.Cu) (net 109))
  (segment (start 106.68 123.952) (end 109.09 126.362) (width 0.2) (layer F.Cu) (net 109))
  (segment (start 97.79 127.762) (end 96.52 126.492) (width 0.2) (layer F.Cu) (net 110))
  (segment (start 112.9875 127.562) (end 108.15 127.562) (width 0.2) (layer F.Cu) (net 110))
  (segment (start 108.15 127.562) (end 107.95 127.762) (width 0.2) (layer F.Cu) (net 110))
  (segment (start 97.79 127.762) (end 107.95 127.762) (width 0.2) (layer F.Cu) (net 110))
  (segment (start 108.55 127.162) (end 112.9875 127.162) (width 0.2) (layer F.Cu) (net 111))
  (segment (start 107.88 126.492) (end 108.55 127.162) (width 0.2) (layer F.Cu) (net 111))
  (segment (start 99.06 126.492) (end 107.88 126.492) (width 0.2) (layer F.Cu) (net 111))
  (segment (start 108.62 128.362) (end 112.9875 128.362) (width 0.2) (layer F.Cu) (net 112))
  (segment (start 106.68 130.302) (end 108.62 128.362) (width 0.2) (layer F.Cu) (net 112))
  (segment (start 96.52 129.032) (end 97.79 130.302) (width 0.2) (layer F.Cu) (net 112))
  (segment (start 97.79 130.302) (end 106.68 130.302) (width 0.2) (layer F.Cu) (net 112))
  (segment (start 107.315 129.032) (end 99.06 129.032) (width 0.2) (layer F.Cu) (net 113))
  (segment (start 112.9875 127.962) (end 108.385 127.962) (width 0.2) (layer F.Cu) (net 113))
  (segment (start 108.385 127.962) (end 107.315 129.032) (width 0.2) (layer F.Cu) (net 113))
  (segment (start 109.09 129.162) (end 112.9875 129.162) (width 0.2) (layer F.Cu) (net 114))
  (segment (start 105.41 132.842) (end 109.09 129.162) (width 0.2) (layer F.Cu) (net 114))
  (segment (start 96.52 131.572) (end 97.79 132.842) (width 0.2) (layer F.Cu) (net 114))
  (segment (start 97.79 132.842) (end 105.41 132.842) (width 0.2) (layer F.Cu) (net 114))
  (segment (start 108.855 128.762) (end 112.9875 128.762) (width 0.2) (layer F.Cu) (net 115))
  (segment (start 106.045 131.572) (end 108.855 128.762) (width 0.2) (layer F.Cu) (net 115))
  (segment (start 99.06 131.572) (end 106.045 131.572) (width 0.2) (layer F.Cu) (net 115))
  (segment (start 112.15 129.962) (end 112.9875 129.962) (width 0.2) (layer F.Cu) (net 116))
  (segment (start 109.56 129.962) (end 112.15 129.962) (width 0.2) (layer F.Cu) (net 116))
  (segment (start 104.14 135.382) (end 109.56 129.962) (width 0.2) (layer F.Cu) (net 116))
  (segment (start 96.52 134.112) (end 97.79 135.382) (width 0.2) (layer F.Cu) (net 116))
  (segment (start 97.79 135.382) (end 104.14 135.382) (width 0.2) (layer F.Cu) (net 116))
  (segment (start 109.325 129.562) (end 112.9875 129.562) (width 0.2) (layer F.Cu) (net 117))
  (segment (start 104.775 134.112) (end 109.325 129.562) (width 0.2) (layer F.Cu) (net 117))
  (segment (start 99.06 134.112) (end 104.775 134.112) (width 0.2) (layer F.Cu) (net 117))
  (segment (start 110.03 130.762) (end 112.9875 130.762) (width 0.2) (layer F.Cu) (net 118))
  (segment (start 102.87 137.922) (end 110.03 130.762) (width 0.2) (layer F.Cu) (net 118))
  (segment (start 96.52 136.652) (end 97.79 137.922) (width 0.2) (layer F.Cu) (net 118))
  (segment (start 97.79 137.922) (end 102.87 137.922) (width 0.2) (layer F.Cu) (net 118))
  (segment (start 109.795 130.362) (end 112.9875 130.362) (width 0.2) (layer F.Cu) (net 119))
  (segment (start 103.505 136.652) (end 109.795 130.362) (width 0.2) (layer F.Cu) (net 119))
  (segment (start 99.06 136.652) (end 103.505 136.652) (width 0.2) (layer F.Cu) (net 119))
  (segment (start 110.5 131.562) (end 112.9875 131.562) (width 0.2) (layer F.Cu) (net 120))
  (segment (start 101.6 140.462) (end 110.5 131.562) (width 0.2) (layer F.Cu) (net 120))
  (segment (start 96.52 139.192) (end 97.79 140.462) (width 0.2) (layer F.Cu) (net 120))
  (segment (start 97.79 140.462) (end 101.6 140.462) (width 0.2) (layer F.Cu) (net 120))
  (segment (start 110.265 131.162) (end 112.9875 131.162) (width 0.2) (layer F.Cu) (net 121))
  (segment (start 102.235 139.192) (end 110.265 131.162) (width 0.2) (layer F.Cu) (net 121))
  (segment (start 99.06 139.192) (end 102.235 139.192) (width 0.2) (layer F.Cu) (net 121))
  (segment (start 110.97 132.362) (end 112.9875 132.362) (width 0.2) (layer F.Cu) (net 122))
  (segment (start 100.33 143.002) (end 110.97 132.362) (width 0.2) (layer F.Cu) (net 122))
  (segment (start 96.52 141.732) (end 97.79 143.002) (width 0.2) (layer F.Cu) (net 122))
  (segment (start 97.79 143.002) (end 100.33 143.002) (width 0.2) (layer F.Cu) (net 122))
  (segment (start 110.735 131.962) (end 112.9875 131.962) (width 0.2) (layer F.Cu) (net 123))
  (segment (start 100.965 141.732) (end 110.735 131.962) (width 0.2) (layer F.Cu) (net 123))
  (segment (start 99.06 141.732) (end 100.965 141.732) (width 0.2) (layer F.Cu) (net 123))
  (segment (start 111.44 133.162) (end 112.9875 133.162) (width 0.2) (layer F.Cu) (net 124))
  (segment (start 100.33 144.272) (end 111.44 133.162) (width 0.2) (layer F.Cu) (net 124))
  (segment (start 100.33 144.907) (end 100.33 144.272) (width 0.2) (layer F.Cu) (net 124))
  (segment (start 99.695 145.542) (end 100.33 144.907) (width 0.2) (layer F.Cu) (net 124))
  (segment (start 96.52 144.272) (end 97.79 145.542) (width 0.2) (layer F.Cu) (net 124))
  (segment (start 97.79 145.542) (end 99.695 145.542) (width 0.2) (layer F.Cu) (net 124))
  (segment (start 111.205 132.762) (end 112.9875 132.762) (width 0.2) (layer F.Cu) (net 125))
  (segment (start 99.695 144.272) (end 111.205 132.762) (width 0.2) (layer F.Cu) (net 125))
  (segment (start 96.52 147.447) (end 96.52 146.812) (width 0.2) (layer F.Cu) (net 126))
  (segment (start 111.91 133.962) (end 101.6 144.272) (width 0.2) (layer F.Cu) (net 126))
  (segment (start 112.9875 133.962) (end 111.91 133.962) (width 0.2) (layer F.Cu) (net 126))
  (segment (start 101.6 144.272) (end 101.6 146.177) (width 0.2) (layer F.Cu) (net 126))
  (segment (start 101.6 146.177) (end 99.695 148.082) (width 0.2) (layer F.Cu) (net 126))
  (segment (start 99.695 148.082) (end 97.155 148.082) (width 0.2) (layer F.Cu) (net 126))
  (segment (start 97.155 148.082) (end 96.52 147.447) (width 0.2) (layer F.Cu) (net 126))
  (segment (start 111.675 133.562) (end 112.9875 133.562) (width 0.2) (layer F.Cu) (net 127))
  (segment (start 100.965 144.272) (end 111.675 133.562) (width 0.2) (layer F.Cu) (net 127))
  (segment (start 100.965 145.542) (end 100.965 144.272) (width 0.2) (layer F.Cu) (net 127))
  (segment (start 99.06 146.812) (end 99.695 146.812) (width 0.2) (layer F.Cu) (net 127))
  (segment (start 99.695 146.812) (end 100.965 145.542) (width 0.2) (layer F.Cu) (net 127))
  (segment (start 121.25 115.732) (end 121.25 120.0995) (width 0.2) (layer F.Cu) (net 128))
  (segment (start 121.92 115.062) (end 121.25 115.732) (width 0.2) (layer F.Cu) (net 128))
  (segment (start 121.92 115.062) (end 121.92 106.172) (width 0.2) (layer F.Cu) (net 128))

)
