(module Breakout_board_tqfp128 (layer F.Cu) (tedit 5CD30DFB)
  (fp_text reference REF** (at 0 16.51) (layer F.SilkS)
    (effects (font (size 1 1) (thickness 0.15)))
  )
  (fp_text value Breakout_board_tqfp128 (at 0 12.7) (layer F.Fab)
    (effects (font (size 1 1) (thickness 0.15)))
  )
  (pad 1 thru_hole circle (at -19.05 21.59) (size 1.524 1.524) (drill 0.9) (layers *.Cu *.Mask))
  (pad 3 thru_hole circle (at -16.51 21.59) (size 1.524 1.524) (drill 0.9) (layers *.Cu *.Mask))
  (pad 5 thru_hole circle (at -13.97 21.59) (size 1.524 1.524) (drill 0.9) (layers *.Cu *.Mask))
  (pad 7 thru_hole circle (at -11.43 21.59) (size 1.524 1.524) (drill 0.9) (layers *.Cu *.Mask))
  (pad 9 thru_hole circle (at -8.89 21.59) (size 1.524 1.524) (drill 0.9) (layers *.Cu *.Mask))
  (pad 11 thru_hole circle (at -6.35 21.59) (size 1.524 1.524) (drill 0.9) (layers *.Cu *.Mask))
  (pad 13 thru_hole circle (at -3.81 21.59) (size 1.524 1.524) (drill 0.9) (layers *.Cu *.Mask))
  (pad 15 thru_hole circle (at -1.27 21.59) (size 1.524 1.524) (drill 0.9) (layers *.Cu *.Mask))
  (pad 17 thru_hole circle (at 1.27 21.59) (size 1.524 1.524) (drill 0.9) (layers *.Cu *.Mask))
  (pad 19 thru_hole circle (at 3.81 21.59) (size 1.524 1.524) (drill 0.9) (layers *.Cu *.Mask))
  (pad 21 thru_hole circle (at 6.35 21.59) (size 1.524 1.524) (drill 0.9) (layers *.Cu *.Mask))
  (pad 23 thru_hole circle (at 8.89 21.59) (size 1.524 1.524) (drill 0.9) (layers *.Cu *.Mask))
  (pad 25 thru_hole circle (at 11.43 21.59) (size 1.524 1.524) (drill 0.9) (layers *.Cu *.Mask))
  (pad 27 thru_hole circle (at 13.97 21.59) (size 1.524 1.524) (drill 0.9) (layers *.Cu *.Mask))
  (pad 29 thru_hole circle (at 16.51 21.59) (size 1.524 1.524) (drill 0.9) (layers *.Cu *.Mask))
  (pad 31 thru_hole circle (at 19.05 21.59) (size 1.524 1.524) (drill 0.9) (layers *.Cu *.Mask))
  (pad 2 thru_hole circle (at -19.05 24.13) (size 1.524 1.524) (drill 0.9) (layers *.Cu *.Mask))
  (pad 4 thru_hole circle (at -16.51 24.13) (size 1.524 1.524) (drill 0.9) (layers *.Cu *.Mask))
  (pad 6 thru_hole circle (at -13.97 24.13) (size 1.524 1.524) (drill 0.9) (layers *.Cu *.Mask))
  (pad 8 thru_hole circle (at -11.43 24.13) (size 1.524 1.524) (drill 0.9) (layers *.Cu *.Mask))
  (pad 10 thru_hole circle (at -8.89 24.13) (size 1.524 1.524) (drill 0.9) (layers *.Cu *.Mask))
  (pad 12 thru_hole circle (at -6.35 24.13) (size 1.524 1.524) (drill 0.9) (layers *.Cu *.Mask))
  (pad 14 thru_hole circle (at -3.81 24.13) (size 1.524 1.524) (drill 0.9) (layers *.Cu *.Mask))
  (pad 16 thru_hole circle (at -1.27 24.13) (size 1.524 1.524) (drill 0.9) (layers *.Cu *.Mask))
  (pad 18 thru_hole circle (at 1.27 24.13) (size 1.524 1.524) (drill 0.9) (layers *.Cu *.Mask))
  (pad 20 thru_hole circle (at 3.81 24.13) (size 1.524 1.524) (drill 0.9) (layers *.Cu *.Mask))
  (pad 22 thru_hole circle (at 6.35 24.13) (size 1.524 1.524) (drill 0.9) (layers *.Cu *.Mask))
  (pad 24 thru_hole circle (at 8.89 24.13) (size 1.524 1.524) (drill 0.9) (layers *.Cu *.Mask))
  (pad 26 thru_hole circle (at 11.43 24.13) (size 1.524 1.524) (drill 0.9) (layers *.Cu *.Mask))
  (pad 28 thru_hole circle (at 13.97 24.13) (size 1.524 1.524) (drill 0.9) (layers *.Cu *.Mask))
  (pad 30 thru_hole circle (at 16.51 24.13) (size 1.524 1.524) (drill 0.9) (layers *.Cu *.Mask))
  (pad 32 thru_hole circle (at 19.05 24.13) (size 1.524 1.524) (drill 0.9) (layers *.Cu *.Mask))
  (pad 63 thru_hole circle (at 21.59 -19.05) (size 1.524 1.524) (drill 0.9) (layers *.Cu *.Mask))
  (pad 64 thru_hole circle (at 24.13 -19.05) (size 1.524 1.524) (drill 0.9) (layers *.Cu *.Mask))
  (pad 61 thru_hole circle (at 21.59 -16.51) (size 1.524 1.524) (drill 0.9) (layers *.Cu *.Mask))
  (pad 62 thru_hole circle (at 24.13 -16.51) (size 1.524 1.524) (drill 0.9) (layers *.Cu *.Mask))
  (pad 59 thru_hole circle (at 21.59 -13.97) (size 1.524 1.524) (drill 0.9) (layers *.Cu *.Mask))
  (pad 60 thru_hole circle (at 24.13 -13.97) (size 1.524 1.524) (drill 0.9) (layers *.Cu *.Mask))
  (pad 57 thru_hole circle (at 21.59 -11.43) (size 1.524 1.524) (drill 0.9) (layers *.Cu *.Mask))
  (pad 58 thru_hole circle (at 24.13 -11.43) (size 1.524 1.524) (drill 0.9) (layers *.Cu *.Mask))
  (pad 55 thru_hole circle (at 21.59 -8.89) (size 1.524 1.524) (drill 0.9) (layers *.Cu *.Mask))
  (pad 56 thru_hole circle (at 24.13 -8.89) (size 1.524 1.524) (drill 0.9) (layers *.Cu *.Mask))
  (pad 53 thru_hole circle (at 21.59 -6.35) (size 1.524 1.524) (drill 0.9) (layers *.Cu *.Mask))
  (pad 54 thru_hole circle (at 24.13 -6.35) (size 1.524 1.524) (drill 0.9) (layers *.Cu *.Mask))
  (pad 51 thru_hole circle (at 21.59 -3.81) (size 1.524 1.524) (drill 0.9) (layers *.Cu *.Mask))
  (pad 52 thru_hole circle (at 24.13 -3.81) (size 1.524 1.524) (drill 0.9) (layers *.Cu *.Mask))
  (pad 49 thru_hole circle (at 21.59 -1.27) (size 1.524 1.524) (drill 0.9) (layers *.Cu *.Mask))
  (pad 50 thru_hole circle (at 24.13 -1.27) (size 1.524 1.524) (drill 0.9) (layers *.Cu *.Mask))
  (pad 47 thru_hole circle (at 21.59 1.27) (size 1.524 1.524) (drill 0.9) (layers *.Cu *.Mask))
  (pad 48 thru_hole circle (at 24.13 1.27) (size 1.524 1.524) (drill 0.9) (layers *.Cu *.Mask))
  (pad 45 thru_hole circle (at 21.59 3.81) (size 1.524 1.524) (drill 0.9) (layers *.Cu *.Mask))
  (pad 46 thru_hole circle (at 24.13 3.81) (size 1.524 1.524) (drill 0.9) (layers *.Cu *.Mask))
  (pad 43 thru_hole circle (at 21.59 6.35) (size 1.524 1.524) (drill 0.9) (layers *.Cu *.Mask))
  (pad 44 thru_hole circle (at 24.13 6.35) (size 1.524 1.524) (drill 0.9) (layers *.Cu *.Mask))
  (pad 41 thru_hole circle (at 21.59 8.89) (size 1.524 1.524) (drill 0.9) (layers *.Cu *.Mask))
  (pad 42 thru_hole circle (at 24.13 8.89) (size 1.524 1.524) (drill 0.9) (layers *.Cu *.Mask))
  (pad 39 thru_hole circle (at 21.59 11.43) (size 1.524 1.524) (drill 0.9) (layers *.Cu *.Mask))
  (pad 40 thru_hole circle (at 24.13 11.43) (size 1.524 1.524) (drill 0.9) (layers *.Cu *.Mask))
  (pad 37 thru_hole circle (at 21.59 13.97) (size 1.524 1.524) (drill 0.9) (layers *.Cu *.Mask))
  (pad 38 thru_hole circle (at 24.13 13.97) (size 1.524 1.524) (drill 0.9) (layers *.Cu *.Mask))
  (pad 35 thru_hole circle (at 21.59 16.51) (size 1.524 1.524) (drill 0.9) (layers *.Cu *.Mask))
  (pad 36 thru_hole circle (at 24.13 16.51) (size 1.524 1.524) (drill 0.9) (layers *.Cu *.Mask))
  (pad 33 thru_hole circle (at 21.59 19.05) (size 1.524 1.524) (drill 0.9) (layers *.Cu *.Mask))
  (pad 34 thru_hole circle (at 24.13 19.05) (size 1.524 1.524) (drill 0.9) (layers *.Cu *.Mask))
  (pad 96 thru_hole circle (at -19.05 -24.13) (size 1.524 1.524) (drill 0.9) (layers *.Cu *.Mask))
  (pad 94 thru_hole circle (at -16.51 -24.13) (size 1.524 1.524) (drill 0.9) (layers *.Cu *.Mask))
  (pad 92 thru_hole circle (at -13.97 -24.13) (size 1.524 1.524) (drill 0.9) (layers *.Cu *.Mask))
  (pad 90 thru_hole circle (at -11.43 -24.13) (size 1.524 1.524) (drill 0.9) (layers *.Cu *.Mask))
  (pad 88 thru_hole circle (at -8.89 -24.13) (size 1.524 1.524) (drill 0.9) (layers *.Cu *.Mask))
  (pad 86 thru_hole circle (at -6.35 -24.13) (size 1.524 1.524) (drill 0.9) (layers *.Cu *.Mask))
  (pad 84 thru_hole circle (at -3.81 -24.13) (size 1.524 1.524) (drill 0.9) (layers *.Cu *.Mask))
  (pad 82 thru_hole circle (at -1.27 -24.13) (size 1.524 1.524) (drill 0.9) (layers *.Cu *.Mask))
  (pad 80 thru_hole circle (at 1.27 -24.13) (size 1.524 1.524) (drill 0.9) (layers *.Cu *.Mask))
  (pad 78 thru_hole circle (at 3.81 -24.13) (size 1.524 1.524) (drill 0.9) (layers *.Cu *.Mask))
  (pad 76 thru_hole circle (at 6.35 -24.13) (size 1.524 1.524) (drill 0.9) (layers *.Cu *.Mask))
  (pad 74 thru_hole circle (at 8.89 -24.13) (size 1.524 1.524) (drill 0.9) (layers *.Cu *.Mask))
  (pad 72 thru_hole circle (at 11.43 -24.13) (size 1.524 1.524) (drill 0.9) (layers *.Cu *.Mask))
  (pad 70 thru_hole circle (at 13.97 -24.13) (size 1.524 1.524) (drill 0.9) (layers *.Cu *.Mask))
  (pad 68 thru_hole circle (at 16.51 -24.13) (size 1.524 1.524) (drill 0.9) (layers *.Cu *.Mask))
  (pad 66 thru_hole circle (at 19.05 -24.13) (size 1.524 1.524) (drill 0.9) (layers *.Cu *.Mask))
  (pad 95 thru_hole circle (at -19.05 -21.59) (size 1.524 1.524) (drill 0.9) (layers *.Cu *.Mask))
  (pad 93 thru_hole circle (at -16.51 -21.59) (size 1.524 1.524) (drill 0.9) (layers *.Cu *.Mask))
  (pad 91 thru_hole circle (at -13.97 -21.59) (size 1.524 1.524) (drill 0.9) (layers *.Cu *.Mask))
  (pad 89 thru_hole circle (at -11.43 -21.59) (size 1.524 1.524) (drill 0.9) (layers *.Cu *.Mask))
  (pad 87 thru_hole circle (at -8.89 -21.59) (size 1.524 1.524) (drill 0.9) (layers *.Cu *.Mask))
  (pad 85 thru_hole circle (at -6.35 -21.59) (size 1.524 1.524) (drill 0.9) (layers *.Cu *.Mask))
  (pad 83 thru_hole circle (at -3.81 -21.59) (size 1.524 1.524) (drill 0.9) (layers *.Cu *.Mask))
  (pad 81 thru_hole circle (at -1.27 -21.59) (size 1.524 1.524) (drill 0.9) (layers *.Cu *.Mask))
  (pad 79 thru_hole circle (at 1.27 -21.59) (size 1.524 1.524) (drill 0.9) (layers *.Cu *.Mask))
  (pad 77 thru_hole circle (at 3.81 -21.59) (size 1.524 1.524) (drill 0.9) (layers *.Cu *.Mask))
  (pad 75 thru_hole circle (at 6.35 -21.59) (size 1.524 1.524) (drill 0.9) (layers *.Cu *.Mask))
  (pad 73 thru_hole circle (at 8.89 -21.59) (size 1.524 1.524) (drill 0.9) (layers *.Cu *.Mask))
  (pad 71 thru_hole circle (at 11.43 -21.59) (size 1.524 1.524) (drill 0.9) (layers *.Cu *.Mask))
  (pad 69 thru_hole circle (at 13.97 -21.59) (size 1.524 1.524) (drill 0.9) (layers *.Cu *.Mask))
  (pad 67 thru_hole circle (at 16.51 -21.59) (size 1.524 1.524) (drill 0.9) (layers *.Cu *.Mask))
  (pad 65 thru_hole circle (at 19.05 -21.59) (size 1.524 1.524) (drill 0.9) (layers *.Cu *.Mask))
  (pad 98 thru_hole circle (at -24.13 -19.05) (size 1.524 1.524) (drill 0.9) (layers *.Cu *.Mask))
  (pad 97 thru_hole circle (at -21.59 -19.05) (size 1.524 1.524) (drill 0.9) (layers *.Cu *.Mask))
  (pad 100 thru_hole circle (at -24.13 -16.51) (size 1.524 1.524) (drill 0.9) (layers *.Cu *.Mask))
  (pad 99 thru_hole circle (at -21.59 -16.51) (size 1.524 1.524) (drill 0.9) (layers *.Cu *.Mask))
  (pad 102 thru_hole circle (at -24.13 -13.97) (size 1.524 1.524) (drill 0.9) (layers *.Cu *.Mask))
  (pad 101 thru_hole circle (at -21.59 -13.97) (size 1.524 1.524) (drill 0.9) (layers *.Cu *.Mask))
  (pad 104 thru_hole circle (at -24.13 -11.43) (size 1.524 1.524) (drill 0.9) (layers *.Cu *.Mask))
  (pad 103 thru_hole circle (at -21.59 -11.43) (size 1.524 1.524) (drill 0.9) (layers *.Cu *.Mask))
  (pad 106 thru_hole circle (at -24.13 -8.89) (size 1.524 1.524) (drill 0.9) (layers *.Cu *.Mask))
  (pad 105 thru_hole circle (at -21.59 -8.89) (size 1.524 1.524) (drill 0.9) (layers *.Cu *.Mask))
  (pad 108 thru_hole circle (at -24.13 -6.35) (size 1.524 1.524) (drill 0.9) (layers *.Cu *.Mask))
  (pad 107 thru_hole circle (at -21.59 -6.35) (size 1.524 1.524) (drill 0.9) (layers *.Cu *.Mask))
  (pad 110 thru_hole circle (at -24.13 -3.81) (size 1.524 1.524) (drill 0.9) (layers *.Cu *.Mask))
  (pad 109 thru_hole circle (at -21.59 -3.81) (size 1.524 1.524) (drill 0.9) (layers *.Cu *.Mask))
  (pad 112 thru_hole circle (at -24.13 -1.27) (size 1.524 1.524) (drill 0.9) (layers *.Cu *.Mask))
  (pad 111 thru_hole circle (at -21.59 -1.27) (size 1.524 1.524) (drill 0.9) (layers *.Cu *.Mask))
  (pad 114 thru_hole circle (at -24.13 1.27) (size 1.524 1.524) (drill 0.9) (layers *.Cu *.Mask))
  (pad 113 thru_hole circle (at -21.59 1.27) (size 1.524 1.524) (drill 0.9) (layers *.Cu *.Mask))
  (pad 116 thru_hole circle (at -24.13 3.81) (size 1.524 1.524) (drill 0.9) (layers *.Cu *.Mask))
  (pad 115 thru_hole circle (at -21.59 3.81) (size 1.524 1.524) (drill 0.9) (layers *.Cu *.Mask))
  (pad 118 thru_hole circle (at -24.13 6.35) (size 1.524 1.524) (drill 0.9) (layers *.Cu *.Mask))
  (pad 117 thru_hole circle (at -21.59 6.35) (size 1.524 1.524) (drill 0.9) (layers *.Cu *.Mask))
  (pad 120 thru_hole circle (at -24.13 8.89) (size 1.524 1.524) (drill 0.9) (layers *.Cu *.Mask))
  (pad 119 thru_hole circle (at -21.59 8.89) (size 1.524 1.524) (drill 0.9) (layers *.Cu *.Mask))
  (pad 122 thru_hole circle (at -24.13 11.43) (size 1.524 1.524) (drill 0.9) (layers *.Cu *.Mask))
  (pad 121 thru_hole circle (at -21.59 11.43) (size 1.524 1.524) (drill 0.9) (layers *.Cu *.Mask))
  (pad 124 thru_hole circle (at -24.13 13.97) (size 1.524 1.524) (drill 0.9) (layers *.Cu *.Mask))
  (pad 123 thru_hole circle (at -21.59 13.97) (size 1.524 1.524) (drill 0.9) (layers *.Cu *.Mask))
  (pad 126 thru_hole circle (at -24.13 16.51) (size 1.524 1.524) (drill 0.9) (layers *.Cu *.Mask))
  (pad 125 thru_hole circle (at -21.59 16.51) (size 1.524 1.524) (drill 0.9) (layers *.Cu *.Mask))
  (pad 128 thru_hole circle (at -24.13 19.05) (size 1.524 1.524) (drill 0.9) (layers *.Cu *.Mask))
  (pad 127 thru_hole circle (at -21.59 19.05) (size 1.524 1.524) (drill 0.9) (layers *.Cu *.Mask))
)
